# Blender v2.82 (sub 7) OBJ File: 'rail_moreturnouts.blend'
# www.blender.org
mtllib advtrains_dtrack_sy_l_30.mtl
o dtrack_sy_30.stockrails_Cube.031
v -0.412498 -0.460000 -0.499207
v -0.867957 -0.460000 0.816847
v -1.000621 -0.460000 0.750704
v -0.560732 -0.460000 -0.500346
v -0.474262 -0.440000 -0.499682
v -0.923234 -0.440000 0.789288
v -0.945344 -0.440000 0.778264
v -0.498968 -0.440000 -0.499871
v -0.474262 -0.390000 -0.499682
v -0.923234 -0.390000 0.789288
v -0.945344 -0.390000 0.778264
v -0.498968 -0.390000 -0.499871
v -0.972982 -0.385000 0.764484
v -0.529850 -0.385000 -0.500109
v -0.443380 -0.385000 -0.499444
v -0.895595 -0.385000 0.803068
v -0.972982 -0.360000 0.764484
v -0.529850 -0.360000 -0.500109
v -0.443380 -0.360000 -0.499444
v -0.895595 -0.360000 0.803068
v -0.418048 -0.460010 -0.287773
v -0.476454 -0.460231 -0.039783
v -0.581953 -0.460419 0.210270
v -0.686808 -0.460240 0.438868
v -0.784166 -0.460021 0.639752
v -0.919166 -0.460031 0.568761
v -0.825431 -0.460252 0.375268
v -0.724840 -0.460419 0.162705
v -0.625812 -0.460253 -0.067695
v -0.568237 -0.460030 -0.296114
v -0.480357 -0.440016 -0.291286
v -0.538254 -0.440237 -0.050963
v -0.640987 -0.440419 0.194335
v -0.743385 -0.440240 0.417738
v -0.839661 -0.440023 0.613201
v -0.863683 -0.440028 0.595058
v -0.768944 -0.440253 0.396055
v -0.665798 -0.440419 0.178417
v -0.564013 -0.440247 -0.056584
v -0.505744 -0.440023 -0.292641
v -0.480420 -0.390016 -0.291280
v -0.538405 -0.390238 -0.050949
v -0.640987 -0.390419 0.194335
v -0.743385 -0.390240 0.417738
v -0.839661 -0.390023 0.613201
v -0.863490 -0.390029 0.596354
v -0.768307 -0.390251 0.399979
v -0.665492 -0.390419 0.180724
v -0.563810 -0.390244 -0.057209
v -0.505734 -0.390022 -0.292642
v -0.890728 -0.385028 0.584767
v -0.796126 -0.385248 0.390460
v -0.694886 -0.385419 0.173976
v -0.594720 -0.385249 -0.061722
v -0.536899 -0.385025 -0.294389
v -0.449315 -0.385014 -0.289520
v -0.507723 -0.385236 -0.046380
v -0.611589 -0.385419 0.201185
v -0.715705 -0.385244 0.426723
v -0.812859 -0.385025 0.622817
v -0.890728 -0.360028 0.584767
v -0.796126 -0.360248 0.390460
v -0.694886 -0.360419 0.173976
v -0.594543 -0.360247 -0.061739
v -0.536826 -0.360025 -0.294396
v -0.449363 -0.360015 -0.289516
v -0.507760 -0.360239 -0.044869
v -0.612060 -0.360419 0.197694
v -0.716377 -0.360243 0.421071
v -0.812783 -0.360023 0.622502
v 0.595079 -0.390000 0.111590
v 0.716568 -0.390000 -0.010260
v 0.698203 -0.390000 -0.027776
v 0.575476 -0.390000 0.094755
v 0.471006 -0.390000 0.215435
v 0.391226 -0.390000 0.320416
v 0.334387 -0.390000 0.420300
v 0.275706 -0.390000 0.526871
v 0.142537 -0.460000 0.639973
v 0.791422 -0.460000 -0.208357
v 0.896243 -0.460000 -0.103537
v 0.274413 -0.460000 0.708791
v 0.197476 -0.440000 0.668632
v 0.835098 -0.440000 -0.164682
v 0.852568 -0.440000 -0.147212
v 0.219455 -0.440000 0.680102
v 0.197476 -0.390000 0.668632
v 0.835098 -0.390000 -0.164682
v 0.852568 -0.390000 -0.147212
v 0.219485 -0.390000 0.680150
v 0.874405 -0.385000 -0.125374
v 0.246932 -0.385000 0.694443
v 0.170033 -0.385000 0.654345
v 0.813260 -0.385000 -0.186520
v 0.874405 -0.360000 -0.125374
v 0.246933 -0.360000 0.694444
v 0.170005 -0.360000 0.654300
v 0.813260 -0.360000 -0.186520
v 0.508186 2.379186 -0.491594
v 0.297466 -0.440000 0.538912
v 0.355675 -0.440000 0.433160
v 0.412125 -0.440000 0.334354
v 0.491383 -0.440000 0.230779
v 0.595006 -0.440000 0.111468
v 0.716562 -0.440000 -0.010269
v 0.698694 -0.440000 -0.027439
v 0.576149 -0.440000 0.095152
v 0.471624 -0.440000 0.215747
v 0.391589 -0.440000 0.320580
v 0.334469 -0.440000 0.420334
v 0.275705 -0.440000 0.526870
v 0.351869 -0.460000 0.569018
v 0.408688 -0.460000 0.465225
v 0.463462 -0.460000 0.368789
v 0.540776 -0.460000 0.268361
v 0.307962 -0.360000 0.404300
v 0.248504 -0.360000 0.511817
v 0.324667 -0.360000 0.553965
v 0.382182 -0.360000 0.449193
v 0.437793 -0.360000 0.351571
v 0.516080 -0.360000 0.249569
v 0.618409 -0.360000 0.131746
v 0.738695 -0.360000 0.010997
v -0.130014 -0.460000 1.184773
v 0.142480 -0.460000 0.638233
v 0.275144 -0.460000 0.704377
v 0.002650 -0.460000 1.250917
v -0.074737 -0.440000 1.212333
v 0.197757 -0.440000 0.665793
v 0.219868 -0.440000 0.676817
v -0.052627 -0.440000 1.223357
v -0.074737 -0.390000 1.212333
v 0.197757 -0.390000 0.665793
v 0.219868 -0.390000 0.676817
v -0.052627 -0.390000 1.223357
v 0.247506 -0.385000 0.690597
v -0.024988 -0.385000 1.237137
v -0.102376 -0.385000 1.198553
v 0.170119 -0.385000 0.652013
v 0.247506 -0.360000 0.690597
v -0.024988 -0.360000 1.237137
v -0.102376 -0.360000 1.198553
v 0.170119 -0.360000 0.652013
v 0.642148 -0.460000 0.152276
v 0.761175 -0.460000 0.032564
v 0.654114 -0.460000 -0.070219
v 0.529005 -0.460000 0.054383
v 0.422223 -0.460000 0.178175
v 0.340251 -0.460000 0.286146
v 0.281454 -0.460000 0.388265
v 0.221304 -0.460000 0.496765
v 0.676410 -0.385000 -0.048820
v 0.552648 -0.385000 0.074882
v 0.446922 -0.385000 0.196968
v 0.365920 -0.385000 0.303363
v 0.307962 -0.385000 0.404300
v 0.248548 -0.385000 0.511887
v 0.324666 -0.385000 0.553962
v 0.382108 -0.385000 0.449142
v 0.437461 -0.385000 0.351360
v 0.515506 -0.385000 0.249196
v 0.617947 -0.385000 0.131418
v 0.738387 -0.385000 0.010754
v 0.297507 -0.390000 0.538977
v 0.355675 -0.390000 0.433160
v 0.412125 -0.390000 0.334354
v 0.491381 -0.390000 0.230784
v 0.676402 -0.360000 -0.048832
v 0.552577 -0.360000 0.074767
v 0.446924 -0.360000 0.196960
v 0.365920 -0.360000 0.303363
vt 0.569094 0.818607
vt 0.569094 0.922911
vt 0.537803 0.922911
vt 0.537803 0.818607
vt 0.341316 0.818607
vt 0.381947 0.818607
vt 0.381947 0.922911
vt 0.341316 0.922911
vt 0.429134 0.985493
vt 0.467789 0.972977
vt 0.483250 0.972977
vt 0.521905 0.985494
vt 0.609725 0.401390
vt 0.569094 0.401390
vt 0.569095 0.297086
vt 0.609725 0.297086
vt 0.413238 0.818607
vt 0.413238 0.922911
vt 0.467789 0.941686
vt 0.483250 0.941686
vt 0.518224 0.922911
vt 0.518224 0.818607
vt 0.413238 0.401390
vt 0.413238 0.297086
vt 0.432817 0.297086
vt 0.432817 0.401390
vt 0.502578 0.922911
vt 0.502578 0.818607
vt 0.448463 0.297086
vt 0.448463 0.401390
vt 0.502580 0.401390
vt 0.502580 0.297086
vt 0.448461 0.938557
vt 0.448461 0.922911
vt 0.502578 0.938557
vt 0.448461 0.818607
vt 0.448462 0.714303
vt 0.502579 0.714303
vt 0.448462 0.609998
vt 0.502579 0.609999
vt 0.448462 0.505694
vt 0.502579 0.505694
vt 0.432816 0.922911
vt 0.432816 0.818607
vt 0.432817 0.714303
vt 0.432817 0.609998
vt 0.432817 0.505694
vt 0.518225 0.297086
vt 0.518225 0.401390
vt 0.518224 0.505694
vt 0.518224 0.609999
vt 0.518224 0.714303
vt 0.413238 0.714303
vt 0.413238 0.609998
vt 0.413238 0.505694
vt 0.537804 0.297086
vt 0.537803 0.401390
vt 0.537803 0.505694
vt 0.537803 0.609999
vt 0.537803 0.714303
vt 0.381947 0.297086
vt 0.381947 0.401390
vt 0.381947 0.505694
vt 0.381947 0.609998
vt 0.381947 0.714303
vt 0.609725 0.922911
vt 0.609725 0.818607
vt 0.569094 0.714303
vt 0.609725 0.714303
vt 0.569094 0.609999
vt 0.609725 0.609999
vt 0.569094 0.505694
vt 0.609725 0.505694
vt 0.341316 0.297086
vt 0.341316 0.401390
vt 0.341316 0.505694
vt 0.341316 0.609998
vt 0.341316 0.714302
vt 0.518225 0.475893
vt 0.518224 0.565297
vt 0.502579 0.565297
vt 0.502579 0.475893
vt 0.518225 0.297086
vt 0.518225 0.386490
vt 0.502580 0.386490
vt 0.502580 0.297086
vt 0.518224 0.654700
vt 0.502579 0.654700
vt 0.569094 0.833508
vt 0.569094 0.922911
vt 0.537803 0.922911
vt 0.537803 0.833508
vt 0.341316 0.833507
vt 0.381947 0.833507
vt 0.381947 0.922911
vt 0.341316 0.922911
vt 0.429134 0.985493
vt 0.467789 0.972977
vt 0.483250 0.972977
vt 0.521905 0.985494
vt 0.609725 0.386490
vt 0.569094 0.386490
vt 0.569095 0.297086
vt 0.609725 0.297086
vt 0.467791 0.247020
vt 0.429136 0.234503
vt 0.521907 0.234503
vt 0.483253 0.247020
vt 0.483252 0.278311
vt 0.467790 0.278311
vt 0.413238 0.833507
vt 0.413238 0.922911
vt 0.467789 0.941686
vt 0.483250 0.941686
vt 0.518224 0.922911
vt 0.518224 0.833507
vt 0.413238 0.386490
vt 0.413238 0.297086
vt 0.432817 0.297086
vt 0.432817 0.386490
vt 0.502578 0.922911
vt 0.502578 0.833507
vt 0.448463 0.297086
vt 0.448463 0.386490
vt 0.502580 0.281440
vt 0.448463 0.281440
vt 0.448461 0.938557
vt 0.448461 0.922911
vt 0.502578 0.938557
vt 0.432817 0.565297
vt 0.432817 0.475893
vt 0.448462 0.475893
vt 0.448462 0.565297
vt 0.432816 0.744104
vt 0.432817 0.654700
vt 0.448462 0.654700
vt 0.448462 0.744104
vt 0.432816 0.922911
vt 0.432816 0.833507
vt 0.448461 0.833507
vt 0.537803 0.475893
vt 0.537803 0.565297
vt 0.381947 0.297086
vt 0.381947 0.386490
vt 0.537803 0.654700
vt 0.537803 0.744104
vt 0.518224 0.744104
vt 0.569095 0.297086
vt 0.569094 0.922911
vt 0.537803 0.922911
vt 0.537804 0.297086
vt 0.341316 0.297086
vt 0.381947 0.297086
vt 0.381947 0.922911
vt 0.341316 0.922911
vt 0.429134 0.985493
vt 0.467789 0.972977
vt 0.483250 0.972977
vt 0.521905 0.985494
vt 0.609725 0.922911
vt 0.609725 0.297086
vt 0.467791 0.247020
vt 0.429136 0.234503
vt 0.521907 0.234503
vt 0.483253 0.247020
vt 0.483252 0.278311
vt 0.467790 0.278311
vt 0.413238 0.297086
vt 0.413238 0.922911
vt 0.467789 0.941686
vt 0.483250 0.941686
vt 0.518224 0.922911
vt 0.518225 0.297086
vt 0.432817 0.297086
vt 0.432816 0.922911
vt 0.502578 0.922911
vt 0.502580 0.297086
vt 0.448463 0.297086
vt 0.448461 0.922911
vt 0.502580 0.281440
vt 0.448463 0.281440
vt 0.448461 0.938557
vt 0.502578 0.938557
vt 0.502578 0.744104
vt 0.413238 0.475893
vt 0.537804 0.297086
vt 0.537803 0.386490
vt 0.413238 0.565297
vt 0.413238 0.654700
vt 0.413238 0.744104
vt 0.569094 0.744104
vt 0.569094 0.475893
vt 0.569094 0.654700
vt 0.341316 0.744104
vt 0.381947 0.744104
vt 0.341316 0.654700
vt 0.381947 0.654700
vt 0.569094 0.565297
vt 0.609725 0.744104
vt 0.609725 0.654700
vt 0.341316 0.565297
vt 0.381947 0.565297
vt 0.341316 0.386489
vt 0.381947 0.475893
vt 0.341316 0.475893
vt 0.341316 0.297086
vt 0.609725 0.565297
vt 0.609725 0.475893
vt 0.609725 0.833508
vt 0.609725 0.922911
vn -0.9126 0.0071 -0.4087
vn 0.2789 0.9512 0.1321
vn -0.4462 -0.0000 0.8949
vn -0.3062 0.9519 -0.0105
vn 0.9034 0.0000 0.4288
vn -0.1487 -0.9866 -0.0673
vn 0.1592 -0.9872 0.0045
vn -0.9093 0.0000 -0.4162
vn 0.9996 0.0009 0.0284
vn -0.0001 1.0000 0.0001
vn 0.0000 1.0000 -0.0001
vn 0.0004 1.0000 -0.0009
vn 0.0002 1.0000 -0.0007
vn -0.0002 1.0000 0.0007
vn -0.0002 1.0000 0.0009
vn 0.9089 0.0012 0.4170
vn 0.8973 0.0628 0.4369
vn 0.9027 0.0973 0.4191
vn 0.9201 0.0248 0.3908
vn 0.9725 -0.0054 0.2329
vn -0.9994 0.0015 -0.0341
vn -0.9705 0.0047 -0.2410
vn -0.9202 0.0031 -0.3914
vn -0.9058 0.0000 -0.4236
vn -0.8991 0.0000 -0.4377
vn 0.1508 -0.9860 0.0705
vn 0.1543 -0.9850 0.0773
vn 0.1529 -0.9857 0.0711
vn 0.1522 -0.9863 0.0630
vn 0.1561 -0.9871 0.0367
vn -0.1589 -0.9873 -0.0054
vn -0.1549 -0.9871 -0.0393
vn -0.1513 -0.9863 -0.0652
vn -0.1523 -0.9858 -0.0706
vn -0.1514 -0.9858 -0.0724
vn 0.9996 0.0006 0.0294
vn 0.9721 0.0020 0.2344
vn 0.9225 0.0013 0.3861
vn 0.9091 0.0000 0.4167
vn 0.8971 0.0000 0.4419
vn -0.2821 0.9510 -0.1262
vn -0.2819 0.9497 -0.1364
vn -0.2855 0.9487 -0.1359
vn -0.2871 0.9499 -0.1232
vn -0.2978 0.9518 -0.0734
vn 0.3065 0.9518 0.0086
vn 0.2982 0.9518 0.0719
vn 0.2872 0.9501 0.1215
vn 0.2865 0.9491 0.1306
vn 0.2811 0.9500 0.1363
vn -0.9995 0.0001 -0.0327
vn -0.9709 0.0006 -0.2396
vn -0.9185 0.0113 -0.3952
vn -0.9040 0.0351 -0.4262
vn -0.9010 0.0301 -0.4328
vn 0.8695 -0.0097 0.4938
vn 0.8750 -0.0001 0.4842
vn 0.7938 -0.0215 0.6078
vn 0.8768 -0.0018 0.4809
vn 0.7095 -0.0001 0.7047
vn -0.2185 0.9514 -0.2171
vn 0.7071 -0.0000 -0.7071
vn 0.2683 0.9518 0.1485
vn -0.4626 0.0005 0.8865
vn -0.4631 -0.0003 0.8863
vn -0.7082 -0.0059 -0.7060
vn 0.1143 -0.9869 0.1139
vn -0.1395 -0.9872 -0.0770
vn 0.7081 -0.0078 0.7061
vn -0.8758 -0.0024 -0.4826
vn -0.0000 1.0000 0.0000
vn -0.4625 0.0004 0.8866
vn -0.8672 0.0000 -0.4980
vn -0.7562 -0.0027 -0.6543
vn -0.8752 -0.0014 -0.4837
vn -0.7957 -0.0001 -0.6057
vn -0.7093 -0.0003 -0.7049
vn -0.7067 -0.0029 -0.7075
vn 0.1399 -0.9870 0.0796
vn -0.8755 0.0000 -0.4832
vn 0.1229 -0.9866 0.1069
vn 0.1289 -0.9867 0.0986
vn 0.1155 -0.9866 0.1152
vn 0.8949 0.0000 0.4462
vn -0.2757 0.9514 -0.1375
vn 0.4462 -0.0000 -0.8949
vn 0.2757 0.9514 0.1375
vn -0.8949 0.0000 -0.4462
vn 0.1430 -0.9871 0.0713
vn -0.1430 -0.9871 -0.0713
vn -0.1397 -0.9872 -0.0770
vn 0.1394 -0.9872 0.0771
vn -0.1397 -0.9870 -0.0799
vn -0.1291 -0.9867 -0.0982
vn 0.1399 -0.9872 0.0768
vn -0.1143 -0.9869 -0.1139
vn -0.1153 -0.9866 -0.1154
vn 0.7080 -0.0190 0.7060
vn 0.7545 -0.0248 0.6558
vn -0.1232 -0.9866 -0.1066
vn 0.7079 -0.0015 0.7063
vn 0.8762 -0.0007 0.4820
vn 0.7547 -0.0014 0.6560
vn 0.8753 -0.0012 0.4837
vn -0.2170 0.9517 -0.2174
vn -0.2318 0.9519 -0.2004
vn 0.7942 -0.0000 0.6077
vn 0.8683 0.0000 0.4961
vn 0.2310 0.9519 0.2012
vn -0.2447 0.9515 -0.1863
vn -0.2685 0.9518 -0.1485
vn -0.2687 0.9518 -0.1480
vn -0.2670 0.9514 -0.1533
vn 0.2676 0.9514 0.1524
vn 0.2690 0.9518 0.1476
vn 0.2440 0.9515 0.1873
vn -0.7558 -0.0144 -0.6547
vn 0.2174 0.9517 0.2166
vn -0.7955 -0.0107 -0.6059
vn -0.8685 -0.0048 -0.4957
vn -0.8758 -0.0009 -0.4827
vn 0.2185 0.9514 0.2169
vn -0.7068 -0.0134 -0.7073
usemtl Rails
s off
f 36/1/1 7/2/1 11/3/1 46/4/1
f 25/5/2 35/6/2 6/7/2 2/8/2
f 2/9/3 6/10/3 7/11/3 3/12/3
f 30/13/4 40/14/4 8/15/4 4/16/4
f 35/6/5 45/17/5 10/18/5 6/7/5
f 7/11/3 6/10/3 10/19/3 11/20/3
f 46/4/6 11/3/6 13/21/6 51/22/6
f 41/23/7 9/24/7 15/25/7 56/26/7
f 51/22/8 13/21/8 17/27/8 61/28/8
f 56/26/9 15/25/9 19/29/9 66/30/9
f 65/31/10 66/30/10 19/29/10 18/32/10
f 10/19/3 16/33/3 20/34/3 17/27/3 13/35/3 11/20/3
f 17/27/11 20/34/11 70/36/11 61/28/11
f 61/28/12 70/36/12 69/37/12 62/38/12
f 62/38/13 69/37/13 68/39/13 63/40/13
f 63/40/14 68/39/14 67/41/14 64/42/14
f 64/42/15 67/41/15 66/30/15 65/31/15
f 16/43/16 60/44/16 70/36/16 20/34/16
f 60/44/17 59/45/17 69/37/17 70/36/17
f 59/45/18 58/46/18 68/39/18 69/37/18
f 58/46/19 57/47/19 67/41/19 68/39/19
f 57/47/20 56/26/20 66/30/20 67/41/20
f 14/48/21 55/49/21 65/31/21 18/32/21
f 55/49/22 54/50/22 64/42/22 65/31/22
f 54/50/23 53/51/23 63/40/23 64/42/23
f 53/51/24 52/52/24 62/38/24 63/40/24
f 52/52/25 51/22/25 61/28/25 62/38/25
f 10/18/26 45/17/26 60/44/26 16/43/26
f 45/17/27 44/53/27 59/45/27 60/44/27
f 44/53/28 43/54/28 58/46/28 59/45/28
f 43/54/29 42/55/29 57/47/29 58/46/29
f 42/55/30 41/23/30 56/26/30 57/47/30
f 12/56/31 50/57/31 55/49/31 14/48/31
f 50/57/32 49/58/32 54/50/32 55/49/32
f 49/58/33 48/59/33 53/51/33 54/50/33
f 48/59/34 47/60/34 52/52/34 53/51/34
f 47/60/35 46/4/35 51/22/35 52/52/35
f 5/61/36 9/24/36 41/23/36 31/62/36
f 31/62/37 41/23/37 42/55/37 32/63/37
f 32/63/38 42/55/38 43/54/38 33/64/38
f 33/64/39 43/54/39 44/53/39 34/65/39
f 34/65/40 44/53/40 45/17/40 35/6/40
f 3/66/41 7/2/41 36/1/41 26/67/41
f 26/67/42 36/1/42 37/68/42 27/69/42
f 27/69/43 37/68/43 38/70/43 28/71/43
f 28/71/44 38/70/44 39/72/44 29/73/44
f 29/73/45 39/72/45 40/14/45 30/13/45
f 1/74/46 5/61/46 31/62/46 21/75/46
f 21/75/47 31/62/47 32/63/47 22/76/47
f 22/76/48 32/63/48 33/64/48 23/77/48
f 23/77/49 33/64/49 34/65/49 24/78/49
f 24/78/50 34/65/50 35/6/50 25/5/50
f 8/15/51 40/14/51 50/57/51 12/56/51
f 40/14/52 39/72/52 49/58/52 50/57/52
f 39/72/53 38/70/53 48/59/53 49/58/53
f 38/70/54 37/68/54 47/60/54 48/59/54
f 37/68/55 36/1/55 46/4/55 47/60/55
f 159/79/56 160/80/56 120/81/56 119/82/56
f 92/83/57 158/84/57 118/85/57 96/86/57
f 160/80/58 161/87/58 121/88/58 120/81/58
f 158/84/59 159/79/59 119/82/59 118/85/59
f 105/89/60 85/90/60 89/91/60 72/92/60
f 146/93/61 106/94/61 84/95/61 80/96/61
f 80/97/62 84/98/62 85/99/62 81/100/62
f 112/101/63 100/102/63 86/103/63 82/104/63
f 83/105/64 79/106/64 82/107/64 86/108/64
f 90/109/65 87/110/65 83/105/65 86/108/65
f 106/94/66 73/111/66 88/112/66 84/95/66
f 85/99/62 84/98/62 88/113/62 89/114/62
f 72/92/67 89/91/67 91/115/67 163/116/67
f 78/117/68 87/118/68 93/119/68 157/120/68
f 163/116/69 91/115/69 95/121/69 123/122/69
f 157/120/70 93/119/70 97/123/70 117/124/70
f 118/85/71 117/124/71 97/123/71 96/86/71
f 87/110/72 90/109/72 92/125/72 96/86/72 97/123/72 93/126/72
f 88/113/62 94/127/62 98/128/62 95/121/62 91/129/62 89/114/62
f 155/130/73 156/131/73 116/132/73 171/133/73
f 153/134/74 154/135/74 170/136/74 169/137/74
f 156/131/75 157/120/75 117/124/75 116/132/75
f 154/135/76 155/130/76 171/133/76 170/136/76
f 94/138/77 152/139/77 168/140/77 98/128/77
f 120/81/71 171/133/71 116/132/71 119/82/71
f 152/139/78 153/134/78 169/137/78 168/140/78
f 119/82/71 116/132/71 117/124/71 118/85/71
f 165/141/79 166/142/79 160/80/79 159/79/79
f 83/143/80 87/118/80 78/117/80 111/144/80
f 167/145/81 71/146/81 162/147/81 161/87/81
f 166/142/82 167/145/82 161/87/82 160/80/82
f 71/146/83 72/92/83 163/116/83 162/147/83
f 131/148/84 130/149/84 134/150/84 135/151/84
f 124/152/85 128/153/85 129/154/85 125/155/85
f 125/156/86 129/157/86 130/158/86 126/159/86
f 126/160/87 130/149/87 131/148/87 127/161/87
f 128/162/3 124/163/3 127/164/3 131/165/3
f 135/166/3 132/167/3 128/162/3 131/165/3
f 128/153/88 132/168/88 133/169/88 129/154/88
f 130/158/86 129/157/86 133/170/86 134/171/86
f 135/151/89 134/150/89 136/172/89 137/173/89
f 133/169/90 132/168/90 138/174/90 139/175/90
f 137/173/84 136/172/84 140/176/84 141/177/84
f 139/175/88 138/174/88 142/178/88 143/179/88
f 140/176/71 143/179/71 142/178/71 141/177/71
f 132/167/3 135/166/3 137/180/3 141/177/3 142/178/3 138/181/3
f 133/170/86 139/182/86 143/179/86 140/176/86 136/183/86 134/171/86
f 122/184/71 169/137/71 170/136/71 121/88/71
f 95/121/71 98/128/71 168/140/71 123/122/71
f 121/88/71 170/136/71 171/133/71 120/81/71
f 123/122/71 168/140/71 169/137/71 122/184/71
f 77/185/91 78/117/91 157/120/91 156/131/91
f 90/186/92 164/187/92 158/84/92 92/83/92
f 76/188/93 77/185/93 156/131/93 155/130/93
f 75/189/94 76/188/94 155/130/94 154/135/94
f 164/187/95 165/141/95 159/79/95 158/84/95
f 88/112/96 73/111/96 152/139/96 94/138/96
f 73/111/97 74/190/97 153/134/97 152/139/97
f 162/147/98 163/116/98 123/122/98 122/184/98
f 161/87/99 162/147/99 122/184/99 121/88/99
f 74/190/100 75/189/100 154/135/100 153/134/100
f 104/191/101 105/89/101 72/92/101 71/146/101
f 100/102/102 101/192/102 165/141/102 164/187/102
f 103/193/103 104/191/103 71/146/103 167/145/103
f 86/103/104 100/102/104 164/187/104 90/186/104
f 147/194/105 107/195/105 106/94/105 146/93/105
f 148/196/106 108/197/106 107/195/106 147/194/106
f 102/198/107 103/193/107 167/145/107 166/142/107
f 101/192/108 102/198/108 166/142/108 165/141/108
f 144/199/109 104/191/109 103/193/109 115/200/109
f 149/201/110 109/202/110 108/197/110 148/196/110
f 151/203/111 111/144/111 110/204/111 150/205/111
f 79/206/112 83/143/112 111/144/112 151/203/112
f 150/205/113 110/204/113 109/202/113 149/201/113
f 114/207/114 102/198/114 101/192/114 113/208/114
f 113/208/115 101/192/115 100/102/115 112/101/115
f 115/200/116 103/193/116 102/198/116 114/207/116
f 108/197/117 75/189/117 74/190/117 107/195/117
f 145/209/118 105/89/118 104/191/118 144/199/118
f 109/202/119 76/188/119 75/189/119 108/197/119
f 110/204/120 77/185/120 76/188/120 109/202/120
f 111/144/121 78/117/121 77/185/121 110/204/121
f 81/210/122 85/90/122 105/89/122 145/209/122
f 107/195/123 74/190/123 73/111/123 106/94/123
o dtrack_sy_30.blades_l_BezierCurve.012
v 0.248790 -0.363689 0.510939
v 0.364351 -0.362650 0.304767
v 0.438110 -0.361764 0.138664
v 0.474770 -0.361283 0.045731
v 0.500940 -0.360917 -0.036048
v 0.524462 -0.360542 -0.140824
v 0.531486 -0.360248 -0.267741
v 0.529216 -0.360000 -0.499985
v 0.244118 -0.363737 0.512114
v 0.299201 -0.363333 0.364227
v 0.354066 -0.362673 0.213728
v 0.383801 -0.362195 0.110876
v 0.407432 -0.361713 0.004971
v 0.427659 -0.361093 -0.145101
v 0.438844 -0.360476 -0.321803
v 0.443172 -0.360070 -0.500000
v 0.438110 -0.386764 0.138664
v 0.500940 -0.385917 -0.036048
v 0.244118 -0.388737 0.512114
v 0.299201 -0.388334 0.364227
v 0.354066 -0.387673 0.213728
v 0.383801 -0.387195 0.110876
v 0.443172 -0.385070 -0.500000
v 0.445670 -0.391484 0.035348
v 0.471110 -0.391095 -0.044151
v 0.493771 -0.390693 -0.145088
v 0.500597 -0.390359 -0.268444
v 0.498334 -0.390009 -0.499990
v 0.437858 -0.391483 0.010406
v 0.458408 -0.390907 -0.142059
v 0.469701 -0.390355 -0.320452
v 0.474061 -0.390029 -0.499994
v 0.248790 -0.388690 0.510939
v 0.364351 -0.387651 0.304767
v 0.474770 -0.386283 0.045731
v 0.524462 -0.385543 -0.140824
v 0.531486 -0.385249 -0.267741
v 0.529216 -0.385000 -0.499985
v 0.407432 -0.386713 0.004971
v 0.427659 -0.386093 -0.145101
v 0.438844 -0.385476 -0.321803
v 0.445670 -0.441484 0.035348
v 0.471110 -0.441096 -0.044151
v 0.493771 -0.440693 -0.145088
v 0.500597 -0.440359 -0.268444
v 0.498334 -0.440009 -0.499990
v 0.437858 -0.441483 0.010406
v 0.458408 -0.440907 -0.142059
v 0.474061 -0.440029 -0.499994
v 0.458408 -0.460907 -0.142059
v 0.412309 -0.460125 -0.501494
v 0.418276 -0.460565 -0.322502
v 0.469701 -0.440356 -0.320452
v 0.469701 -0.460356 -0.320452
v 0.427656 -0.461094 -0.144735
v 0.407432 -0.461713 0.004971
v 0.560101 -0.460000 -0.500594
v 0.556667 -0.460172 -0.267352
v 0.474770 -0.461283 0.045731
v 0.499101 -0.460927 -0.036810
v 0.535876 -0.460489 -0.139896
v 0.248790 -0.463689 0.510939
v 0.364351 -0.462650 0.304767
v 0.438110 -0.461764 0.138664
v 0.244118 -0.463737 0.512114
v 0.299201 -0.463333 0.364227
v 0.354066 -0.462673 0.213728
v 0.383801 -0.462195 0.110876
v -0.556497 -0.360000 0.338725
v -0.373560 -0.360017 -0.151102
v -0.324521 -0.360031 -0.282101
v -0.290191 -0.360043 -0.359860
v -0.205776 -0.360078 -0.504570
v -0.149466 -0.360095 -0.580681
v -0.056790 -0.360096 -0.690356
v 0.125594 -0.360000 -0.874626
v -0.552883 -0.360000 0.339990
v -0.366783 -0.360036 -0.035216
v -0.291105 -0.360078 -0.191271
v -0.228321 -0.360116 -0.301436
v -0.151289 -0.360155 -0.419505
v -0.001149 -0.360159 -0.612851
v 0.186740 -0.360000 -0.813480
v -0.324521 -0.390031 -0.282101
v -0.290193 -0.385044 -0.359860
v -0.366783 -0.390036 -0.035216
v -0.001150 -0.385159 -0.612852
v -0.264022 -0.390072 -0.342571
v -0.181244 -0.390106 -0.484819
v -0.126269 -0.390120 -0.559374
v -0.034584 -0.390115 -0.668293
v 0.147433 -0.390000 -0.852787
v -0.253122 -0.390088 -0.320633
v -0.175043 -0.390127 -0.440059
v -0.023747 -0.390138 -0.634383
v 0.164904 -0.390000 -0.835316
v -0.556497 -0.390000 0.338725
v -0.373560 -0.390017 -0.151102
v -0.205777 -0.385079 -0.504571
v -0.149467 -0.385096 -0.580682
v -0.056790 -0.385096 -0.690356
v 0.125594 -0.385000 -0.874626
v -0.552883 -0.390000 0.339990
v -0.291105 -0.390078 -0.191271
v -0.228323 -0.385116 -0.301437
v -0.151290 -0.385156 -0.419505
v 0.186740 -0.385000 -0.813480
v -0.366783 -0.460036 -0.035216
v -0.228441 -0.460116 -0.301343
v -0.556497 -0.460000 0.338725
v -0.373560 -0.460017 -0.151102
v -0.552883 -0.460000 0.339990
v -0.291105 -0.460078 -0.191271
v -0.324521 -0.460031 -0.282101
v -0.264052 -0.440074 -0.342582
v -0.181266 -0.440108 -0.484827
v -0.126287 -0.440122 -0.559380
v -0.034595 -0.440116 -0.668297
v 0.147433 -0.440000 -0.852787
v -0.253153 -0.440090 -0.320644
v -0.175067 -0.440129 -0.440067
v -0.023758 -0.440139 -0.634387
v 0.164904 -0.440000 -0.835316
v 0.147433 -0.460000 -0.852787
v 0.164904 -0.460000 -0.835316
v 0.208672 -0.460000 -0.791727
v 0.013771 -0.460173 -0.598379
v -0.151469 -0.460155 -0.419285
v -0.072848 -0.460082 -0.706480
v 0.104590 -0.460000 -0.897284
v -0.157224 -0.460087 -0.587901
v -0.290059 -0.460043 -0.360718
v -0.208594 -0.460075 -0.507011
vt 0.482418 0.571192
vt 0.485644 0.610630
vt 0.460707 0.577273
vt 0.504265 0.700955
vt 0.504265 0.583142
vt 0.522694 0.583142
vt 0.522694 0.700955
vt 0.450270 0.519043
vt 0.450270 0.701539
vt 0.430967 0.701539
vt 0.430967 0.519043
vt 0.504265 0.465056
vt 0.522694 0.465056
vt 0.450270 0.378712
vt 0.430967 0.378712
vt 0.504264 0.386131
vt 0.522694 0.386131
vt 0.450270 0.301572
vt 0.430967 0.301572
vt 0.504264 0.306141
vt 0.522694 0.306141
vt 0.503328 0.583691
vt 0.504175 0.631561
vt 0.518273 0.631283
vt 0.517468 0.583525
vt 0.449067 0.625783
vt 0.448508 0.515334
vt 0.430312 0.515383
vt 0.430833 0.625876
vt 0.502527 0.523262
vt 0.516669 0.523251
vt 0.448480 0.386814
vt 0.430450 0.386782
vt 0.502950 0.451283
vt 0.517072 0.451304
vt 0.449067 0.257932
vt 0.431090 0.257842
vt 0.502527 0.320593
vt 0.516595 0.320547
vt 0.504239 0.708815
vt 0.504239 0.700986
vt 0.522662 0.708815
vt 0.456700 0.423210
vt 0.494224 0.410424
vt 0.485312 0.475252
vt 0.450766 0.509378
vt 0.481628 0.531096
vt 0.454246 0.540921
vt 0.474561 0.339251
vt 0.505729 0.345558
vt 0.449933 0.469699
vt 0.535494 0.630412
vt 0.535033 0.583372
vt 0.534951 0.523218
vt 0.534699 0.451282
vt 0.534042 0.320299
vt 0.577930 0.700986
vt 0.577930 0.708815
vt 0.407606 0.515377
vt 0.407814 0.626926
vt 0.407981 0.386727
vt 0.408358 0.257191
vt 0.564175 0.522899
vt 0.563106 0.450951
vt 0.371843 0.386621
vt 0.371607 0.515168
vt 0.561875 0.320091
vt 0.563036 0.630448
vt 0.563639 0.583286
vt 0.372007 0.257094
vt 0.370951 0.626869
vt 0.583332 0.583397
vt 0.591012 0.522621
vt 0.583519 0.631332
vt 0.324975 0.257042
vt 0.331936 0.386585
vt 0.494476 0.669170
vt 0.475239 0.642852
vt 0.344864 0.515325
vt 0.344072 0.625717
vt 0.597013 0.450235
vt 0.597967 0.319607
vt 0.000000 0.000000
vt 0.000000 0.000000
vt 0.000000 0.000000
vt 0.000000 0.000000
vt 0.501973 0.726012
vt 0.505729 0.727155
vt 0.373056 0.519043
vt 0.373056 0.378712
vt 0.577982 0.465056
vt 0.577982 0.583142
vt 0.373056 0.301572
vt 0.577982 0.386131
vt 0.577982 0.306141
vt 0.373056 0.701539
vt 0.577982 0.700955
vt 0.000000 0.000000
vt 0.000000 0.000000
vt 0.000000 0.000000
vt 0.000000 0.000000
vt 0.455350 0.541065
vt 0.478424 0.558258
vt 0.478089 0.517407
vt 0.392758 0.527786
vt 0.432861 0.527786
vt 0.432861 0.227171
vt 0.392758 0.227171
vt 0.517270 0.638621
vt 0.505196 0.638621
vt 0.505196 0.575611
vt 0.519684 0.575611
vt 0.432861 0.608656
vt 0.450048 0.608656
vt 0.450048 0.658154
vt 0.435726 0.658154
vt 0.553489 0.575611
vt 0.553489 0.638548
vt 0.504807 0.718713
vt 0.518344 0.718749
vt 0.518525 0.639739
vt 0.505017 0.639719
vt 0.450263 0.626920
vt 0.436575 0.626932
vt 0.435942 0.721174
vt 0.449812 0.721254
vt 0.518483 0.503236
vt 0.505085 0.503242
vt 0.449983 0.573557
vt 0.436339 0.573603
vt 0.518167 0.353495
vt 0.504807 0.353524
vt 0.449937 0.493158
vt 0.436356 0.493149
vt 0.505179 0.490306
vt 0.519714 0.490306
vt 0.519714 0.492161
vt 0.505179 0.492161
vt 0.450263 0.350764
vt 0.436692 0.350733
vt 0.000000 0.000000
vt 0.000000 0.000000
vt 0.000000 0.000000
vt 0.000000 0.000000
vt 0.418599 0.720149
vt 0.419289 0.626889
vt 0.419243 0.573645
vt 0.419366 0.493121
vt 0.419784 0.350370
vt 0.535434 0.639737
vt 0.535154 0.719266
vt 0.535218 0.503219
vt 0.534886 0.353416
vt 0.000000 0.000000
vt 0.000000 0.000000
vt 0.519684 0.286194
vt 0.553489 0.286194
vt 0.553489 0.490257
vt 0.519684 0.490257
vt 0.450048 0.227171
vt 0.450048 0.527786
vt 0.505196 0.490257
vt 0.505196 0.286194
vt 0.392758 0.608656
vt 0.392758 0.658627
vt 0.000000 0.000000
vt 0.000000 0.000000
vt 0.391818 0.573526
vt 0.391476 0.626688
vt 0.562259 0.639646
vt 0.562107 0.503168
vt 0.392111 0.492985
vt 0.561874 0.353353
vt 0.392778 0.350261
vt 0.391544 0.720022
vt 0.562478 0.719300
vt 0.361111 0.492742
vt 0.366770 0.573335
vt 0.000000 0.000000
vt 0.000000 0.000000
vt 0.357577 0.350055
vt 0.369572 0.626671
vt 0.371487 0.720483
vt 0.000000 0.000000
vt 0.591779 0.503166
vt 0.596794 0.353293
vt 0.582141 0.639777
vt 0.582416 0.718853
vt 0.000000 0.000000
vt 0.498284 0.745044
vt 0.500525 0.744331
vt 0.482905 0.613415
vt 0.000000 0.000000
vt 0.000000 0.000000
vt 0.000000 0.000000
vt 0.000000 0.000000
vt 0.000000 0.000000
vt 0.000000 0.000000
vt 0.000000 0.000000
vt 0.000000 0.000000
vt 0.462732 0.584643
vt 0.452413 0.514173
vt 0.480214 0.471779
vt 0.452111 0.460256
vt 0.454726 0.429723
vt 0.488452 0.392936
vt 0.460652 0.383783
vt 0.500525 0.306499
vt 0.473718 0.302698
vt 0.553628 0.490306
vt 0.553628 0.492161
vn -0.0090 1.0000 0.0020
vn -0.9371 0.0000 -0.3490
vn 0.8723 0.0000 0.4889
vn -0.9395 0.0000 -0.3425
vn 0.9139 0.0000 0.4058
vn -0.9607 0.0000 -0.2777
vn 0.9302 0.0000 0.3670
vn -0.9760 0.0000 -0.2178
vn 0.9524 0.0000 0.3048
vn -0.9910 0.0000 -0.1336
vn 0.9757 0.0000 0.2190
vn -0.9980 0.0000 -0.0632
vn 0.9985 0.0000 0.0553
vn -0.9997 0.0000 -0.0243
vn 1.0000 0.0000 -0.0098
vn 0.2439 0.0000 0.9698
vn -0.0043 1.0000 0.0032
vn -0.0071 1.0000 0.0032
vn -0.0081 1.0000 0.0028
vn -0.0008 1.0000 0.0023
vn -0.0031 1.0000 0.0011
vn -0.0058 1.0000 0.0020
vn -0.0058 1.0000 0.0023
vn 0.1592 -0.9862 0.0463
vn 0.1617 -0.9863 0.0326
vn 0.1638 -0.9865 0.0066
vn 0.1617 -0.9868 -0.0029
vn -0.1514 -0.9882 -0.0243
vn -0.1545 -0.9879 -0.0130
vn -0.1572 -0.9875 -0.0058
vn 0.4682 0.8725 0.1400
vn -0.0076 1.0000 0.0020
vn 0.5271 0.8335 0.1657
vn -0.0088 1.0000 0.0017
vn -0.3356 0.9420 0.0035
vn -0.0097 1.0000 0.0009
vn -0.4412 0.8974 0.0004
vn -0.5434 0.8366 -0.0700
vn -0.0100 0.9999 0.0009
vn 0.3200 0.9474 0.0019
vn 0.3361 0.0000 -0.9418
vn -0.0121 0.9999 -0.0017
vn 0.3714 0.9275 0.0433
vn -0.0105 0.9999 -0.0012
vn 0.1758 0.0000 -0.9844
vn 0.0009 1.0000 0.0002
vn 0.9368 0.0000 0.3499
vn 0.8688 -0.0000 0.4951
vn -0.9148 0.0000 -0.4039
vn -0.8689 0.0004 -0.4949
vn 0.8375 -0.0001 0.5464
vn -0.8638 0.0001 -0.5039
vn 0.7898 -0.0000 0.6133
vn -0.8039 0.0000 -0.5948
vn 0.7299 -0.0000 0.6836
vn -0.7638 0.0000 -0.6454
vn -0.3304 0.0000 0.9438
vn -0.7107 0.0000 -0.7035
vn 0.7071 0.0000 -0.7071
vn -0.1375 -0.9873 -0.0799
vn -0.1273 -0.9874 -0.0938
vn -0.1210 -0.9874 -0.1020
vn -0.1129 -0.9873 -0.1121
vn 0.1316 -0.9875 0.0863
vn 0.1242 -0.9875 0.0966
vn 0.1161 -0.9873 0.1082
vn 0.8959 0.0000 0.4443
vn -0.9368 0.0000 -0.3499
vn -0.9365 0.0000 -0.3506
vn 0.8998 0.0000 0.4363
vn -0.8998 0.0000 -0.4363
vn 0.9154 -0.0015 0.4026
vn -0.8048 0.0004 -0.5935
vn 0.7890 -0.0004 0.6144
vn -0.7650 0.0003 -0.6440
vn 0.7290 -0.0001 0.6845
vn -0.7119 0.0001 -0.7023
vn -0.8643 0.0005 -0.5030
vn 0.8370 -0.0006 0.5472
vn -0.3050 0.9227 -0.2360
vn 0.7057 0.0000 -0.7086
vn -0.2359 0.9452 -0.2255
vn -0.4483 0.8566 -0.2554
vn 0.2375 0.9433 0.2318
vn 0.3305 0.9013 0.2801
vn 0.4525 0.8414 0.2953
vn 0.7204 0.0000 -0.6936
vn 0.0000 1.0000 -0.0001
vn -0.3810 0.8870 -0.2608
vn 0.6136 -0.0013 -0.7896
vn 0.5605 0.0062 -0.8282
vn 0.0005 1.0000 0.0001
vn 0.0008 1.0000 0.0002
vn 0.0008 1.0000 0.0001
vn 0.0009 1.0000 0.0003
vn 0.0008 1.0000 0.0004
vn 0.0005 1.0000 0.0004
vn -0.0003 1.0000 0.0003
vn 0.0000 1.0000 0.0008
vn 0.9365 0.0000 0.3506
usemtl Rails
s off
f 183/211/124 182/212/124 174/213/124
f 180/214/125 181/215/125 191/216/125 190/217/125
f 173/218/126 172/219/126 204/220/126 205/221/126
f 181/215/127 182/222/127 192/223/127 191/216/127
f 174/224/128 173/218/128 205/221/128 188/225/128
f 182/222/129 183/226/129 193/227/129 192/223/129
f 175/228/130 174/224/130 188/225/130 206/229/130
f 183/226/131 184/230/131 210/231/131 193/227/131
f 176/232/132 175/233/132 206/234/132 189/235/132
f 184/236/133 185/237/133 211/238/133 210/239/133
f 177/240/134 176/232/134 189/235/134 207/241/134
f 185/237/135 186/242/135 212/243/135 211/238/135
f 178/244/136 177/240/136 207/241/136 208/245/136
f 186/242/137 187/246/137 194/247/137 212/243/137
f 179/248/138 178/244/138 208/245/138 209/249/138
f 172/250/139 180/251/139 190/217/139 204/252/139
f 178/253/140 186/254/140 185/255/140
f 176/256/141 185/255/141 184/257/141
f 175/258/142 184/257/142 183/211/142
f 179/259/143 187/260/143 186/254/143
f 178/253/144 179/259/144 186/254/144
f 177/261/145 178/253/145 185/255/145
f 176/256/146 177/261/146 185/255/146
f 195/262/147 196/263/147 189/235/147 206/234/147
f 196/263/148 197/264/148 207/241/148 189/235/148
f 197/264/149 198/265/149 208/245/149 207/241/149
f 198/265/150 199/266/150 209/249/150 208/245/150
f 204/252/139 190/217/139 236/267/139 233/268/139
f 201/269/151 200/270/151 210/239/151 211/238/151
f 202/271/152 201/269/152 211/238/152 212/243/152
f 203/272/153 202/271/153 212/243/153 194/247/153
f 198/265/136 197/264/136 215/273/136 216/274/136
f 201/269/135 202/271/135 224/275/135 219/276/135
f 199/266/138 198/265/138 216/274/138 217/277/138
f 196/263/132 195/262/132 213/278/132 214/279/132
f 202/271/137 203/272/137 220/280/137 224/275/137
f 197/264/134 196/263/134 214/279/134 215/273/134
f 200/270/133 201/269/133 219/276/133 218/281/133
f 215/273/154 214/279/154 231/282/154 232/283/154
f 175/258/155 176/256/155 184/257/155
f 214/279/156 213/278/156 230/284/156 231/282/156
f 174/213/157 175/258/157 183/211/157
f 224/275/158 220/280/158 222/285/158 223/286/158
f 181/287/159 173/288/159 182/212/159
f 219/276/160 224/275/160 223/286/160 226/289/160
f 218/281/161 219/276/161 226/289/161 227/290/161
f 173/288/162 174/213/162 182/212/162
f 217/277/163 216/274/163 229/291/163 228/292/163
f 206/293/164 230/294/164 213/295/164 195/296/164
f 172/297/165 173/288/165 181/287/165
f 216/274/166 215/273/166 232/283/166 229/291/166
f 181/287/167 180/298/167 172/297/167
f 188/225/128 205/221/128 234/299/128 235/300/128
f 191/216/127 192/223/127 238/301/127 237/302/127
f 206/229/130 188/225/130 235/300/130 230/303/130
f 192/223/129 193/227/129 239/304/129 238/301/129
f 193/227/131 210/231/131 227/305/131 239/304/131
f 205/221/126 204/220/126 233/306/126 234/299/126
f 190/217/125 191/216/125 237/302/125 236/307/125
f 210/308/168 200/309/168 218/310/168 227/311/168
f 242/312/169 250/313/169 251/314/169
f 282/315/170 269/316/170 268/317/170 281/318/170
f 276/319/171 251/320/171 250/321/171 275/322/171
f 255/323/172 242/324/172 243/325/172 256/326/172
f 284/327/173 275/322/173 276/319/173 280/328/173
f 251/329/174 276/330/174 277/331/174 252/332/174
f 244/333/175 270/334/175 256/335/175 243/336/175
f 252/332/176 277/331/176 258/337/176 253/338/176
f 245/339/177 271/340/177 270/334/177 244/333/177
f 253/338/178 258/337/178 278/341/178 254/342/178
f 246/343/179 272/344/179 271/340/179 245/339/179
f 240/345/180 268/346/180 274/347/180 248/348/180
f 247/349/181 273/350/181 272/344/181 246/343/181
f 254/351/182 278/352/182 273/353/182 247/354/182
f 259/355/183 256/335/183 270/334/183 260/356/183
f 260/356/184 270/334/184 271/340/184 261/357/184
f 261/357/185 271/340/185 272/344/185 262/358/185
f 262/358/186 272/344/186 273/350/186 263/359/186
f 265/360/187 277/331/187 276/330/187 264/361/187
f 266/362/188 258/337/188 277/331/188 265/360/188
f 267/363/189 278/341/189 258/337/189 266/362/189
f 263/364/182 273/353/182 278/352/182 267/365/182
f 274/366/190 283/367/190 279/368/190 257/369/190
f 268/317/191 240/370/191 241/371/191 269/316/191
f 257/369/190 249/372/190 248/373/190 274/366/190
f 269/316/192 241/371/192 242/324/192 255/323/192
f 275/322/193 250/321/193 249/372/193 257/369/193
f 279/368/194 257/369/194 275/322/194 284/327/194
f 255/323/195 285/374/195 303/375/195 256/326/195
f 267/365/182 294/376/182 290/377/182 263/364/182
f 261/357/196 288/378/196 287/379/196 260/356/196
f 265/360/197 292/380/197 293/381/197 266/362/197
f 262/358/198 289/382/198 288/378/198 261/357/198
f 266/362/199 293/381/199 294/383/199 267/363/199
f 263/359/200 290/384/200 289/382/200 262/358/200
f 260/356/201 287/379/201 286/385/201 259/355/201
f 264/361/202 291/386/202 292/380/202 265/360/202
f 289/382/203 300/387/203 302/388/203 288/378/203
f 294/376/204 297/389/204 296/390/204
f 290/384/205 301/391/205 300/387/205 289/382/205
f 287/379/206 304/392/206 303/393/206 286/385/206
f 294/376/182 296/390/182 295/394/182 290/377/182
f 293/381/207 298/395/207 297/396/207 294/383/207
f 292/380/208 299/397/208 298/395/208 293/381/208
f 291/386/209 280/398/209 299/397/209 292/380/209
f 295/394/210 301/399/210 290/377/210
f 240/400/211 248/401/211 249/402/211
f 288/378/212 302/388/212 304/392/212 287/379/212
f 280/403/213 291/404/213 264/405/213 276/406/213
f 286/407/214 303/408/214 256/409/214 259/410/214
f 240/400/215 249/402/215 241/411/215
f 241/411/216 250/313/216 242/312/216
f 249/402/217 250/313/217 241/411/217
f 242/312/218 251/314/218 243/412/218
f 243/412/218 252/413/218 244/414/218
f 244/414/219 252/413/219 245/415/219
f 245/415/220 253/416/220 246/417/220
f 246/417/221 254/418/221 247/419/221
f 246/417/222 253/416/222 254/418/222
f 243/412/218 251/314/218 252/413/218
f 245/415/220 252/413/220 253/416/220
f 255/323/223 269/316/223 282/315/223 285/374/223
f 268/346/180 281/420/180 283/421/180 274/347/180
l 209 194
o dtrack_sy_30.sleepers_Cube.038
v 0.201944 -0.510000 1.256096
v -1.124696 -0.510000 0.594658
v -1.071152 -0.510000 0.487266
v 0.255488 -0.510000 1.148704
v 0.201944 -0.460000 1.256096
v -1.124696 -0.460000 0.594657
v -1.071152 -0.460000 0.487266
v 0.255488 -0.460000 1.148703
v 0.321944 -0.510000 1.016096
v -1.004696 -0.510000 0.354658
v -0.951152 -0.510000 0.247266
v 0.375488 -0.510000 0.908704
v 0.321944 -0.460000 1.016096
v -1.004696 -0.460000 0.354657
v -0.951152 -0.460000 0.247266
v 0.375488 -0.460000 0.908703
v 0.441944 -0.510000 0.776096
v -0.884696 -0.510000 0.114658
v -0.831152 -0.510000 0.007266
v 0.495488 -0.510000 0.668704
v 0.441944 -0.460000 0.776096
v -0.884696 -0.460000 0.114657
v -0.831152 -0.460000 0.007266
v 0.495488 -0.460000 0.668703
v 0.561944 -0.510000 0.536096
v -0.764696 -0.510000 -0.125342
v -0.711152 -0.510000 -0.232734
v 0.615488 -0.510000 0.428704
v 0.561944 -0.460000 0.536096
v -0.764696 -0.460000 -0.125343
v -0.711152 -0.460000 -0.232734
v 0.615488 -0.460000 0.428703
v 0.637587 -0.512551 0.412306
v -0.582496 -0.506060 -0.429612
v -0.514341 -0.505618 -0.528378
v 0.705743 -0.512109 0.313540
v 0.637663 -0.462552 0.412582
v -0.582421 -0.456061 -0.429337
v -0.514266 -0.455619 -0.528102
v 0.705818 -0.462110 0.313816
v -0.230055 -0.510000 -0.818151
v 0.818151 -0.510000 0.230055
v 0.733298 -0.510000 0.314908
v -0.314908 -0.510000 -0.733299
v -0.230055 -0.460000 -0.818151
v 0.818151 -0.460000 0.230055
v 0.733298 -0.460000 0.314908
v -0.314908 -0.460000 -0.733298
v -0.069408 -0.510000 -0.978798
v 0.978798 -0.510000 0.069408
v 0.893945 -0.510000 0.154261
v -0.154261 -0.510000 -0.893945
v -0.069408 -0.460000 -0.978798
v 0.978798 -0.460000 0.069409
v 0.893945 -0.460000 0.154261
v -0.154261 -0.460000 -0.893945
vt 0.958794 0.962518
vt 0.883696 0.962519
vt 0.883694 0.034812
vt 0.958793 0.034812
vt 0.990085 0.962519
vt 0.990085 0.034812
vt 0.958793 0.003520
vt 0.883694 0.003521
vt 0.852403 0.034812
vt 0.852404 0.962519
vt 0.958794 0.993809
vt 0.883696 0.993810
vt 0.958794 0.962518
vt 0.883696 0.962519
vt 0.883694 0.034812
vt 0.958793 0.034812
vt 0.990085 0.962519
vt 0.990085 0.034812
vt 0.958793 0.003520
vt 0.883694 0.003521
vt 0.852403 0.034812
vt 0.852404 0.962519
vt 0.958794 0.993809
vt 0.883696 0.993810
vt 0.958794 0.962518
vt 0.883696 0.962519
vt 0.883694 0.034812
vt 0.958793 0.034812
vt 0.990085 0.962519
vt 0.990085 0.034812
vt 0.958793 0.003520
vt 0.883694 0.003521
vt 0.852403 0.034812
vt 0.852404 0.962519
vt 0.958794 0.993809
vt 0.883696 0.993810
vt 0.958794 0.962518
vt 0.883696 0.962519
vt 0.883694 0.034812
vt 0.958793 0.034812
vt 0.990085 0.962519
vt 0.990085 0.034812
vt 0.958793 0.003520
vt 0.883694 0.003521
vt 0.852403 0.034812
vt 0.852404 0.962519
vt 0.958794 0.993809
vt 0.883696 0.993810
vt 0.958794 0.962518
vt 0.883696 0.962519
vt 0.883694 0.034812
vt 0.958793 0.034812
vt 0.990085 0.962519
vt 0.990085 0.034812
vt 0.958793 0.003520
vt 0.883694 0.003521
vt 0.852403 0.034812
vt 0.852404 0.962519
vt 0.958794 0.993809
vt 0.883696 0.993810
vt 0.958794 0.962518
vt 0.883696 0.962519
vt 0.883694 0.034812
vt 0.958793 0.034812
vt 0.990085 0.962519
vt 0.990085 0.034812
vt 0.958793 0.003520
vt 0.883694 0.003521
vt 0.852403 0.034812
vt 0.852404 0.962519
vt 0.958794 0.993809
vt 0.883696 0.993810
vt 0.958794 0.962518
vt 0.883696 0.962519
vt 0.883694 0.034812
vt 0.958793 0.034812
vt 0.990085 0.962519
vt 0.990085 0.034812
vt 0.958793 0.003520
vt 0.883694 0.003521
vt 0.852403 0.034812
vt 0.852404 0.962519
vt 0.958794 0.993809
vt 0.883696 0.993810
vn 0.0000 1.0000 0.0000
vn -0.4462 -0.0000 0.8949
vn -0.8949 -0.0000 -0.4462
vn 0.4462 0.0000 -0.8949
vn 0.8949 0.0000 0.4462
vn 0.0015 1.0000 0.0055
vn -0.5680 -0.0037 0.8230
vn -0.8231 0.0044 -0.5679
vn 0.5680 0.0037 -0.8230
vn 0.8231 -0.0044 0.5679
vn 0.7071 -0.0000 -0.7071
vn 0.7071 -0.0000 0.7071
vn -0.7071 -0.0000 0.7071
vn -0.7071 0.0000 -0.7071
usemtl Sleepers
s off
f 309/422/224 312/423/224 311/424/224 310/425/224
f 305/426/225 309/422/225 310/425/225 306/427/225
f 306/428/226 310/425/226 311/424/226 307/429/226
f 307/430/227 311/424/227 312/423/227 308/431/227
f 309/422/228 305/432/228 308/433/228 312/423/228
f 317/434/224 320/435/224 319/436/224 318/437/224
f 313/438/225 317/434/225 318/437/225 314/439/225
f 314/440/226 318/437/226 319/436/226 315/441/226
f 315/442/227 319/436/227 320/435/227 316/443/227
f 317/434/228 313/444/228 316/445/228 320/435/228
f 325/446/224 328/447/224 327/448/224 326/449/224
f 321/450/225 325/446/225 326/449/225 322/451/225
f 322/452/226 326/449/226 327/448/226 323/453/226
f 323/454/227 327/448/227 328/447/227 324/455/227
f 325/446/228 321/456/228 324/457/228 328/447/228
f 333/458/224 336/459/224 335/460/224 334/461/224
f 329/462/225 333/458/225 334/461/225 330/463/225
f 330/464/226 334/461/226 335/460/226 331/465/226
f 331/466/227 335/460/227 336/459/227 332/467/227
f 333/458/228 329/468/228 332/469/228 336/459/228
f 341/470/229 344/471/229 343/472/229 342/473/229
f 337/474/230 341/470/230 342/473/230 338/475/230
f 338/476/231 342/473/231 343/472/231 339/477/231
f 339/478/232 343/472/232 344/471/232 340/479/232
f 341/470/233 337/480/233 340/481/233 344/471/233
f 349/482/224 352/483/224 351/484/224 350/485/224
f 345/486/234 349/482/234 350/485/234 346/487/234
f 346/488/235 350/485/235 351/484/235 347/489/235
f 347/490/236 351/484/236 352/483/236 348/491/236
f 349/482/237 345/492/237 348/493/237 352/483/237
f 357/494/224 360/495/224 359/496/224 358/497/224
f 353/498/234 357/494/234 358/497/234 354/499/234
f 354/500/235 358/497/235 359/496/235 355/501/235
f 355/502/236 359/496/236 360/495/236 356/503/236
f 357/494/237 353/504/237 356/505/237 360/495/237
