# Blender v2.82 (sub 7) OBJ File: 'rail_crossings.blend'
# www.blender.org
mtllib advtrains_dtrack_xingdiag_60r45l.mtl
o 60r-45l_Cube.017
v 0.075179 -0.360000 0.461617
v -0.641227 -0.360000 0.104430
v 0.641227 -0.360000 -0.104430
v 0.058052 -0.360000 0.356456
v -0.495150 -0.360000 0.080640
v 0.495150 -0.360000 -0.080640
v 0.058052 -0.385000 0.356456
v -0.641227 -0.385000 0.104430
v 0.064312 -0.390000 0.394895
v 0.069211 -0.390000 0.424971
v -0.547234 -0.390000 0.089123
v -0.588912 -0.390000 0.095910
v 0.548543 -0.390000 -0.089336
v 0.590321 -0.390000 -0.096140
v -0.547234 -0.440000 0.089123
v -0.588912 -0.440000 0.095910
v 0.064312 -0.440000 0.394895
v 0.069211 -0.440000 0.424971
v 0.590321 -0.440000 -0.096140
v 0.548543 -0.440000 -0.089336
v 0.693977 -0.460000 -0.112439
v 0.081407 -0.460000 0.500130
v -0.443687 -0.460000 0.071835
v 0.052116 -0.460000 0.319736
v 0.443687 -0.460000 -0.071835
v -0.693977 -0.460000 0.112439
v 0.641227 -0.385000 -0.104430
v -0.495150 -0.385000 0.080640
v 0.495150 -0.385000 -0.080640
v 0.075179 -0.385000 0.461617
v -0.075179 -0.360000 -0.461617
v 0.641227 -0.360000 -0.104430
v -0.641227 -0.360000 0.104430
v -0.058052 -0.360000 -0.356456
v 0.495150 -0.360000 -0.080640
v -0.495150 -0.360000 0.080640
v -0.058052 -0.385000 -0.356456
v 0.641227 -0.385000 -0.104430
v -0.064313 -0.390000 -0.394895
v -0.069211 -0.390000 -0.424971
v 0.547234 -0.390000 -0.089123
v 0.588912 -0.390000 -0.095910
v -0.548543 -0.390000 0.089336
v -0.590321 -0.390000 0.096140
v 0.547234 -0.440000 -0.089123
v 0.588912 -0.440000 -0.095910
v -0.064313 -0.440000 -0.394895
v -0.069211 -0.440000 -0.424971
v -0.590321 -0.440000 0.096140
v -0.548543 -0.440000 0.089336
v -0.693977 -0.460000 0.112439
v -0.081407 -0.460000 -0.500130
v 0.443687 -0.460000 -0.071835
v -0.052116 -0.460000 -0.319736
v -0.443687 -0.460000 0.071835
v 0.693977 -0.460000 -0.112439
v -0.641227 -0.385000 0.104430
v 0.495150 -0.385000 -0.080640
v -0.495150 -0.385000 0.080640
v -0.075179 -0.385000 -0.461617
v 0.764485 -0.360000 0.972983
v 0.803069 -0.360000 0.895596
v -0.216431 -0.360000 0.965460
v -0.830273 -0.360000 0.081242
v -0.748669 -0.360000 0.121928
v -0.894749 -0.360000 0.145720
v 0.087775 -0.360000 0.538964
v 0.169380 -0.360000 0.579650
v 0.104902 -0.360000 0.644128
v 0.023298 -0.360000 0.603441
v -0.277576 -0.360000 0.904315
v -0.813257 -0.360000 0.186519
v -0.965460 -0.360000 0.216430
v -0.904315 -0.360000 0.277576
v -1.237136 -0.360000 -0.024988
v -1.198552 -0.360000 -0.102375
v -0.374516 -0.360000 -0.374516
v -0.313370 -0.360000 -0.313370
v 0.313370 -0.360000 0.313370
v 0.374515 -0.360000 0.374515
v -0.753230 -0.360000 0.216435
v -0.688650 -0.360000 0.151853
v 0.027756 -0.360000 0.509039
v -0.036729 -0.360000 0.573525
v 0.135198 -0.360000 0.491541
v 0.216802 -0.360000 0.532228
v -0.701246 -0.360000 0.074506
v -0.782851 -0.360000 0.033819
v -0.636771 -0.360000 0.010030
v -0.718375 -0.360000 -0.030656
v 0.281278 -0.360000 0.467753
v 0.199673 -0.360000 0.427066
v -1.051179 -0.360000 -0.100345
v -1.012494 -0.360000 -0.177715
v 0.711282 -0.360000 0.779467
v 0.749968 -0.360000 0.702097
v -0.671618 -0.360000 0.257109
v -0.607049 -0.360000 0.192538
v -0.118342 -0.360000 0.532851
v -0.053846 -0.360000 0.468354
v -0.322548 -0.360000 0.859343
v -0.383691 -0.360000 0.798200
v -0.798200 -0.360000 0.383691
v -0.859343 -0.360000 0.322548
v 0.764485 -0.385000 0.972983
v 0.803069 -0.385000 0.895596
v -0.607049 -0.385000 0.192538
v -0.688650 -0.385000 0.151853
v -0.813257 -0.385000 0.186519
v -0.671618 -0.385000 0.257109
v -0.753230 -0.385000 0.216435
v -0.830273 -0.385000 0.081242
v -0.748669 -0.385000 0.121928
v 0.169380 -0.385000 0.579650
v 0.023298 -0.385000 0.603441
v -0.277576 -0.385000 0.904315
v -0.904315 -0.385000 0.277576
v -0.216431 -0.385000 0.965460
v -1.237136 -0.385000 -0.024988
v 0.135198 -0.385000 0.491541
v 0.087775 -0.385000 0.538964
v -0.701246 -0.385000 0.074506
v -0.313370 -0.385000 -0.313370
v -0.782851 -0.385000 0.033819
v -1.051179 -0.385000 -0.100345
v 0.749968 -0.385000 0.702097
v -0.118342 -0.385000 0.532851
v -0.036729 -0.385000 0.573525
v -0.859343 -0.385000 0.322548
v 0.778263 -0.390000 0.945348
v 0.789290 -0.390000 0.923232
v -0.620827 -0.390000 0.220173
v -0.682533 -0.390000 0.189407
v -0.894749 -0.385000 0.145720
v -0.677737 -0.390000 0.219557
v -0.731395 -0.390000 0.238270
v -0.352680 -0.390000 -0.352680
v -0.712278 -0.390000 0.006917
v -0.800835 -0.390000 0.130424
v 0.104902 -0.385000 0.644128
v 0.352680 -0.390000 0.352680
v 0.335205 -0.390000 0.335205
v 0.045134 -0.390000 0.625277
v -0.255740 -0.390000 0.926150
v -0.943624 -0.390000 0.238266
v -0.926150 -0.390000 0.255740
v -0.238266 -0.390000 0.943625
v -1.223357 -0.390000 -0.052623
v -1.212330 -0.390000 -0.074740
v 0.229147 -0.390000 0.476212
v 0.221509 -0.390000 0.448902
v 0.230597 -0.390000 0.504600
v 0.187365 -0.390000 0.483046
v 0.093892 -0.390000 0.576519
v -0.707363 -0.390000 0.036951
v -0.658607 -0.390000 -0.011805
v -0.335206 -0.390000 -0.335206
v -0.769056 -0.390000 0.006191
v -1.026304 -0.390000 -0.150095
v -1.037369 -0.390000 -0.127965
v 0.725092 -0.390000 0.751848
v 0.736158 -0.390000 0.729717
v -0.067624 -0.390000 0.495990
v -0.024411 -0.390000 0.517535
v -0.058565 -0.390000 0.551689
v -0.820035 -0.390000 0.361855
v -0.837508 -0.390000 0.344383
v -0.344383 -0.390000 0.837508
v -0.361856 -0.390000 0.820035
v -0.374516 -0.385000 -0.374516
v -0.718375 -0.385000 -0.030656
v -0.835093 -0.390000 0.164683
v 0.374515 -0.385000 0.374515
v 0.313370 -0.385000 0.313370
v -0.842582 -0.390000 0.137224
v -0.965460 -0.385000 0.216430
v 0.098786 -0.390000 0.606573
v -1.198552 -0.385000 -0.102375
v -0.844052 -0.390000 0.108877
v 0.281278 -0.385000 0.467753
v 0.199673 -0.385000 0.427066
v 0.216802 -0.385000 0.532228
v 0.155601 -0.390000 0.607286
v -0.636771 -0.385000 0.010030
v -1.012494 -0.385000 -0.177715
v 0.711282 -0.385000 0.779467
v -0.053846 -0.385000 0.468354
v -0.066170 -0.390000 0.524350
v 0.027756 -0.385000 0.509039
v -0.798200 -0.385000 0.383691
v -0.322548 -0.385000 0.859343
v -0.383691 -0.385000 0.798200
v 0.778263 -0.440000 0.945348
v 0.789290 -0.440000 0.923232
v -0.620827 -0.440000 0.220173
v -0.682533 -0.440000 0.189407
v -0.352680 -0.440000 -0.352680
v -0.712278 -0.440000 0.006917
v -0.835093 -0.440000 0.164683
v -0.800835 -0.440000 0.130424
v 0.352680 -0.440000 0.352680
v 0.335205 -0.440000 0.335205
v 0.045134 -0.440000 0.625277
v -0.255740 -0.440000 0.926150
v -0.842582 -0.440000 0.137224
v -0.943624 -0.440000 0.238266
v -0.926150 -0.440000 0.255740
v -0.238266 -0.440000 0.943625
v 0.098786 -0.440000 0.606573
v -1.223357 -0.440000 -0.052623
v -1.212330 -0.440000 -0.074740
v -0.844052 -0.440000 0.108877
v 0.229147 -0.440000 0.476212
v 0.221509 -0.440000 0.448902
v 0.187365 -0.440000 0.483046
v 0.230597 -0.440000 0.504600
v 0.155601 -0.440000 0.607286
v 0.093892 -0.440000 0.576519
v -0.731395 -0.440000 0.238270
v -0.707363 -0.440000 0.036951
v -0.658607 -0.440000 -0.011805
v -0.335206 -0.440000 -0.335206
v -0.769056 -0.440000 0.006191
v -1.026304 -0.440000 -0.150095
v -1.037369 -0.440000 -0.127965
v 0.725092 -0.440000 0.751848
v 0.736158 -0.440000 0.729717
v -0.067624 -0.440000 0.495990
v -0.677737 -0.440000 0.219557
v -0.066170 -0.440000 0.524350
v -0.024411 -0.440000 0.517535
v -0.058565 -0.440000 0.551689
v -0.820035 -0.440000 0.361855
v -0.837508 -0.440000 0.344383
v -0.344383 -0.440000 0.837508
v -0.361856 -0.440000 0.820035
v -0.299418 -0.460000 0.882472
v -0.987302 -0.460000 0.194588
v -0.882472 -0.460000 0.299418
v -0.194588 -0.460000 0.987303
v -1.250919 -0.460000 0.002657
v -1.184769 -0.460000 -0.130020
v -0.998680 -0.460000 -0.205344
v -1.064994 -0.460000 -0.072716
v 0.697468 -0.460000 0.807096
v 0.763782 -0.460000 0.674468
v -0.776357 -0.460000 0.405533
v -0.881186 -0.460000 0.300705
v -0.405534 -0.460000 0.776357
v -0.405534 -0.460000 0.776357
v -1.250919 -0.460000 0.002657
v -0.946933 -0.460000 0.154218
v -0.614929 -0.460000 0.031873
v -0.291528 -0.460000 -0.291528
v -0.881186 -0.460000 0.300705
v -1.184769 -0.460000 -0.130020
v -0.695128 -0.460000 0.112072
v -0.014887 -0.460000 0.595367
v -0.300705 -0.460000 0.881186
v -0.694768 -0.460000 0.114286
v 0.291527 -0.460000 0.291527
v -0.405534 -0.460000 0.776357
v -0.170531 -0.460000 0.541354
v -0.724475 -0.460000 -0.068242
v -0.396358 -0.460000 -0.396358
v -0.998680 -0.460000 -0.205344
v 0.083014 -0.460000 0.500040
v -0.696486 -0.460000 0.113429
v -0.791414 -0.460000 0.208361
v -0.796681 -0.460000 0.061440
v -1.064994 -0.460000 -0.072716
v 0.081657 -0.460000 0.501397
v 0.177831 -0.460000 0.405224
v 0.111020 -0.460000 0.681695
v 0.750702 -0.460000 1.000628
v 0.816852 -0.460000 0.867952
v 0.183163 -0.460000 0.552006
v -0.987302 -0.460000 0.194588
v 0.202972 -0.460000 0.559849
v 0.001456 -0.460000 0.581599
v -0.593265 -0.460000 0.164893
v -0.040063 -0.460000 0.440710
v -0.775073 -0.460000 0.194593
v -0.882472 -0.460000 0.299418
v -0.665497 -0.460000 0.294673
v 0.079940 -0.460000 0.500541
v -0.816490 -0.460000 0.053597
v -0.776357 -0.460000 0.405533
v 0.333425 -0.460000 0.459290
v 0.396358 -0.460000 0.396358
v -0.764485 -0.360000 -0.972983
v -0.803069 -0.360000 -0.895596
v 0.216431 -0.360000 -0.965460
v 0.830273 -0.360000 -0.081242
v 0.748669 -0.360000 -0.121928
v 0.894749 -0.360000 -0.145720
v -0.087776 -0.360000 -0.538964
v -0.169380 -0.360000 -0.579650
v -0.104902 -0.360000 -0.644128
v -0.023298 -0.360000 -0.603441
v 0.277576 -0.360000 -0.904315
v 0.813257 -0.360000 -0.186519
v 0.965460 -0.360000 -0.216430
v 0.904315 -0.360000 -0.277576
v 1.237136 -0.360000 0.024988
v 1.198552 -0.360000 0.102375
v 0.374516 -0.360000 0.374516
v 0.313370 -0.360000 0.313370
v -0.313370 -0.360000 -0.313370
v -0.374515 -0.360000 -0.374515
v 0.753230 -0.360000 -0.216435
v 0.688650 -0.360000 -0.151853
v -0.027756 -0.360000 -0.509039
v 0.036729 -0.360000 -0.573525
v -0.135198 -0.360000 -0.491541
v -0.216802 -0.360000 -0.532228
v 0.701246 -0.360000 -0.074506
v 0.782851 -0.360000 -0.033819
v 0.636771 -0.360000 -0.010030
v 0.718375 -0.360000 0.030656
v -0.281278 -0.360000 -0.467753
v -0.199673 -0.360000 -0.427066
v 1.051179 -0.360000 0.100345
v 1.012494 -0.360000 0.177715
v -0.711283 -0.360000 -0.779467
v -0.749968 -0.360000 -0.702097
v 0.671618 -0.360000 -0.257109
v 0.607049 -0.360000 -0.192538
v 0.118342 -0.360000 -0.532851
v 0.053846 -0.360000 -0.468354
v 0.322547 -0.360000 -0.859343
v 0.383691 -0.360000 -0.798200
v 0.798200 -0.360000 -0.383691
v 0.859343 -0.360000 -0.322548
v -0.764485 -0.385000 -0.972983
v -0.803069 -0.385000 -0.895596
v 0.607049 -0.385000 -0.192538
v 0.688650 -0.385000 -0.151853
v 0.813257 -0.385000 -0.186519
v 0.671618 -0.385000 -0.257109
v 0.753230 -0.385000 -0.216435
v 0.830273 -0.385000 -0.081242
v 0.748669 -0.385000 -0.121928
v -0.169380 -0.385000 -0.579650
v -0.023298 -0.385000 -0.603441
v 0.277576 -0.385000 -0.904315
v 0.904315 -0.385000 -0.277576
v 0.216431 -0.385000 -0.965460
v 1.237136 -0.385000 0.024988
v -0.135198 -0.385000 -0.491541
v -0.087776 -0.385000 -0.538964
v 0.701246 -0.385000 -0.074506
v 0.313370 -0.385000 0.313370
v 0.782851 -0.385000 -0.033819
v 1.051179 -0.385000 0.100345
v -0.749968 -0.385000 -0.702097
v 0.118342 -0.385000 -0.532851
v 0.036729 -0.385000 -0.573525
v 0.859343 -0.385000 -0.322548
v -0.778264 -0.390000 -0.945347
v -0.789290 -0.390000 -0.923231
v 0.620827 -0.390000 -0.220173
v 0.682533 -0.390000 -0.189408
v 0.894749 -0.385000 -0.145720
v 0.677737 -0.390000 -0.219557
v 0.731395 -0.390000 -0.238270
v 0.352680 -0.390000 0.352680
v 0.712278 -0.390000 -0.006917
v 0.800835 -0.390000 -0.130424
v -0.104902 -0.385000 -0.644128
v -0.352680 -0.390000 -0.352680
v -0.335205 -0.390000 -0.335205
v -0.045134 -0.390000 -0.625277
v 0.255740 -0.390000 -0.926150
v 0.943624 -0.390000 -0.238266
v 0.926150 -0.390000 -0.255740
v 0.238266 -0.390000 -0.943625
v 1.223357 -0.390000 0.052623
v 1.212330 -0.390000 0.074739
v -0.229147 -0.390000 -0.476212
v -0.221509 -0.390000 -0.448902
v -0.230597 -0.390000 -0.504600
v -0.187365 -0.390000 -0.483046
v -0.093892 -0.390000 -0.576519
v 0.707363 -0.390000 -0.036951
v 0.658607 -0.390000 0.011805
v 0.335206 -0.390000 0.335206
v 0.769056 -0.390000 -0.006192
v 1.026304 -0.390000 0.150095
v 1.037369 -0.390000 0.127964
v -0.725093 -0.390000 -0.751847
v -0.736158 -0.390000 -0.729717
v 0.067624 -0.390000 -0.495990
v 0.024411 -0.390000 -0.517535
v 0.058565 -0.390000 -0.551689
v 0.820035 -0.390000 -0.361856
v 0.837508 -0.390000 -0.344383
v 0.344383 -0.390000 -0.837508
v 0.361856 -0.390000 -0.820035
v 0.374516 -0.385000 0.374516
v 0.718375 -0.385000 0.030656
v 0.835093 -0.390000 -0.164683
v -0.374515 -0.385000 -0.374515
v -0.313370 -0.385000 -0.313370
v 0.842582 -0.390000 -0.137224
v 0.965460 -0.385000 -0.216430
v -0.098786 -0.390000 -0.606573
v 1.198552 -0.385000 0.102375
v 0.844052 -0.390000 -0.108877
v -0.281278 -0.385000 -0.467753
v -0.199673 -0.385000 -0.427066
v -0.216802 -0.385000 -0.532228
v -0.155601 -0.390000 -0.607286
v 0.636771 -0.385000 -0.010030
v 1.012494 -0.385000 0.177715
v -0.711283 -0.385000 -0.779467
v 0.053846 -0.385000 -0.468354
v 0.066170 -0.390000 -0.524350
v -0.027756 -0.385000 -0.509039
v 0.798200 -0.385000 -0.383691
v 0.322547 -0.385000 -0.859343
v 0.383691 -0.385000 -0.798200
v -0.778264 -0.440000 -0.945347
v -0.789290 -0.440000 -0.923231
v 0.620827 -0.440000 -0.220173
v 0.682533 -0.440000 -0.189408
v 0.352680 -0.440000 0.352680
v 0.712278 -0.440000 -0.006917
v 0.835093 -0.440000 -0.164683
v 0.800835 -0.440000 -0.130424
v -0.352680 -0.440000 -0.352680
v -0.335205 -0.440000 -0.335205
v -0.045134 -0.440000 -0.625277
v 0.255740 -0.440000 -0.926150
v 0.842582 -0.440000 -0.137224
v 0.943624 -0.440000 -0.238266
v 0.926150 -0.440000 -0.255740
v 0.238266 -0.440000 -0.943625
v -0.098786 -0.440000 -0.606573
v 1.223357 -0.440000 0.052623
v 1.212330 -0.440000 0.074739
v 0.844052 -0.440000 -0.108877
v -0.229147 -0.440000 -0.476212
v -0.221509 -0.440000 -0.448902
v -0.187365 -0.440000 -0.483046
v -0.230597 -0.440000 -0.504600
v -0.155601 -0.440000 -0.607286
v -0.093892 -0.440000 -0.576519
v 0.731395 -0.440000 -0.238270
v 0.707363 -0.440000 -0.036951
v 0.658607 -0.440000 0.011805
v 0.335206 -0.440000 0.335206
v 0.769056 -0.440000 -0.006192
v 1.026304 -0.440000 0.150095
v 1.037369 -0.440000 0.127964
v -0.725093 -0.440000 -0.751847
v -0.736158 -0.440000 -0.729717
v 0.067624 -0.440000 -0.495990
v 0.677737 -0.440000 -0.219557
v 0.066170 -0.440000 -0.524350
v 0.024411 -0.440000 -0.517535
v 0.058565 -0.440000 -0.551689
v 0.820035 -0.440000 -0.361856
v 0.837508 -0.440000 -0.344383
v 0.344383 -0.440000 -0.837508
v 0.361856 -0.440000 -0.820035
v 0.299418 -0.460000 -0.882472
v 0.987302 -0.460000 -0.194588
v 0.882472 -0.460000 -0.299418
v 0.194588 -0.460000 -0.987303
v 1.250919 -0.460000 -0.002657
v 1.184769 -0.460000 0.130020
v 0.998680 -0.460000 0.205344
v 1.064994 -0.460000 0.072716
v -0.697468 -0.460000 -0.807096
v -0.763782 -0.460000 -0.674468
v 0.776357 -0.460000 -0.405533
v 0.881186 -0.460000 -0.300705
v 0.405533 -0.460000 -0.776357
v 0.405533 -0.460000 -0.776357
v 1.250919 -0.460000 -0.002657
v 0.946933 -0.460000 -0.154218
v 0.614929 -0.460000 -0.031873
v 0.291528 -0.460000 0.291528
v 0.881186 -0.460000 -0.300705
v 1.184769 -0.460000 0.130020
v 0.695128 -0.460000 -0.112073
v 0.014887 -0.460000 -0.595367
v 0.300705 -0.460000 -0.881186
v 0.694768 -0.460000 -0.114286
v -0.291527 -0.460000 -0.291527
v 0.405533 -0.460000 -0.776357
v 0.170531 -0.460000 -0.541354
v 0.724475 -0.460000 0.068242
v 0.396358 -0.460000 0.396358
v 0.998680 -0.460000 0.205344
v -0.083014 -0.460000 -0.500040
v 0.696486 -0.460000 -0.113429
v 0.791414 -0.460000 -0.208361
v 0.796681 -0.460000 -0.061440
v 1.064994 -0.460000 0.072716
v -0.081657 -0.460000 -0.501397
v -0.177831 -0.460000 -0.405224
v -0.111021 -0.460000 -0.681695
v -0.750702 -0.460000 -1.000628
v -0.816852 -0.460000 -0.867951
v -0.183163 -0.460000 -0.552006
v 0.987302 -0.460000 -0.194588
v -0.202972 -0.460000 -0.559849
v -0.001456 -0.460000 -0.581599
v 0.593265 -0.460000 -0.164893
v 0.040063 -0.460000 -0.440710
v 0.775073 -0.460000 -0.194593
v 0.882472 -0.460000 -0.299418
v 0.665497 -0.460000 -0.294673
v -0.079940 -0.460000 -0.500541
v 0.816490 -0.460000 -0.053597
v 0.776357 -0.460000 -0.405533
v -0.333425 -0.460000 -0.459290
v -0.396358 -0.460000 -0.396358
v -0.736601 -0.510000 0.405791
v -0.097191 -0.510000 -0.876668
v 0.010201 -0.510000 -0.823124
v -0.629270 -0.510000 0.459457
v -0.736601 -0.460000 0.405791
v -0.097191 -0.460000 -0.876668
v 0.010201 -0.460000 -0.823124
v -0.629270 -0.460000 0.459457
v 0.406554 -0.460000 -0.625510
v -0.254884 -0.460000 0.701129
v -0.147493 -0.460000 0.754674
v 0.513946 -0.460000 -0.571966
v 0.406554 -0.510000 -0.625510
v -0.254885 -0.510000 0.701129
v -0.147492 -0.510000 0.754673
v 0.513946 -0.510000 -0.571966
v -0.513946 -0.510000 0.571967
v 0.147492 -0.510000 -0.754673
v 0.254884 -0.510000 -0.701129
v -0.406554 -0.510000 0.625510
v -0.513946 -0.460000 0.571966
v 0.147493 -0.460000 -0.754674
v 0.254884 -0.460000 -0.701129
v -0.406553 -0.460000 0.625510
v 0.628224 -0.460000 -0.457360
v -0.010201 -0.460000 0.823124
v 0.097191 -0.460000 0.876668
v 0.735556 -0.460000 -0.403694
v 0.628224 -0.510000 -0.457360
v -0.010201 -0.510000 0.823124
v 0.097191 -0.510000 0.876668
v 0.735556 -0.510000 -0.403694
v 1.232741 -0.510000 -0.155101
v 0.594658 -0.510000 1.124696
v 0.487266 -0.510000 1.071152
v 1.125410 -0.510000 -0.208767
v 1.232741 -0.460000 -0.155101
v 0.594657 -0.460000 1.124696
v 0.487266 -0.460000 1.071152
v 1.125410 -0.460000 -0.208767
v 0.982570 -0.510000 -0.280187
v 0.344345 -0.510000 0.999894
v 0.236953 -0.510000 0.946351
v 0.875238 -0.510000 -0.333853
v 0.982570 -0.460000 -0.280187
v 0.344345 -0.460000 0.999895
v 0.236953 -0.460000 0.946351
v 0.875238 -0.460000 -0.333853
v -0.876284 -0.460000 0.335950
v -0.236953 -0.460000 -0.946350
v -0.344345 -0.460000 -0.999895
v -0.983615 -0.460000 0.282284
v -0.876284 -0.510000 0.335950
v -0.236953 -0.510000 -0.946351
v -0.344345 -0.510000 -0.999894
v -0.983616 -0.510000 0.282284
v -1.126455 -0.460000 0.210864
v -0.487266 -0.460000 -1.071152
v -0.594658 -0.460000 -1.124696
v -1.233787 -0.460000 0.157199
v -1.126455 -0.510000 0.210864
v -0.487266 -0.510000 -1.071152
v -0.594658 -0.510000 -1.124696
v -1.233787 -0.510000 0.157199
v -1.233740 -0.460000 0.157222
v -0.593155 -0.460000 -1.123947
v -0.615516 -0.460000 -1.079230
vt 0.450935 0.867504
vt 0.502650 0.939511
vt 0.503189 0.460001
vt 0.451351 0.497230
vt 0.451300 0.825365
vt 0.502908 0.862518
vt 0.502910 0.384747
vt 0.451302 0.456435
vt 0.436375 0.497214
vt 0.435960 0.867487
vt 0.517829 0.862518
vt 0.517831 0.384746
vt 0.436382 0.456435
vt 0.436379 0.825365
vt 0.517627 0.939528
vt 0.518165 0.460018
vt 0.417222 0.483562
vt 0.387272 0.483562
vt 0.387272 0.893120
vt 0.417222 0.893120
vt 0.536447 0.913781
vt 0.536446 0.473032
vt 0.417281 0.838945
vt 0.417283 0.430230
vt 0.536060 0.849571
vt 0.565903 0.849571
vt 0.565903 0.409728
vt 0.536061 0.409728
vt 0.387441 0.430230
vt 0.387439 0.838945
vt 0.566396 0.913781
vt 0.566396 0.473032
vt 0.604653 0.876143
vt 0.604653 0.359104
vt 0.348380 0.510231
vt 0.348380 0.842274
vt 0.348690 0.481868
vt 0.348689 0.812373
vt 0.605288 0.965643
vt 0.605288 0.446364
vt 0.450935 0.867504
vt 0.502650 0.939511
vt 0.503189 0.460001
vt 0.451351 0.497230
vt 0.451300 0.825365
vt 0.502908 0.862518
vt 0.502910 0.384747
vt 0.451302 0.456435
vt 0.436375 0.497214
vt 0.435960 0.867487
vt 0.517829 0.862518
vt 0.517831 0.384746
vt 0.436382 0.456435
vt 0.436379 0.825365
vt 0.517627 0.939528
vt 0.518165 0.460018
vt 0.417222 0.483562
vt 0.387272 0.483562
vt 0.387272 0.893120
vt 0.417222 0.893120
vt 0.536447 0.913781
vt 0.536446 0.473032
vt 0.417281 0.838945
vt 0.417283 0.430230
vt 0.536060 0.849571
vt 0.565903 0.849571
vt 0.565903 0.409728
vt 0.536061 0.409728
vt 0.387441 0.430230
vt 0.387439 0.838945
vt 0.566396 0.913781
vt 0.566396 0.473032
vt 0.604653 0.876143
vt 0.604653 0.359104
vt 0.348380 0.510231
vt 0.348380 0.842274
vt 0.348690 0.481868
vt 0.348689 0.812373
vt 0.605288 0.965643
vt 0.605288 0.446364
vt 0.451114 0.248511
vt 0.451114 0.303501
vt 0.503262 0.286052
vt 0.503262 0.231063
vt 0.450402 0.843304
vt 0.502728 0.860820
vt 0.502728 0.805729
vt 0.450411 0.788216
vt 0.504659 0.649866
vt 0.448988 0.631239
vt 0.448988 0.689946
vt 0.504659 0.708573
vt 0.451114 0.560100
vt 0.503262 0.560099
vt 0.501822 0.653609
vt 0.501822 0.594287
vt 0.450525 0.594287
vt 0.450525 0.670678
vt 0.502771 0.658233
vt 0.450910 0.658233
vt 0.450909 0.887684
vt 0.502770 0.905036
vt 0.503070 0.960202
vt 0.450921 0.942754
vt 0.450921 0.887764
vt 0.503070 0.905116
vt 0.504016 0.971796
vt 0.504015 0.871157
vt 0.449892 0.889266
vt 0.449892 0.971796
vt 0.449420 0.232326
vt 0.449420 0.669291
vt 0.502783 0.687146
vt 0.502783 0.232326
vt 0.448853 0.542133
vt 0.448853 0.851774
vt 0.503913 0.833351
vt 0.503913 0.542133
vt 0.448820 0.851942
vt 0.504193 0.833415
vt 0.504193 0.891807
vt 0.448820 0.910335
vt 0.503547 0.611424
vt 0.450262 0.593663
vt 0.450262 0.796223
vt 0.503547 0.796223
vt 0.502728 0.432248
vt 0.450472 0.414754
vt 0.502728 0.377157
vt 0.450481 0.359666
vt 0.449922 0.389464
vt 0.449921 0.503480
vt 0.504995 0.485042
vt 0.504995 0.389464
vt 0.450481 0.374675
vt 0.450481 0.622212
vt 0.503435 0.604484
vt 0.503435 0.374675
vt 0.504544 0.649606
vt 0.504544 0.299848
vt 0.449818 0.299848
vt 0.449818 0.631364
vt 0.503846 0.871029
vt 0.519503 0.871029
vt 0.519503 0.813924
vt 0.503846 0.813924
vt 0.516652 0.653609
vt 0.516652 0.594287
vt 0.434862 0.593663
vt 0.434862 0.796223
vt 0.518211 0.687146
vt 0.518211 0.232326
vt 0.435171 0.374675
vt 0.435171 0.622212
vt 0.518947 0.796223
vt 0.518947 0.611424
vt 0.433991 0.232326
vt 0.433992 0.669291
vt 0.518745 0.604484
vt 0.518745 0.374675
vt 0.435694 0.594287
vt 0.435694 0.670678
vt 0.446362 0.299817
vt 0.507622 0.299817
vt 0.507622 0.282113
vt 0.485753 0.278572
vt 0.468231 0.278572
vt 0.446362 0.282113
vt 0.450910 0.772831
vt 0.435615 0.772831
vt 0.435615 0.828614
vt 0.450910 0.828614
vt 0.503997 0.570809
vt 0.519492 0.570809
vt 0.519492 0.514293
vt 0.503997 0.514293
vt 0.447025 0.375182
vt 0.506701 0.375184
vt 0.506701 0.357931
vt 0.485390 0.354479
vt 0.468337 0.354479
vt 0.447026 0.357928
vt 0.507006 0.360327
vt 0.507006 0.342951
vt 0.485542 0.339475
vt 0.468366 0.339475
vt 0.446903 0.342951
vt 0.446903 0.360327
vt 0.434002 0.299848
vt 0.434001 0.631364
vt 0.504650 0.543971
vt 0.520784 0.543971
vt 0.520784 0.485029
vt 0.504650 0.485029
vt 0.449827 0.249032
vt 0.434236 0.249032
vt 0.434236 0.532418
vt 0.449826 0.532418
vt 0.520361 0.649607
vt 0.520360 0.299848
vt 0.433946 0.669262
vt 0.433946 0.725523
vt 0.449371 0.725523
vt 0.507584 0.778875
vt 0.507584 0.760953
vt 0.485447 0.757369
vt 0.467732 0.757369
vt 0.445596 0.760954
vt 0.445596 0.778875
vt 0.450892 0.394607
vt 0.435596 0.394604
vt 0.435533 0.772840
vt 0.450830 0.772842
vt 0.502713 0.658039
vt 0.517840 0.658039
vt 0.517840 0.602865
vt 0.502713 0.602865
vt 0.517765 0.905036
vt 0.517765 0.658233
vt 0.432934 0.542133
vt 0.432934 0.851774
vt 0.503946 0.833526
vt 0.503946 0.890729
vt 0.519630 0.890729
vt 0.519630 0.833526
vt 0.435917 0.658233
vt 0.435915 0.887684
vt 0.503815 0.790579
vt 0.519113 0.790579
vt 0.519113 0.412324
vt 0.503815 0.412324
vt 0.434245 0.889266
vt 0.434245 0.971796
vt 0.450973 0.338729
vt 0.435637 0.338729
vt 0.435637 0.394666
vt 0.450973 0.394666
vt 0.450732 0.594301
vt 0.435791 0.594301
vt 0.435791 0.539709
vt 0.450732 0.539709
vt 0.519663 0.971796
vt 0.519663 0.871157
vt 0.450160 0.621911
vt 0.450160 0.677411
vt 0.434945 0.677411
vt 0.434945 0.621911
vt 0.519832 0.542133
vt 0.519832 0.833351
vt 0.503591 0.555923
vt 0.518806 0.555923
vt 0.518806 0.611416
vt 0.503591 0.611416
vt 0.433999 0.389464
vt 0.433999 0.503480
vt 0.504939 0.707508
vt 0.520665 0.707508
vt 0.520665 0.650151
vt 0.504939 0.650151
vt 0.520917 0.485043
vt 0.520918 0.389464
vt 0.503751 0.514375
vt 0.519340 0.514375
vt 0.519341 0.249032
vt 0.503751 0.249032
vt 0.416455 0.394601
vt 0.385861 0.394596
vt 0.385799 0.772832
vt 0.416393 0.772837
vt 0.485989 0.753770
vt 0.485989 0.717507
vt 0.468066 0.717507
vt 0.468066 0.753770
vt 0.538881 0.557030
vt 0.569870 0.557030
vt 0.569870 0.514293
vt 0.538881 0.514293
vt 0.540152 0.649617
vt 0.571784 0.649617
vt 0.571783 0.299848
vt 0.540151 0.299848
vt 0.535209 0.679055
vt 0.564870 0.679055
vt 0.564870 0.594287
vt 0.535209 0.594287
vt 0.416477 0.815014
vt 0.416477 0.772831
vt 0.413015 0.865946
vt 0.413015 0.542133
vt 0.436035 0.565544
vt 0.417539 0.540183
vt 0.417539 0.594190
vt 0.436035 0.594190
vt 0.538848 0.249032
vt 0.538848 0.514375
vt 0.417137 0.670678
vt 0.417137 0.594287
vt 0.414729 0.546281
vt 0.414729 0.249032
vt 0.536527 0.658233
vt 0.536526 0.905036
vt 0.417154 0.913410
vt 0.417155 0.658233
vt 0.414666 0.971796
vt 0.414665 0.862451
vt 0.539242 0.871157
vt 0.539242 0.971796
vt 0.540342 0.650140
vt 0.540342 0.680526
vt 0.539095 0.840788
vt 0.539095 0.871029
vt 0.537515 0.232326
vt 0.537515 0.700864
vt 0.414688 0.669291
vt 0.414687 0.232326
vt 0.540791 0.485316
vt 0.521456 0.485316
vt 0.521456 0.541766
vt 0.540791 0.528026
vt 0.414645 0.711807
vt 0.414645 0.669262
vt 0.518508 0.658516
vt 0.536605 0.658516
vt 0.536605 0.605765
vt 0.518508 0.630580
vt 0.539666 0.833191
vt 0.519882 0.833191
vt 0.519882 0.890856
vt 0.539666 0.876797
vt 0.539751 0.542133
vt 0.539750 0.833351
vt 0.537906 0.570236
vt 0.519244 0.556974
vt 0.519244 0.611372
vt 0.537906 0.611361
vt 0.415592 0.796223
vt 0.415592 0.579952
vt 0.538216 0.611435
vt 0.538216 0.796223
vt 0.414210 0.658470
vt 0.414211 0.299848
vt 0.538254 0.386073
vt 0.538254 0.804180
vt 0.416446 0.394666
vt 0.416446 0.365044
vt 0.415908 0.651306
vt 0.415908 0.621911
vt 0.414075 0.517636
vt 0.414075 0.389464
vt 0.540841 0.389464
vt 0.540841 0.485043
vt 0.416014 0.622212
vt 0.416013 0.374675
vt 0.537902 0.374675
vt 0.537903 0.630758
vt 0.572432 0.485313
vt 0.540769 0.485313
vt 0.540769 0.529071
vt 0.572432 0.529071
vt 0.387476 0.594287
vt 0.387476 0.670678
vt 0.568848 0.804180
vt 0.568848 0.386073
vt 0.383795 0.669262
vt 0.383795 0.711807
vt 0.485542 0.304723
vt 0.468366 0.304723
vt 0.385773 0.365044
vt 0.385773 0.394666
vt 0.536834 0.627307
vt 0.536834 0.657906
vt 0.566386 0.657906
vt 0.566386 0.627307
vt 0.383548 0.249032
vt 0.383548 0.546281
vt 0.385479 0.621911
vt 0.385479 0.651306
vt 0.540021 0.877145
vt 0.571732 0.877145
vt 0.571732 0.833414
vt 0.540021 0.833414
vt 0.485447 0.721527
vt 0.467732 0.721527
vt 0.382230 0.389464
vt 0.382229 0.517636
vt 0.566513 0.905036
vt 0.566514 0.658233
vt 0.572686 0.485043
vt 0.572687 0.389464
vt 0.571587 0.833351
vt 0.571588 0.542133
vt 0.387168 0.658233
vt 0.387167 0.913410
vt 0.468529 0.920662
vt 0.468529 0.956544
vt 0.486262 0.956544
vt 0.486262 0.920662
vt 0.485864 0.337219
vt 0.485864 0.301792
vt 0.468355 0.301792
vt 0.468355 0.337219
vt 0.568859 0.569486
vt 0.538360 0.569486
vt 0.538360 0.611537
vt 0.568859 0.611537
vt 0.383371 0.862451
vt 0.383371 0.971796
vt 0.385394 0.374675
vt 0.385393 0.622212
vt 0.385888 0.772831
vt 0.385888 0.815014
vt 0.468238 0.773054
vt 0.468238 0.808479
vt 0.485768 0.808479
vt 0.485768 0.773054
vt 0.570537 0.971796
vt 0.570537 0.871157
vt 0.568523 0.630758
vt 0.568523 0.374675
vt 0.381178 0.542133
vt 0.381178 0.865946
vt 0.384792 0.579952
vt 0.384792 0.796223
vt 0.571793 0.680526
vt 0.571793 0.650140
vt 0.485391 0.319973
vt 0.468339 0.319972
vt 0.417686 0.564117
vt 0.387069 0.564117
vt 0.387069 0.593783
vt 0.417686 0.593784
vt 0.569016 0.796223
vt 0.569016 0.611435
vt 0.570409 0.871029
vt 0.570409 0.840788
vt 0.485753 0.243162
vt 0.468231 0.243162
vt 0.568370 0.700864
vt 0.568371 0.232326
vt 0.570028 0.514375
vt 0.570029 0.249033
vt 0.382579 0.299848
vt 0.382578 0.658470
vt 0.383832 0.232326
vt 0.528476 0.290822
vt 0.425432 0.290822
vt 0.424239 0.821882
vt 0.424473 0.822650
vt 0.529533 0.822650
vt 0.529774 0.821884
vt 0.528034 0.306168
vt 0.528021 0.306172
vt 0.425710 0.306168
vt 0.528249 0.306920
vt 0.423964 0.970118
vt 0.424201 0.970896
vt 0.530590 0.970896
vt 0.530834 0.970121
vt 0.531027 0.703788
vt 0.530788 0.703002
vt 0.423267 0.703002
vt 0.423020 0.703786
vt 0.529964 0.707967
vt 0.529727 0.707190
vt 0.423452 0.707190
vt 0.423209 0.707965
vt 0.348229 0.658232
vt 0.348228 0.861949
vt 0.612929 0.833351
vt 0.612929 0.542133
vt 0.614039 0.485042
vt 0.614039 0.389464
vt 0.605453 0.905036
vt 0.605453 0.658233
vt 0.569031 0.568716
vt 0.569031 0.611297
vt 0.609135 0.611340
vt 0.609135 0.541250
vt 0.345632 0.374675
vt 0.345632 0.622212
vt 0.346166 0.772831
vt 0.346166 0.842219
vt 0.611175 0.971796
vt 0.611175 0.871157
vt 0.608284 0.578202
vt 0.608284 0.374675
vt 0.339835 0.542133
vt 0.339836 0.837598
vt 0.344798 0.607377
vt 0.344797 0.796223
vt 0.612634 0.734499
vt 0.612634 0.650184
vt 0.349552 0.566504
vt 0.349552 0.594434
vt 0.386983 0.594434
vt 0.386983 0.517038
vt 0.609011 0.796223
vt 0.609011 0.611435
vt 0.611072 0.871029
vt 0.611072 0.787051
vt 0.608437 0.673423
vt 0.608438 0.232326
vt 0.610517 0.514375
vt 0.610517 0.249033
vt 0.343764 0.232326
vt 0.343766 0.669291
vt 0.529630 0.287622
vt 0.424588 0.287622
vt 0.529498 0.228999
vt 0.424486 0.228999
vt 0.603386 0.628155
vt 0.603386 0.594287
vt 0.612861 0.649617
vt 0.612860 0.299848
vt 0.610112 0.584591
vt 0.610112 0.514293
vt 0.346134 0.394590
vt 0.346071 0.772825
vt 0.573084 0.485313
vt 0.573084 0.529073
vt 0.614201 0.557234
vt 0.614201 0.485313
vt 0.348960 0.594287
vt 0.348960 0.670679
vt 0.608576 0.776975
vt 0.608576 0.438584
vt 0.343735 0.669262
vt 0.343735 0.739244
vt 0.345943 0.312406
vt 0.345943 0.394666
vt 0.605000 0.658188
vt 0.605000 0.630112
vt 0.567250 0.580225
vt 0.567250 0.658188
vt 0.343059 0.249032
vt 0.343060 0.518550
vt 0.345966 0.621911
vt 0.345966 0.703524
vt 0.571994 0.833605
vt 0.571994 0.876793
vt 0.612661 0.904646
vt 0.612661 0.833605
vt 0.340877 0.389464
vt 0.340877 0.489319
vt 0.342733 0.916091
vt 0.342733 0.971796
vt 0.341502 0.299848
vt 0.341501 0.604251
vt 0.507647 0.751798
vt 0.446359 0.751798
vt 0.446359 0.769511
vt 0.507647 0.769511
vt 0.508422 0.899133
vt 0.446369 0.899133
vt 0.446369 0.917074
vt 0.508422 0.917074
vt 0.508385 0.775528
vt 0.508385 0.757397
vt 0.445670 0.757397
vt 0.445670 0.775528
vt 0.446475 0.358475
vt 0.507743 0.358475
vt 0.507743 0.340761
vt 0.446475 0.340761
vt 0.451114 0.248511
vt 0.451114 0.303501
vt 0.503262 0.286052
vt 0.503262 0.231063
vt 0.450402 0.843304
vt 0.502728 0.860820
vt 0.502728 0.805729
vt 0.450411 0.788216
vt 0.504659 0.649866
vt 0.448988 0.631239
vt 0.448988 0.689946
vt 0.504659 0.708573
vt 0.451114 0.560100
vt 0.503262 0.560099
vt 0.501822 0.653609
vt 0.501822 0.594287
vt 0.450525 0.594287
vt 0.450525 0.670678
vt 0.502771 0.658233
vt 0.450910 0.658233
vt 0.450909 0.887684
vt 0.502770 0.905036
vt 0.503070 0.960202
vt 0.450921 0.942754
vt 0.450921 0.887764
vt 0.503070 0.905116
vt 0.504016 0.971796
vt 0.504015 0.871157
vt 0.449892 0.889266
vt 0.449892 0.971796
vt 0.449420 0.232326
vt 0.449420 0.669291
vt 0.502783 0.687146
vt 0.502783 0.232326
vt 0.448853 0.542133
vt 0.448853 0.851774
vt 0.503913 0.833351
vt 0.503913 0.542133
vt 0.448820 0.851942
vt 0.504193 0.833415
vt 0.504193 0.891807
vt 0.448820 0.910335
vt 0.503547 0.611424
vt 0.450262 0.593663
vt 0.450262 0.796223
vt 0.503547 0.796223
vt 0.502728 0.432248
vt 0.450472 0.414754
vt 0.502728 0.377157
vt 0.450481 0.359666
vt 0.449922 0.389464
vt 0.449921 0.503480
vt 0.504995 0.485042
vt 0.504995 0.389464
vt 0.450481 0.374675
vt 0.450481 0.622212
vt 0.503435 0.604484
vt 0.503435 0.374675
vt 0.504544 0.649606
vt 0.504544 0.299848
vt 0.449818 0.299848
vt 0.449818 0.631364
vt 0.503846 0.871029
vt 0.519503 0.871029
vt 0.519503 0.813924
vt 0.503846 0.813924
vt 0.516652 0.653609
vt 0.516652 0.594287
vt 0.434862 0.593663
vt 0.434862 0.796223
vt 0.518211 0.687146
vt 0.518211 0.232326
vt 0.435171 0.622212
vt 0.435171 0.374675
vt 0.518947 0.796223
vt 0.518947 0.611424
vt 0.433991 0.232326
vt 0.433992 0.669291
vt 0.518745 0.604484
vt 0.518745 0.374675
vt 0.435694 0.594287
vt 0.435694 0.670678
vt 0.446362 0.299817
vt 0.507622 0.299817
vt 0.507622 0.282113
vt 0.485753 0.278572
vt 0.468231 0.278572
vt 0.446362 0.282113
vt 0.450910 0.772831
vt 0.435615 0.772831
vt 0.435615 0.828614
vt 0.450910 0.828614
vt 0.503997 0.570809
vt 0.519492 0.570809
vt 0.519492 0.514293
vt 0.503997 0.514293
vt 0.447025 0.375182
vt 0.506701 0.375184
vt 0.506701 0.357931
vt 0.485390 0.354479
vt 0.468337 0.354479
vt 0.447026 0.357928
vt 0.507006 0.360327
vt 0.507006 0.342951
vt 0.485542 0.339475
vt 0.468366 0.339475
vt 0.446903 0.342951
vt 0.446903 0.360327
vt 0.434002 0.299848
vt 0.434001 0.631364
vt 0.504650 0.543971
vt 0.520784 0.543971
vt 0.520784 0.485029
vt 0.504650 0.485029
vt 0.449827 0.249032
vt 0.434236 0.249032
vt 0.434236 0.532418
vt 0.449826 0.532418
vt 0.520361 0.649607
vt 0.520360 0.299848
vt 0.433946 0.669262
vt 0.433946 0.725523
vt 0.449371 0.725523
vt 0.507584 0.778875
vt 0.507584 0.760953
vt 0.485447 0.757369
vt 0.467732 0.757369
vt 0.445596 0.760954
vt 0.445596 0.778875
vt 0.450892 0.394607
vt 0.435596 0.394604
vt 0.435533 0.772840
vt 0.450830 0.772842
vt 0.502713 0.658039
vt 0.502713 0.602865
vt 0.517840 0.602865
vt 0.517840 0.658039
vt 0.517765 0.905036
vt 0.517765 0.658233
vt 0.432934 0.542133
vt 0.432934 0.851774
vt 0.503946 0.833526
vt 0.519630 0.833526
vt 0.519630 0.890729
vt 0.503946 0.890729
vt 0.435917 0.658233
vt 0.435915 0.887684
vt 0.503815 0.790579
vt 0.519113 0.790579
vt 0.519113 0.412324
vt 0.503815 0.412324
vt 0.434245 0.889266
vt 0.434245 0.971796
vt 0.450973 0.338729
vt 0.435637 0.338729
vt 0.435637 0.394666
vt 0.450973 0.394666
vt 0.450732 0.594301
vt 0.435791 0.594301
vt 0.435791 0.539709
vt 0.450732 0.539709
vt 0.519663 0.971796
vt 0.519663 0.871157
vt 0.450160 0.621911
vt 0.434945 0.621911
vt 0.434945 0.677411
vt 0.450160 0.677411
vt 0.519832 0.833351
vt 0.519832 0.542133
vt 0.503591 0.555923
vt 0.518806 0.555923
vt 0.518806 0.611416
vt 0.503591 0.611416
vt 0.433999 0.389464
vt 0.433999 0.503480
vt 0.504939 0.707508
vt 0.520665 0.707508
vt 0.520665 0.650151
vt 0.504939 0.650151
vt 0.520917 0.485043
vt 0.520918 0.389464
vt 0.503751 0.514375
vt 0.519340 0.514375
vt 0.519341 0.249032
vt 0.503751 0.249032
vt 0.416455 0.394601
vt 0.385861 0.394596
vt 0.385799 0.772832
vt 0.416393 0.772837
vt 0.485989 0.753770
vt 0.485989 0.717507
vt 0.468066 0.717507
vt 0.468066 0.753770
vt 0.538881 0.557030
vt 0.569870 0.557030
vt 0.569870 0.514293
vt 0.538881 0.514293
vt 0.540152 0.649617
vt 0.571784 0.649617
vt 0.571783 0.299848
vt 0.540151 0.299848
vt 0.535209 0.679055
vt 0.564870 0.679055
vt 0.564870 0.594287
vt 0.535209 0.594287
vt 0.416477 0.815014
vt 0.416477 0.772831
vt 0.413015 0.865946
vt 0.413015 0.542133
vt 0.436035 0.565544
vt 0.417539 0.540183
vt 0.417539 0.594190
vt 0.436035 0.594190
vt 0.538848 0.249032
vt 0.538848 0.514375
vt 0.417137 0.670678
vt 0.417137 0.594287
vt 0.414729 0.546281
vt 0.414729 0.249032
vt 0.536527 0.658233
vt 0.536526 0.905036
vt 0.417154 0.913410
vt 0.417155 0.658233
vt 0.414666 0.971796
vt 0.414665 0.862451
vt 0.539242 0.871157
vt 0.539242 0.971796
vt 0.540342 0.650140
vt 0.540342 0.680526
vt 0.539095 0.840788
vt 0.539095 0.871029
vt 0.537515 0.232326
vt 0.537515 0.700864
vt 0.414688 0.669291
vt 0.414687 0.232326
vt 0.540791 0.485316
vt 0.521456 0.485316
vt 0.521456 0.541766
vt 0.540791 0.528026
vt 0.414645 0.711807
vt 0.414645 0.669262
vt 0.518508 0.658516
vt 0.536605 0.658516
vt 0.536605 0.605765
vt 0.518508 0.630580
vt 0.539666 0.833191
vt 0.519882 0.833191
vt 0.519882 0.890856
vt 0.539666 0.876797
vt 0.539751 0.542133
vt 0.539750 0.833351
vt 0.537906 0.570236
vt 0.519244 0.556974
vt 0.519244 0.611372
vt 0.537906 0.611361
vt 0.415592 0.796223
vt 0.415592 0.579952
vt 0.538216 0.611435
vt 0.538216 0.796223
vt 0.414210 0.658470
vt 0.414211 0.299848
vt 0.538254 0.386073
vt 0.538254 0.804180
vt 0.416446 0.394666
vt 0.416446 0.365044
vt 0.415908 0.651306
vt 0.415908 0.621911
vt 0.414075 0.517636
vt 0.414075 0.389464
vt 0.540841 0.389464
vt 0.540841 0.485043
vt 0.416014 0.622212
vt 0.416013 0.374675
vt 0.537902 0.374675
vt 0.537903 0.630758
vt 0.572432 0.485313
vt 0.540769 0.485313
vt 0.540769 0.529071
vt 0.572432 0.529071
vt 0.387476 0.594287
vt 0.387476 0.670678
vt 0.568848 0.804180
vt 0.568848 0.386073
vt 0.383795 0.669262
vt 0.383795 0.711807
vt 0.485542 0.304723
vt 0.468366 0.304723
vt 0.385773 0.365044
vt 0.385773 0.394666
vt 0.536834 0.627307
vt 0.536834 0.657906
vt 0.566386 0.657906
vt 0.566386 0.627307
vt 0.383548 0.249032
vt 0.383548 0.546281
vt 0.385479 0.621911
vt 0.385479 0.651306
vt 0.540021 0.877145
vt 0.571732 0.877145
vt 0.571732 0.833414
vt 0.540021 0.833414
vt 0.485447 0.721527
vt 0.467732 0.721527
vt 0.382230 0.389464
vt 0.382229 0.517636
vt 0.566513 0.905036
vt 0.566514 0.658233
vt 0.572686 0.485043
vt 0.572687 0.389464
vt 0.571587 0.833351
vt 0.571588 0.542133
vt 0.387168 0.658233
vt 0.387167 0.913410
vt 0.468529 0.920662
vt 0.468529 0.956544
vt 0.486262 0.956544
vt 0.486262 0.920662
vt 0.485864 0.337219
vt 0.485864 0.301792
vt 0.468355 0.301792
vt 0.468355 0.337219
vt 0.568859 0.569486
vt 0.538360 0.569486
vt 0.538360 0.611537
vt 0.568859 0.611537
vt 0.383371 0.862451
vt 0.383371 0.971796
vt 0.385394 0.374675
vt 0.385393 0.622212
vt 0.385888 0.772831
vt 0.385888 0.815014
vt 0.468238 0.773054
vt 0.468238 0.808479
vt 0.485768 0.808479
vt 0.485768 0.773054
vt 0.570537 0.971796
vt 0.570537 0.871157
vt 0.568523 0.630758
vt 0.568523 0.374675
vt 0.381178 0.542133
vt 0.381178 0.865946
vt 0.384792 0.579952
vt 0.384792 0.796223
vt 0.571793 0.680526
vt 0.571793 0.650140
vt 0.485391 0.319973
vt 0.468339 0.319972
vt 0.417686 0.564117
vt 0.387069 0.564117
vt 0.387069 0.593783
vt 0.417686 0.593784
vt 0.569016 0.796223
vt 0.569016 0.611435
vt 0.570409 0.871029
vt 0.570409 0.840788
vt 0.485753 0.243162
vt 0.468231 0.243162
vt 0.568370 0.700864
vt 0.568371 0.232326
vt 0.570028 0.514375
vt 0.570029 0.249033
vt 0.382579 0.299848
vt 0.382578 0.658470
vt 0.383832 0.232326
vt 0.528476 0.290822
vt 0.425432 0.290822
vt 0.424239 0.821882
vt 0.424473 0.822650
vt 0.529533 0.822650
vt 0.529774 0.821884
vt 0.528034 0.306168
vt 0.528021 0.306172
vt 0.425710 0.306168
vt 0.528249 0.306920
vt 0.423964 0.970118
vt 0.424201 0.970896
vt 0.530590 0.970896
vt 0.530834 0.970121
vt 0.531027 0.703788
vt 0.530788 0.703002
vt 0.423267 0.703002
vt 0.423020 0.703786
vt 0.529964 0.707967
vt 0.529727 0.707190
vt 0.423452 0.707190
vt 0.423209 0.707965
vt 0.348229 0.658232
vt 0.348228 0.861949
vt 0.612929 0.833351
vt 0.612929 0.542133
vt 0.614039 0.485042
vt 0.614039 0.389464
vt 0.605453 0.905036
vt 0.605453 0.658233
vt 0.569031 0.568716
vt 0.569031 0.611297
vt 0.609135 0.611340
vt 0.609135 0.541250
vt 0.345632 0.374675
vt 0.345632 0.622212
vt 0.346166 0.772831
vt 0.346166 0.842219
vt 0.611175 0.971796
vt 0.611175 0.871157
vt 0.608284 0.578202
vt 0.608284 0.374675
vt 0.339835 0.542133
vt 0.339836 0.837598
vt 0.344798 0.607377
vt 0.344797 0.796223
vt 0.612634 0.734499
vt 0.612634 0.650184
vt 0.349552 0.566504
vt 0.349552 0.594434
vt 0.386983 0.594434
vt 0.386983 0.517038
vt 0.609011 0.796223
vt 0.609011 0.611435
vt 0.611072 0.871029
vt 0.611072 0.787051
vt 0.608437 0.673423
vt 0.608438 0.232326
vt 0.610517 0.514375
vt 0.610517 0.249033
vt 0.343764 0.232326
vt 0.343766 0.669291
vt 0.529630 0.287622
vt 0.424588 0.287622
vt 0.529498 0.228999
vt 0.424486 0.228999
vt 0.603386 0.628155
vt 0.603386 0.594287
vt 0.612861 0.649617
vt 0.612860 0.299848
vt 0.610112 0.584591
vt 0.610112 0.514293
vt 0.346134 0.394590
vt 0.346071 0.772825
vt 0.573084 0.485313
vt 0.573084 0.529073
vt 0.614201 0.557234
vt 0.614201 0.485313
vt 0.348960 0.594287
vt 0.348960 0.670679
vt 0.608576 0.776975
vt 0.608576 0.438584
vt 0.343735 0.669262
vt 0.343735 0.739244
vt 0.345943 0.312406
vt 0.345943 0.394666
vt 0.605000 0.658188
vt 0.605000 0.630112
vt 0.567250 0.580225
vt 0.567250 0.658188
vt 0.343059 0.249032
vt 0.343060 0.518550
vt 0.345966 0.621911
vt 0.345966 0.703524
vt 0.571994 0.833605
vt 0.571994 0.876793
vt 0.612661 0.904646
vt 0.612661 0.833605
vt 0.340877 0.389464
vt 0.340877 0.489319
vt 0.342733 0.916091
vt 0.342733 0.971796
vt 0.341502 0.299848
vt 0.341501 0.604251
vt 0.507647 0.751798
vt 0.446359 0.751798
vt 0.446359 0.769511
vt 0.507647 0.769511
vt 0.508422 0.899133
vt 0.446369 0.899133
vt 0.446369 0.917074
vt 0.508422 0.917074
vt 0.508385 0.775528
vt 0.508385 0.757397
vt 0.445670 0.757397
vt 0.445670 0.775528
vt 0.446475 0.358475
vt 0.507743 0.358475
vt 0.507743 0.340761
vt 0.446475 0.340761
vt 0.958794 0.931623
vt 0.883696 0.931709
vt 0.883694 0.034812
vt 0.958793 0.034812
vt 0.958793 0.003520
vt 0.883694 0.003521
vt 0.958794 0.962518
vt 0.958794 0.993809
vt 0.883696 0.993810
vt 0.883696 0.962519
vt 0.958794 0.962518
vt 0.958794 0.993809
vt 0.883696 0.993810
vt 0.883696 0.962519
vt 0.958794 0.930157
vt 0.883696 0.930242
vt 0.883694 0.034812
vt 0.958793 0.034812
vt 0.958793 0.003520
vt 0.883694 0.003521
vt 0.883694 0.034812
vt 0.958793 0.034812
vt 0.852403 0.034812
vt 0.852404 0.931709
vt 0.990085 0.962519
vt 0.958794 0.962518
vt 0.958793 0.034812
vt 0.990085 0.034812
vt 0.958793 0.003520
vt 0.883694 0.003521
vt 0.883694 0.034812
vt 0.852404 0.962519
vt 0.852403 0.034812
vt 0.883696 0.962519
vt 0.958794 0.993809
vt 0.883696 0.993810
vt 0.958794 0.962518
vt 0.958794 0.993809
vt 0.883696 0.993810
vt 0.883696 0.962519
vt 0.958793 0.003520
vt 0.958793 0.034812
vt 0.957743 0.034812
vt 0.883694 0.034812
vt 0.883694 0.003521
vt 0.958793 0.003520
vt 0.883694 0.003521
vt 0.958794 0.929762
vt 0.883696 0.929847
vt 0.883694 0.034812
vt 0.958793 0.034812
vt 0.852403 0.034812
vt 0.852404 0.930242
vt 0.990085 0.929961
vt 0.958794 0.929961
vt 0.958793 0.034812
vt 0.990085 0.034812
vt 0.958793 0.003520
vt 0.883694 0.003521
vt 0.958794 0.962518
vt 0.958794 0.993809
vt 0.883696 0.993810
vt 0.883696 0.962519
vt 0.990085 0.930157
vt 0.990085 0.034812
vt 0.958793 0.003520
vt 0.883694 0.034812
vt 0.883694 0.003521
vt 0.958794 0.962518
vt 0.958794 0.993809
vt 0.883696 0.993810
vt 0.883696 0.962519
vt 0.958794 0.962518
vt 0.958794 0.993809
vt 0.883696 0.993810
vt 0.883696 0.962519
vt 0.958793 0.003520
vt 0.958793 0.034812
vt 0.883694 0.034812
vt 0.883694 0.003521
vt 0.852403 0.034812
vt 0.883696 0.931513
vt 0.852404 0.931513
vt 0.990085 0.931427
vt 0.958794 0.931427
vt 0.990085 0.034812
vt 0.958794 0.962518
vt 0.958794 0.993809
vt 0.883696 0.993810
vt 0.883696 0.962519
vt 0.852403 0.034812
vt 0.883696 0.931314
vt 0.852404 0.931314
vt 0.958794 0.931229
vt 0.990085 0.931624
vt 0.990085 0.034812
vt 0.852403 0.034812
vt 0.852404 0.962519
vt 0.883696 0.930046
vt 0.990085 0.962519
vt 0.990085 0.034812
vt 0.990085 0.929762
vt 0.990085 0.034812
vt 0.990085 0.931229
vt 0.990085 0.034812
vt 0.852403 0.034812
vt 0.852404 0.930046
vt 0.852403 0.034812
vt 0.852404 0.929847
vn 0.0000 1.0000 -0.0000
vn 0.4462 0.0000 -0.8949
vn 0.7071 0.0000 0.7071
vn -0.7071 0.0000 -0.7071
vn -0.4462 -0.0000 0.8949
vn 0.4472 0.0000 -0.8944
vn 0.0706 -0.9874 -0.1415
vn -0.0721 -0.9869 0.1445
vn -0.1105 -0.9877 -0.1105
vn 0.1157 -0.9865 0.1157
vn -0.4472 0.0000 0.8944
vn 0.2178 0.9514 0.2178
vn 0.1378 0.9514 -0.2755
vn -0.2178 0.9514 -0.2178
vn -0.1378 0.9514 0.2755
vn -0.0706 -0.9874 0.1415
vn 0.0721 -0.9869 -0.1445
vn 0.1105 -0.9877 0.1105
vn -0.1157 -0.9865 -0.1157
vn 0.8944 0.0000 0.4472
vn -0.7071 -0.0000 0.7071
vn -0.8949 0.0000 -0.4462
vn -0.4461 0.0000 0.8950
vn 0.0713 -0.9871 -0.1430
vn -0.1130 -0.9871 -0.1130
vn 0.1130 -0.9871 0.1130
vn -0.0713 -0.9871 0.1430
vn 0.0715 -0.9871 -0.1430
vn -0.0715 -0.9871 0.1430
vn -0.0713 -0.9871 0.1431
vn 0.8949 0.0000 0.4462
vn -0.8944 0.0000 -0.4472
vn -0.1374 0.9514 0.2757
vn 0.1374 0.9514 -0.2757
vn 0.7071 0.0000 -0.7071
vn 0.4461 0.0000 -0.8950
vn 0.0713 -0.9871 -0.1431
usemtl Material.104
s off
f 5/1/1 2/2/1 1/3/1 4/4/1
f 4/5/1 1/6/1 3/7/1 6/8/1
f 5/1/2 4/4/2 7/9/2 28/10/2
f 3/7/3 1/6/3 30/11/3 27/12/3
f 4/5/4 6/8/4 29/13/4 7/14/4
f 1/3/5 2/2/5 8/15/5 30/16/5
f 9/17/6 17/18/6 15/19/6 11/20/6
f 7/9/7 9/17/7 11/20/7 28/10/7
f 30/16/8 8/15/8 12/21/8 10/22/8
f 9/23/9 7/14/9 29/13/9 13/24/9
f 10/25/3 18/26/3 19/27/3 14/28/3
f 30/11/10 10/25/10 14/28/10 27/12/10
f 13/24/4 20/29/4 17/30/4 9/23/4
f 12/21/11 16/31/11 18/32/11 10/22/11
f 19/27/12 18/26/12 22/33/12 21/34/12
f 15/19/13 17/18/13 24/35/13 23/36/13
f 17/30/14 20/29/14 25/37/14 24/38/14
f 18/32/15 16/31/15 26/39/15 22/40/15
f 35/41/1 32/42/1 31/43/1 34/44/1
f 34/45/1 31/46/1 33/47/1 36/48/1
f 35/41/5 34/44/5 37/49/5 58/50/5
f 33/47/4 31/46/4 60/51/4 57/52/4
f 34/45/3 36/48/3 59/53/3 37/54/3
f 31/43/2 32/42/2 38/55/2 60/56/2
f 39/57/11 47/58/11 45/59/11 41/60/11
f 37/49/16 39/57/16 41/60/16 58/50/16
f 60/56/17 38/55/17 42/61/17 40/62/17
f 39/63/18 37/54/18 59/53/18 43/64/18
f 40/65/4 48/66/4 49/67/4 44/68/4
f 60/51/19 40/65/19 44/68/19 57/52/19
f 43/64/3 50/69/3 47/70/3 39/63/3
f 42/61/6 46/71/6 48/72/6 40/62/6
f 49/67/14 48/66/14 52/73/14 51/74/14
f 45/59/15 47/58/15 54/75/15 53/76/15
f 47/70/12 50/69/12 55/77/12 54/78/12
f 48/72/13 46/71/13 56/79/13 52/80/13
f 67/81/1 70/82/1 69/83/1 68/84/1
f 82/85/1 81/86/1 97/87/1 98/88/1
f 92/89/1 85/90/1 86/91/1 91/92/1
f 71/93/1 63/94/1 69/83/1 70/82/1
f 66/95/1 73/96/1 74/97/1 72/98/1
f 76/99/1 75/100/1 66/101/1 64/102/1
f 65/103/1 64/104/1 66/105/1 72/106/1
f 79/107/1 92/108/1 91/109/1 80/110/1
f 62/111/1 68/112/1 69/113/1 61/114/1
f 77/115/1 90/116/1 89/117/1 78/118/1
f 90/119/1 88/120/1 87/121/1 89/122/1
f 88/123/1 90/124/1 94/125/1 93/126/1
f 98/88/1 97/87/1 99/127/1 100/128/1
f 100/128/1 99/127/1 84/129/1 83/130/1
f 103/131/1 97/132/1 81/133/1 104/134/1
f 101/135/1 84/136/1 99/137/1 102/138/1
f 86/139/1 95/140/1 96/141/1 91/142/1
f 92/143/4 181/144/4 120/145/4 85/146/4
f 66/95/4 134/147/4 176/148/4 73/96/4
f 90/124/6 171/149/6 185/150/6 94/125/6
f 69/113/5 140/151/5 105/152/5 61/114/5
f 101/135/3 191/153/3 128/154/3 84/136/3
f 93/126/11 125/155/11 124/156/11 88/123/11
f 62/111/2 106/157/2 114/158/2 68/112/2
f 99/137/4 127/159/4 192/160/4 102/138/4
f 74/97/3 117/161/3 109/162/3 72/98/3
f 96/163/20 95/164/20 186/165/20 161/166/20 162/167/20 126/168/20
f 98/169/2 107/170/2 108/171/2 82/172/2
f 67/173/4 121/174/4 115/175/4 70/176/4
f 101/177/21 102/178/21 192/179/21 169/180/21 168/181/21 191/182/21
f 71/183/21 116/184/21 144/185/21 147/186/21 118/187/21 63/188/21
f 96/141/6 126/189/6 180/190/6 91/142/6
f 82/191/4 108/192/4 111/193/4 81/194/4
f 63/195/3 118/196/3 140/197/3 69/198/3
f 86/139/11 182/199/11 186/200/11 95/140/11
f 68/112/2 114/201/2 121/202/2 67/203/2
f 76/204/22 178/205/22 149/206/22 148/207/22 119/208/22 75/209/22
f 100/210/2 187/211/2 107/212/2 98/213/2
f 65/214/2 113/215/2 112/216/2 64/217/2
f 64/102/2 112/218/2 178/219/2 76/99/2
f 77/115/4 170/220/4 171/221/4 90/116/4
f 87/222/4 89/223/4 184/224/4 122/225/4
f 75/100/5 119/226/5 134/227/5 66/101/5
f 97/228/23 110/229/23 127/230/23 99/231/23
f 91/109/3 180/232/3 173/233/3 80/110/3
f 83/234/2 189/235/2 187/236/2 100/237/2
f 72/238/3 109/239/3 113/240/3 65/241/3
f 79/107/4 174/242/4 181/243/4 92/108/4
f 84/244/4 83/245/4 189/246/4 128/247/4
f 89/117/4 78/118/4 123/248/4 184/249/4
f 88/250/5 124/251/5 122/252/5 87/253/5
f 103/131/3 190/254/3 110/255/3 97/132/3
f 85/256/5 120/257/5 182/258/5 86/259/5
f 81/133/4 111/260/4 129/261/4 104/134/4
f 70/262/4 115/263/4 116/264/4 71/265/4
f 163/266/2 228/267/2 195/268/2 132/269/2
f 145/270/21 206/271/21 207/272/21 146/273/21
f 154/274/4 218/275/4 203/276/4 143/277/4
f 152/278/11 216/279/11 226/280/11 161/281/11
f 175/282/4 205/283/4 206/284/4 145/285/4
f 133/286/24 108/171/24 107/170/24 132/287/24
f 138/288/25 171/221/25 170/220/25 137/289/25
f 139/290/26 113/291/26 109/292/26 172/293/26
f 144/294/25 116/264/25 115/263/25 143/295/25
f 145/285/25 176/148/25 134/147/25 175/282/25
f 172/296/26 109/162/26 117/161/26 146/297/26
f 177/298/26 140/197/26 118/196/26 147/299/26
f 149/300/24 178/219/24 112/218/24 179/301/24
f 175/302/27 134/227/27 119/226/27 148/303/27
f 141/304/26 173/233/26 180/232/26 150/305/26
f 151/306/25 181/243/25 174/242/25 142/307/25
f 152/308/27 182/258/27 120/257/27 153/309/27
f 153/310/25 120/145/25 181/144/25 151/311/25
f 130/312/27 105/152/27 140/151/27 177/313/27
f 183/314/24 114/158/24 106/157/24 131/315/24
f 143/277/25 115/175/25 121/174/25 154/274/25
f 136/316/25 111/317/25 108/318/25 133/319/25
f 154/320/24 121/202/24 114/201/24 183/321/24
f 179/322/24 112/323/24 113/324/24 139/325/24
f 156/326/26 184/327/26 122/328/26 155/329/26
f 157/330/26 123/248/26 184/249/26 156/331/26
f 155/332/27 122/333/27 124/334/27 158/335/27
f 159/336/28 185/150/28 171/149/28 138/337/28
f 158/338/29 124/156/29 125/155/29 160/339/29
f 150/340/28 180/190/28 126/189/28 162/341/28
f 161/281/29 186/200/29 182/199/29 152/278/29
f 132/269/24 107/212/24 187/211/24 163/266/24
f 188/342/30 127/230/30 110/229/30 135/343/30
f 163/344/24 187/236/24 189/235/24 164/345/24
f 164/346/26 189/246/26 128/247/26 165/347/26
f 135/348/26 110/255/26 190/254/26 166/349/26
f 167/350/25 129/261/25 111/260/25 136/351/25
f 165/352/26 128/154/26 191/153/26 168/353/26
f 169/354/25 192/160/25 127/159/25 188/355/25
f 133/356/4 196/357/4 219/358/4 136/359/4
f 146/297/3 207/360/3 199/361/3 172/296/3
f 135/343/23 229/362/23 230/363/23 188/342/23
f 183/321/2 217/364/2 218/365/2 154/320/2
f 144/185/21 204/366/21 208/367/21 147/186/21
f 164/345/2 231/368/2 228/369/2 163/344/2
f 139/370/2 200/371/2 212/372/2 179/373/2
f 147/299/3 208/374/3 209/375/3 177/298/3
f 165/347/3 232/376/3 231/377/3 164/346/3
f 155/378/3 220/379/3 221/380/3 156/381/3
f 149/206/22 211/382/22 210/383/22 148/207/22
f 166/349/3 233/384/3 229/385/3 135/348/3
f 179/301/2 212/386/2 211/387/2 149/300/2
f 136/351/4 219/388/4 234/389/4 167/350/4
f 156/331/3 221/390/3 222/391/3 157/330/3
f 148/303/5 210/392/5 205/393/5 175/302/5
f 167/394/21 234/395/21 233/396/21 166/397/21
f 130/398/31 193/399/31 194/400/31 131/401/31
f 158/402/5 223/403/5 220/404/5 155/405/5
f 150/305/3 213/406/3 201/407/3 141/304/3
f 168/353/3 235/408/3 232/409/3 165/352/3
f 132/287/2 195/410/2 196/411/2 133/286/2
f 159/412/32 224/413/32 225/414/32 160/415/32
f 142/307/4 202/416/4 214/417/4 151/306/4
f 188/355/4 230/418/4 236/419/4 169/354/4
f 137/289/4 197/420/4 198/421/4 138/288/4
f 138/337/6 198/422/6 224/423/6 159/336/6
f 153/309/5 215/424/5 216/425/5 152/308/5
f 169/180/21 236/426/21 235/427/21 168/181/21
f 172/428/3 199/429/3 200/430/3 139/431/3
f 160/339/11 225/432/11 223/433/11 158/338/11
f 151/311/4 214/434/4 215/435/4 153/310/4
f 161/166/20 226/436/20 227/437/20 162/167/20
f 177/313/5 209/438/5 193/439/5 130/312/5
f 143/295/4 203/440/4 204/441/4 144/294/4
f 162/341/6 227/442/6 213/443/6 150/340/6
f 131/315/2 194/444/2 217/364/2 183/314/2
f 237/445/21 240/446/21 208/367/21 204/366/21
f 225/414/32 224/413/32 266/447/32 243/448/32 244/449/32 271/450/32
f 250/451/21 249/452/21 259/453/21 235/427/21 236/426/21 262/454/21
f 233/396/21 234/395/21 255/455/21 248/456/21 247/457/21 288/458/21
f 207/272/21 206/271/21 278/459/21 238/460/21 239/461/21 284/462/21
f 210/383/22 211/382/22 256/463/22 242/464/22 241/465/22 251/466/22
f 205/393/33 210/392/33 251/467/33 252/468/33
f 222/391/12 221/390/12 253/469/12 254/470/12
f 234/389/14 219/388/14 283/471/14 255/472/14
f 211/387/34 212/386/34 287/473/34 256/474/34
f 220/475/33 223/476/33 270/477/33 257/478/33
f 232/409/12 235/408/12 259/479/12 258/480/12
f 196/411/34 195/410/34 281/481/34 260/482/34
f 214/417/14 202/416/14 261/483/14 273/484/14
f 236/419/14 230/418/14 263/485/14 262/486/14
f 198/421/14 197/420/14 265/487/14 264/488/14
f 224/423/13 198/422/13 264/489/13 266/490/13
f 216/425/33 215/424/33 267/491/33 279/492/33
f 200/493/12 199/494/12 269/495/12 268/496/12
f 223/433/15 225/432/15 271/497/15 270/498/15
f 215/435/14 214/434/14 273/499/14 267/500/14
f 193/439/33 209/438/33 274/501/33 275/502/33
f 204/441/14 203/440/14 280/503/14 237/504/14
f 217/364/34 194/444/34 276/505/34 277/506/34
f 194/400/31 193/399/31 275/507/31 276/508/31
f 245/509/20 246/510/20 227/437/20 226/436/20
f 206/284/14 205/283/14 252/511/14 278/512/14
f 226/280/15 216/279/15 279/513/15 245/514/15
f 203/276/14 218/275/14 272/515/14 280/516/14
f 195/268/34 228/267/34 282/517/34 281/518/34
f 219/519/14 196/520/14 260/521/14 283/522/14
f 199/361/12 207/360/12 284/523/12 269/524/12
f 230/363/33 229/362/33 285/525/33 263/526/33
f 218/365/34 217/364/34 277/527/34 272/528/34
f 228/369/34 231/368/34 286/529/34 282/530/34
f 212/531/34 200/532/34 268/533/34 287/534/34
f 209/375/12 208/374/12 240/535/12 274/536/12
f 231/377/12 232/376/12 258/537/12 286/538/12
f 221/539/12 220/540/12 257/541/12 253/542/12
f 229/385/12 233/384/12 288/543/12 285/544/12
f 201/407/12 213/406/12 289/545/12 290/546/12
f 213/443/13 227/442/13 246/547/13 289/548/13
f 93/549/32 94/550/32 185/551/32 159/412/32 160/415/32 125/552/32
f 103/553/21 104/554/21 129/555/21 167/394/21 166/397/21 190/556/21
f 73/557/21 176/558/21 145/270/21 146/273/21 117/559/21 74/560/21
f 62/561/31 61/562/31 105/563/31 130/398/31 131/401/31 106/564/31
f 297/565/1 300/566/1 299/567/1 298/568/1
f 312/569/1 311/570/1 327/571/1 328/572/1
f 322/573/1 315/574/1 316/575/1 321/576/1
f 301/577/1 293/578/1 299/567/1 300/566/1
f 296/579/1 303/580/1 304/581/1 302/582/1
f 306/583/1 305/584/1 296/585/1 294/586/1
f 295/587/1 294/588/1 296/589/1 302/590/1
f 309/591/1 322/592/1 321/593/1 310/594/1
f 292/595/1 298/596/1 299/597/1 291/598/1
f 307/599/1 320/600/1 319/601/1 308/602/1
f 320/603/1 318/604/1 317/605/1 319/606/1
f 318/607/1 320/608/1 324/609/1 323/610/1
f 328/572/1 327/571/1 329/611/1 330/612/1
f 330/612/1 329/611/1 314/613/1 313/614/1
f 333/615/1 327/616/1 311/617/1 334/618/1
f 331/619/1 314/620/1 329/621/1 332/622/1
f 316/623/1 325/624/1 326/625/1 321/626/1
f 322/627/3 411/628/3 350/629/3 315/630/3
f 296/579/3 364/631/3 406/632/3 303/580/3
f 320/608/11 401/633/11 415/634/11 324/609/11
f 299/597/2 370/635/2 335/636/2 291/598/2
f 331/619/3 314/620/3 358/637/3 421/638/3
f 323/610/6 355/639/6 354/640/6 318/607/6
f 292/595/5 336/641/5 344/642/5 298/596/5
f 329/621/3 357/643/3 422/644/3 332/622/3
f 304/581/4 347/645/4 339/646/4 302/582/4
f 326/647/32 325/648/32 416/649/32 391/650/32 392/651/32 356/652/32
f 328/653/5 337/654/5 338/655/5 312/656/5
f 297/657/3 351/658/3 345/659/3 300/660/3
f 331/661/35 332/662/35 422/663/35 399/664/35 398/665/35 421/666/35
f 301/667/35 346/668/35 374/669/35 377/670/35 348/671/35 293/672/35
f 326/625/11 356/673/11 410/674/11 321/626/11
f 312/675/3 338/676/3 341/677/3 311/678/3
f 293/679/4 348/680/4 370/681/4 299/682/4
f 316/623/6 412/683/6 416/684/6 325/624/6
f 298/596/5 344/685/5 351/686/5 297/687/5
f 306/688/31 408/689/31 379/690/31 378/691/31 349/692/31 305/693/31
f 330/694/5 417/695/5 337/696/5 328/697/5
f 295/698/2 294/699/2 342/700/2 343/701/2
f 294/586/5 342/702/5 408/703/5 306/583/5
f 307/599/3 400/704/3 401/705/3 320/600/3
f 317/706/4 352/707/4 414/708/4 319/709/4
f 305/584/2 349/710/2 364/711/2 296/585/2
f 327/712/36 340/713/36 357/714/36 329/715/36
f 321/593/4 410/716/4 403/717/4 310/594/4
f 313/718/5 419/719/5 417/720/5 330/721/5
f 302/722/4 339/723/4 343/724/4 295/725/4
f 309/591/3 404/726/3 411/727/3 322/592/3
f 314/728/4 358/729/4 419/730/4 313/731/4
f 319/601/4 414/732/4 353/733/4 308/602/4
f 318/734/2 354/735/2 352/736/2 317/737/2
f 333/615/4 420/738/4 340/739/4 327/616/4
f 315/740/2 350/741/2 412/742/2 316/743/2
f 311/617/3 341/744/3 359/745/3 334/618/3
f 300/746/3 345/747/3 346/748/3 301/749/3
f 393/750/5 458/751/5 425/752/5 362/753/5
f 375/754/35 436/755/35 437/756/35 376/757/35
f 384/758/3 448/759/3 433/760/3 373/761/3
f 382/762/6 446/763/6 456/764/6 391/765/6
f 405/766/3 435/767/3 436/768/3 375/769/3
f 363/770/27 338/655/27 337/654/27 362/771/27
f 368/772/26 401/705/26 400/704/26 367/773/26
f 369/774/25 343/775/25 339/776/25 402/777/25
f 374/778/26 346/748/26 345/747/26 373/779/26
f 375/769/26 406/632/26 364/631/26 405/766/26
f 402/780/25 339/646/25 347/645/25 376/781/25
f 407/782/25 370/681/25 348/680/25 377/783/25
f 379/784/27 408/703/27 342/702/27 409/785/27
f 405/786/24 364/711/24 349/710/24 378/787/24
f 371/788/25 403/717/25 410/716/25 380/789/25
f 381/790/26 411/727/26 404/726/26 372/791/26
f 382/792/24 412/742/24 350/741/24 383/793/24
f 383/794/26 350/629/26 411/628/26 381/795/26
f 360/796/24 335/636/24 370/635/24 407/797/24
f 413/798/27 344/642/27 336/641/27 361/799/27
f 373/761/26 345/659/26 351/658/26 384/758/26
f 366/800/26 341/801/26 338/802/26 363/803/26
f 384/804/27 351/686/27 344/685/27 413/805/27
f 409/806/27 342/807/27 343/808/27 369/809/27
f 386/810/25 414/811/25 352/812/25 385/813/25
f 387/814/25 353/733/25 414/732/25 386/815/25
f 385/816/24 352/817/24 354/818/24 388/819/24
f 389/820/29 415/634/29 401/633/29 368/821/29
f 388/822/28 354/640/28 355/639/28 390/823/28
f 380/824/29 410/674/29 356/673/29 392/825/29
f 391/765/28 416/684/28 412/683/28 382/762/28
f 362/753/27 337/696/27 417/695/27 393/750/27
f 418/826/37 357/714/37 340/713/37 365/827/37
f 393/828/27 417/720/27 419/719/27 394/829/27
f 394/830/25 419/730/25 358/729/25 395/831/25
f 365/832/25 340/739/25 420/738/25 396/833/25
f 397/834/26 359/745/26 341/744/26 366/835/26
f 395/836/25 358/637/25 421/638/25 398/837/25
f 399/838/26 422/644/26 357/643/26 418/839/26
f 363/840/3 426/841/3 449/842/3 366/843/3
f 376/781/4 437/844/4 429/845/4 402/780/4
f 365/827/36 459/846/36 460/847/36 418/826/36
f 413/805/5 447/848/5 448/849/5 384/804/5
f 374/669/35 434/850/35 438/851/35 377/670/35
f 394/829/5 461/852/5 458/853/5 393/828/5
f 369/854/5 430/855/5 442/856/5 409/857/5
f 377/783/4 438/858/4 439/859/4 407/782/4
f 395/831/4 462/860/4 461/861/4 394/830/4
f 385/862/4 450/863/4 451/864/4 386/865/4
f 379/690/31 441/866/31 440/867/31 378/691/31
f 396/833/4 463/868/4 459/869/4 365/832/4
f 409/785/5 442/870/5 441/871/5 379/784/5
f 366/835/3 449/872/3 464/873/3 397/834/3
f 386/815/4 451/874/4 452/875/4 387/814/4
f 378/787/2 440/876/2 435/877/2 405/786/2
f 397/878/35 464/879/35 463/880/35 396/881/35
f 360/882/22 423/883/22 424/884/22 361/885/22
f 388/886/2 453/887/2 450/888/2 385/889/2
f 380/789/4 443/890/4 431/891/4 371/788/4
f 398/837/4 465/892/4 462/893/4 395/836/4
f 362/771/5 425/894/5 426/895/5 363/770/5
f 389/896/20 454/897/20 455/898/20 390/899/20
f 372/791/3 432/900/3 444/901/3 381/790/3
f 418/839/3 460/902/3 466/903/3 399/838/3
f 367/773/3 427/904/3 428/905/3 368/772/3
f 368/821/11 428/906/11 454/907/11 389/820/11
f 383/793/2 445/908/2 446/909/2 382/792/2
f 399/664/35 466/910/35 465/911/35 398/665/35
f 402/912/4 429/913/4 430/914/4 369/915/4
f 390/823/6 455/916/6 453/917/6 388/822/6
f 381/795/3 444/918/3 445/919/3 383/794/3
f 391/650/32 456/920/32 457/921/32 392/651/32
f 407/797/2 439/922/2 423/923/2 360/796/2
f 373/779/3 433/924/3 434/925/3 374/778/3
f 392/825/11 457/926/11 443/927/11 380/824/11
f 361/799/5 424/928/5 447/848/5 413/798/5
f 467/929/35 470/930/35 438/851/35 434/850/35
f 455/898/20 454/897/20 496/931/20 473/932/20 474/933/20 501/934/20
f 480/935/35 479/936/35 489/937/35 465/911/35 466/910/35 492/938/35
f 463/880/35 464/879/35 485/939/35 478/940/35 477/941/35 518/942/35
f 437/756/35 436/755/35 508/943/35 468/944/35 469/945/35 514/946/35
f 440/867/31 441/866/31 486/947/31 472/948/31 471/949/31 481/950/31
f 435/877/34 440/876/34 481/951/34 482/952/34
f 452/875/14 451/874/14 483/953/14 484/954/14
f 464/873/12 449/872/12 513/955/12 485/956/12
f 441/871/33 442/870/33 517/957/33 486/958/33
f 450/959/34 453/960/34 500/961/34 487/962/34
f 462/893/14 465/892/14 489/963/14 488/964/14
f 426/895/33 425/894/33 511/965/33 490/966/33
f 444/901/12 432/900/12 491/967/12 503/968/12
f 466/903/12 460/902/12 493/969/12 492/970/12
f 428/905/12 427/904/12 495/971/12 494/972/12
f 454/907/15 428/906/15 494/973/15 496/974/15
f 446/909/34 445/908/34 497/975/34 509/976/34
f 430/977/14 429/978/14 499/979/14 498/980/14
f 453/917/13 455/916/13 501/981/13 500/982/13
f 445/919/12 444/918/12 503/983/12 497/984/12
f 423/923/34 439/922/34 504/985/34 505/986/34
f 434/925/12 433/924/12 510/987/12 467/988/12
f 447/848/33 424/928/33 506/989/33 507/990/33
f 424/884/22 423/883/22 505/991/22 506/992/22
f 475/993/32 476/994/32 457/921/32 456/920/32
f 436/768/12 435/767/12 482/995/12 508/996/12
f 456/764/13 446/763/13 509/997/13 475/998/13
f 433/760/12 448/759/12 502/999/12 510/1000/12
f 425/752/33 458/751/33 512/1001/33 511/1002/33
f 449/1003/12 426/1004/12 490/1005/12 513/1006/12
f 429/845/14 437/844/14 514/1007/14 499/1008/14
f 460/847/34 459/846/34 515/1009/34 493/1010/34
f 448/849/33 447/848/33 507/1011/33 502/1012/33
f 458/853/33 461/852/33 516/1013/33 512/1014/33
f 442/1015/33 430/1016/33 498/1017/33 517/1018/33
f 439/859/14 438/858/14 470/1019/14 504/1020/14
f 461/861/14 462/860/14 488/1021/14 516/1022/14
f 451/1023/14 450/1024/14 487/1025/14 483/1026/14
f 459/869/14 463/868/14 518/1027/14 515/1028/14
f 431/891/14 443/890/14 519/1029/14 520/1030/14
f 443/927/15 457/926/15 476/1031/15 519/1032/15
f 323/1033/20 324/1034/20 415/1035/20 389/896/20 390/899/20 355/1036/20
f 333/1037/35 334/1038/35 359/1039/35 397/878/35 396/881/35 420/1040/35
f 303/1041/35 406/1042/35 375/754/35 376/757/35 347/1043/35 304/1044/35
f 292/1045/22 291/1046/22 335/1047/22 360/882/22 361/885/22 336/1048/22
f 525/1049/1 528/1050/1 527/1051/1 526/1052/1
f 522/1053/2 526/1052/2 527/1051/2 523/1054/2
f 525/1055/11 521/1056/11 524/1057/11 528/1058/11
f 532/1059/2 536/1060/2 533/1061/2 529/1062/2
f 548/1063/1 545/1064/1 546/1065/1 547/1066/1
f 535/1067/2 534/1068/2 530/1069/2 531/1070/2
f 523/1071/31 527/1051/31 528/1050/31 524/1072/31
f 537/1073/22 541/1074/22 542/1075/22 538/1076/22
f 538/1077/5 539/1078/5 543/1079/5 542/1075/5
f 540/1080/31 539/1081/31 543/1079/31 544/1082/31
f 541/1074/5 537/1083/5 540/1084/5 544/1082/5
f 548/1085/6 552/1086/6 549/1087/6 545/1088/6
f 583/1089/2 579/1090/2 586/1091/2 578/1092/2 582/1093/2
f 551/1094/5 547/1066/5 546/1065/5 550/1095/5
f 557/1096/1 560/1097/1 559/1098/1 558/1099/1
f 550/1100/22 546/1065/22 545/1064/22 549/1101/22
f 541/1074/1 544/1082/1 543/1079/1 542/1075/1
f 561/1102/31 565/1103/31 566/1104/31 562/1105/31
f 554/1106/5 558/1099/5 559/1098/5 555/1107/5
f 557/1108/6 553/1109/6 556/1110/6 560/1111/6
f 552/1112/31 548/1063/31 547/1066/31 551/1113/31
f 562/1114/5 566/1104/5 567/1115/5 563/1116/5
f 565/1117/6 561/1118/6 564/1119/6 568/1120/6
f 572/1121/11 576/1122/11 573/1123/11 569/1124/11
f 575/1125/2 571/1126/2 570/1127/2 574/1128/2
f 574/1129/31 570/1127/31 569/1130/31 573/1131/31
f 576/1132/22 572/1133/22 571/1126/22 575/1134/22
f 580/1135/11 584/1136/11 581/1137/11 577/1138/11
f 582/1139/31 578/1092/31 577/1140/31 581/1141/31
f 580/1142/1 577/1138/1 578/1092/1 586/1091/1 579/1090/1
f 572/1133/1 569/1130/1 570/1127/1 571/1126/1
f 521/1143/22 525/1049/22 526/1052/22 522/1144/22
f 534/1145/22 530/1069/22 529/1062/22 533/1146/22
f 565/1103/1 568/1147/1 567/1115/1 566/1104/1
f 532/1059/1 529/1062/1 530/1069/1 531/1070/1
f 536/1148/31 532/1059/31 531/1070/31 535/1149/31
f 553/1150/31 557/1096/31 558/1099/31 554/1151/31
f 584/1152/22 580/1142/22 579/1090/22 583/1153/22
f 563/1154/22 567/1115/22 568/1147/22 564/1155/22
f 555/1156/22 559/1098/22 560/1097/22 556/1157/22
l 27 29
l 8 28
l 57 59
l 38 58
l 580 585
l 586 587
