# Blender v2.82 (sub 7) OBJ File: 'rail_moreturnouts.blend'
# www.blender.org
mtllib advtrains_dtrack_sy_l_60.mtl
o dtrack_sy_l_60_BezierCurve.006
v -0.482503 -0.358797 -0.186189
v -0.278896 -0.358903 -0.307555
v -0.117441 -0.359097 -0.391826
v -0.027682 -0.359229 -0.435669
v 0.051176 -0.359350 -0.468443
v 0.152223 -0.359506 -0.500402
v 0.274925 -0.359681 -0.516961
v 0.500477 -0.359959 -0.529829
v -0.483678 -0.358797 -0.181517
v -0.336945 -0.358845 -0.239212
v -0.189660 -0.358978 -0.301346
v -0.089791 -0.359102 -0.337831
v 0.012639 -0.359247 -0.369322
v 0.157483 -0.359465 -0.401375
v 0.328120 -0.359717 -0.426280
v 0.501003 -0.359938 -0.442631
v -0.117441 -0.384097 -0.391826
v 0.051176 -0.384350 -0.468443
v -0.483678 -0.383797 -0.181517
v -0.336945 -0.383845 -0.239212
v -0.189660 -0.383978 -0.301346
v -0.089791 -0.384102 -0.337831
v 0.501003 -0.384938 -0.442631
v -0.017218 -0.389225 -0.406385
v 0.059431 -0.389344 -0.438271
v 0.156749 -0.389495 -0.469119
v 0.275946 -0.389668 -0.485353
v 0.500683 -0.389951 -0.498494
v 0.007041 -0.389254 -0.400117
v 0.154233 -0.389473 -0.432594
v 0.326566 -0.389725 -0.457596
v 0.500832 -0.389945 -0.473894
v -0.482503 -0.383797 -0.186189
v -0.278896 -0.383903 -0.307555
v -0.027682 -0.384229 -0.435669
v 0.152223 -0.384506 -0.500402
v 0.274925 -0.384681 -0.516961
v 0.500477 -0.384959 -0.529829
v 0.012639 -0.384247 -0.369322
v 0.157483 -0.384465 -0.401375
v 0.328120 -0.384717 -0.426280
v -0.017230 -0.439226 -0.406412
v 0.059420 -0.439344 -0.438296
v 0.156740 -0.439495 -0.469140
v 0.275939 -0.439668 -0.485371
v 0.500678 -0.439951 -0.498505
v 0.007029 -0.439254 -0.400144
v 0.154224 -0.439474 -0.432616
v 0.500827 -0.439945 -0.473905
v 0.154234 -0.459473 -0.432593
v 0.502601 -0.459934 -0.411533
v 0.328942 -0.459712 -0.405436
v 0.326559 -0.439726 -0.457612
v 0.326567 -0.459725 -0.457595
v 0.157130 -0.459464 -0.401344
v 0.012639 -0.459247 -0.369322
v 0.500853 -0.459969 -0.561242
v 0.274246 -0.459693 -0.542799
v -0.027682 -0.459229 -0.435669
v 0.051941 -0.459350 -0.466599
v 0.151165 -0.459511 -0.512111
v -0.482503 -0.458797 -0.186189
v -0.278896 -0.458903 -0.307555
v -0.117441 -0.459097 -0.391826
v -0.483678 -0.458797 -0.181517
v -0.336945 -0.458845 -0.239212
v -0.189660 -0.458978 -0.301346
v -0.089791 -0.459102 -0.337831
v -0.301844 -0.360000 0.660545
v 0.175894 -0.360000 0.443504
v 0.301314 -0.360000 0.378725
v 0.375607 -0.360000 0.334617
v 0.513838 -0.360000 0.231922
v 0.586773 -0.360000 0.166651
v 0.692687 -0.360000 0.063367
v 0.874626 -0.360000 -0.125594
v -0.303109 -0.360000 0.656932
v 0.063725 -0.360000 0.447214
v 0.213142 -0.360000 0.352807
v 0.318078 -0.360000 0.275272
v 0.430492 -0.360000 0.182286
v 0.615973 -0.360000 0.009956
v 0.813480 -0.360000 -0.186740
v 0.301314 -0.390000 0.378725
v 0.375607 -0.385000 0.334617
v 0.063725 -0.390000 0.447214
v 0.615973 -0.385000 0.009956
v 0.358471 -0.390000 0.308879
v 0.494293 -0.390000 0.207973
v 0.565687 -0.390000 0.144081
v 0.670780 -0.390000 0.041598
v 0.852787 -0.390000 -0.147433
v 0.337109 -0.390000 0.299606
v 0.450860 -0.390000 0.205514
v 0.637384 -0.390000 0.032214
v 0.835316 -0.390000 -0.164904
v -0.301844 -0.390000 0.660545
v 0.175894 -0.390000 0.443504
v 0.513838 -0.385000 0.231922
v 0.586773 -0.385000 0.166651
v 0.692687 -0.385000 0.063367
v 0.874626 -0.385000 -0.125594
v -0.303109 -0.390000 0.656932
v 0.213142 -0.390000 0.352807
v 0.318078 -0.385000 0.275272
v 0.430492 -0.385000 0.182286
v 0.813480 -0.385000 -0.186740
v 0.063725 -0.460000 0.447214
v 0.317991 -0.460000 0.275409
v -0.301844 -0.460000 0.660545
v 0.175894 -0.460000 0.443504
v -0.303109 -0.460000 0.656932
v 0.213142 -0.460000 0.352807
v 0.301314 -0.460000 0.378725
v 0.358471 -0.440000 0.308879
v 0.494293 -0.440000 0.207973
v 0.565687 -0.440000 0.144081
v 0.670780 -0.440000 0.041598
v 0.852787 -0.440000 -0.147433
v 0.337109 -0.440000 0.299606
v 0.450860 -0.440000 0.205514
v 0.637384 -0.440000 0.032214
v 0.835316 -0.440000 -0.164904
v 0.852787 -0.460000 -0.147433
v 0.835316 -0.460000 -0.164904
v 0.791727 -0.460000 -0.208672
v 0.601575 -0.460000 -0.004754
v 0.430283 -0.460000 0.182497
v 0.708689 -0.460000 0.079080
v 0.897284 -0.460000 -0.104590
v 0.593910 -0.460000 0.174178
v 0.376431 -0.460000 0.334390
v 0.516247 -0.460000 0.234652
v -1.256096 -0.510000 -0.201944
v -0.594658 -0.510000 1.124696
v -0.487266 -0.510000 1.071152
v -1.148704 -0.510000 -0.255488
v -1.256096 -0.460000 -0.201944
v -0.594657 -0.460000 1.124696
v -0.487266 -0.460000 1.071152
v -1.148704 -0.460000 -0.255488
v -1.016096 -0.510000 -0.321944
v -0.354658 -0.510000 1.004696
v -0.247266 -0.510000 0.951152
v -0.908704 -0.510000 -0.375488
v -1.016096 -0.460000 -0.321944
v -0.354657 -0.460000 1.004696
v -0.247266 -0.460000 0.951152
v -0.908704 -0.460000 -0.375488
v -0.776096 -0.510000 -0.441944
v -0.114658 -0.510000 0.884696
v -0.007266 -0.510000 0.831152
v -0.668703 -0.510000 -0.495488
v -0.776096 -0.460000 -0.441944
v -0.114657 -0.460000 0.884696
v -0.007266 -0.460000 0.831152
v -0.668703 -0.460000 -0.495488
v -0.536096 -0.510000 -0.561944
v 0.125342 -0.510000 0.764696
v 0.232734 -0.510000 0.711152
v -0.428704 -0.510000 -0.615488
v -0.536096 -0.460000 -0.561944
v 0.125343 -0.460000 0.764696
v 0.232734 -0.460000 0.711152
v -0.428703 -0.460000 -0.615488
v -0.412306 -0.512551 -0.637587
v 0.429612 -0.506060 0.582496
v 0.528378 -0.505618 0.514341
v -0.313540 -0.512109 -0.705743
v -0.412582 -0.462552 -0.637663
v 0.429337 -0.456061 0.582421
v 0.528102 -0.455619 0.514266
v -0.313816 -0.462110 -0.705818
v 0.818151 -0.510000 0.230055
v -0.230055 -0.510000 -0.818151
v -0.314908 -0.510000 -0.733298
v 0.733299 -0.510000 0.314908
v 0.818151 -0.460000 0.230055
v -0.230055 -0.460000 -0.818151
v -0.314908 -0.460000 -0.733298
v 0.733298 -0.460000 0.314908
v 0.978798 -0.510000 0.069408
v -0.069408 -0.510000 -0.978798
v -0.154261 -0.510000 -0.893945
v 0.893945 -0.510000 0.154261
v 0.978798 -0.460000 0.069408
v -0.069409 -0.460000 -0.978798
v -0.154261 -0.460000 -0.893945
v 0.893945 -0.460000 0.154261
v 0.499207 -0.460000 0.412498
v -0.816848 -0.460000 0.867957
v -0.750704 -0.460000 1.000621
v 0.500346 -0.460000 0.560732
v 0.499682 -0.440000 0.474262
v -0.789288 -0.440000 0.923234
v -0.778264 -0.440000 0.945344
v 0.499871 -0.440000 0.498968
v 0.499682 -0.390000 0.474262
v -0.789288 -0.390000 0.923234
v -0.778264 -0.390000 0.945344
v 0.499871 -0.390000 0.498968
v -0.764484 -0.385000 0.972982
v 0.500109 -0.385000 0.529850
v 0.499444 -0.385000 0.443380
v -0.803068 -0.385000 0.895595
v -0.764484 -0.360000 0.972982
v 0.500109 -0.360000 0.529850
v 0.499444 -0.360000 0.443380
v -0.803068 -0.360000 0.895595
v 0.287773 -0.460010 0.418048
v 0.039783 -0.460231 0.476454
v -0.210270 -0.460419 0.581953
v -0.438868 -0.460240 0.686808
v -0.639752 -0.460021 0.784166
v -0.568761 -0.460031 0.919166
v -0.375268 -0.460252 0.825431
v -0.162705 -0.460419 0.724840
v 0.067695 -0.460253 0.625812
v 0.296114 -0.460030 0.568237
v 0.291286 -0.440016 0.480357
v 0.050963 -0.440237 0.538254
v -0.194335 -0.440419 0.640987
v -0.417738 -0.440240 0.743385
v -0.613202 -0.440023 0.839661
v -0.595058 -0.440028 0.863683
v -0.396055 -0.440253 0.768944
v -0.178417 -0.440419 0.665798
v 0.056584 -0.440247 0.564013
v 0.292641 -0.440023 0.505744
v 0.291280 -0.390016 0.480420
v 0.050949 -0.390238 0.538405
v -0.194335 -0.390419 0.640987
v -0.417738 -0.390240 0.743385
v -0.613202 -0.390023 0.839661
v -0.596354 -0.390029 0.863490
v -0.399979 -0.390251 0.768307
v -0.180724 -0.390419 0.665492
v 0.057209 -0.390244 0.563810
v 0.292642 -0.390022 0.505734
v -0.584767 -0.385028 0.890728
v -0.390460 -0.385248 0.796126
v -0.173976 -0.385419 0.694886
v 0.061722 -0.385249 0.594720
v 0.294389 -0.385025 0.536899
v 0.289520 -0.385014 0.449315
v 0.046380 -0.385236 0.507723
v -0.201185 -0.385419 0.611589
v -0.426723 -0.385244 0.715705
v -0.622817 -0.385025 0.812859
v -0.584767 -0.360028 0.890728
v -0.390460 -0.360248 0.796126
v -0.173976 -0.360419 0.694886
v 0.061739 -0.360247 0.594543
v 0.294396 -0.360025 0.536826
v 0.289516 -0.360015 0.449363
v 0.044869 -0.360239 0.507760
v -0.197694 -0.360419 0.612060
v -0.421071 -0.360243 0.716377
v -0.622502 -0.360023 0.812783
v -0.111590 -0.390000 -0.595079
v 0.010260 -0.390000 -0.716568
v 0.027776 -0.390000 -0.698203
v -0.094755 -0.390000 -0.575476
v -0.215435 -0.390000 -0.471006
v -0.320416 -0.390000 -0.391226
v -0.420300 -0.390000 -0.334388
v -0.526871 -0.390000 -0.275706
v -0.639973 -0.460000 -0.142537
v 0.208357 -0.460000 -0.791422
v 0.103537 -0.460000 -0.896243
v -0.708791 -0.460000 -0.274413
v -0.668632 -0.440000 -0.197476
v 0.164682 -0.440000 -0.835098
v 0.147212 -0.440000 -0.852568
v -0.680102 -0.440000 -0.219455
v -0.668632 -0.390000 -0.197476
v 0.164682 -0.390000 -0.835098
v 0.147212 -0.390000 -0.852568
v -0.680150 -0.390000 -0.219485
v 0.125374 -0.385000 -0.874405
v -0.694443 -0.385000 -0.246932
v -0.654345 -0.385000 -0.170033
v 0.186520 -0.385000 -0.813260
v 0.125374 -0.360000 -0.874405
v -0.694444 -0.360000 -0.246933
v -0.654300 -0.360000 -0.170005
v 0.186520 -0.360000 -0.813260
v 0.491594 2.379186 -0.508186
v -0.538912 -0.440000 -0.297466
v -0.433160 -0.440000 -0.355675
v -0.334354 -0.440000 -0.412125
v -0.230779 -0.440000 -0.491383
v -0.111468 -0.440000 -0.595006
v 0.010269 -0.440000 -0.716562
v 0.027439 -0.440000 -0.698694
v -0.095152 -0.440000 -0.576149
v -0.215747 -0.440000 -0.471624
v -0.320580 -0.440000 -0.391589
v -0.420334 -0.440000 -0.334469
v -0.526870 -0.440000 -0.275705
v -0.569018 -0.460000 -0.351869
v -0.465225 -0.460000 -0.408688
v -0.368789 -0.460000 -0.463462
v -0.268361 -0.460000 -0.540776
v -0.404300 -0.360000 -0.307962
v -0.511817 -0.360000 -0.248504
v -0.553965 -0.360000 -0.324668
v -0.449193 -0.360000 -0.382182
v -0.351571 -0.360000 -0.437793
v -0.249569 -0.360000 -0.516080
v -0.131746 -0.360000 -0.618409
v -0.010997 -0.360000 -0.738695
v -1.184773 -0.460000 0.130014
v -0.638233 -0.460000 -0.142480
v -0.704377 -0.460000 -0.275144
v -1.250917 -0.460000 -0.002650
v -1.212333 -0.440000 0.074737
v -0.665793 -0.440000 -0.197757
v -0.676817 -0.440000 -0.219868
v -1.223357 -0.440000 0.052627
v -1.212333 -0.390000 0.074737
v -0.665793 -0.390000 -0.197757
v -0.676817 -0.390000 -0.219868
v -1.223357 -0.390000 0.052627
v -0.690597 -0.385000 -0.247506
v -1.237137 -0.385000 0.024988
v -1.198553 -0.385000 0.102376
v -0.652013 -0.385000 -0.170119
v -0.690597 -0.360000 -0.247506
v -1.237137 -0.360000 0.024988
v -1.198553 -0.360000 0.102376
v -0.652013 -0.360000 -0.170119
v -0.152276 -0.460000 -0.642148
v -0.032564 -0.460000 -0.761175
v 0.070219 -0.460000 -0.654114
v -0.054383 -0.460000 -0.529005
v -0.178175 -0.460000 -0.422223
v -0.286146 -0.460000 -0.340251
v -0.388265 -0.460000 -0.281454
v -0.496765 -0.460000 -0.221304
v 0.048820 -0.385000 -0.676410
v -0.074882 -0.385000 -0.552648
v -0.196968 -0.385000 -0.446922
v -0.303363 -0.385000 -0.365920
v -0.404300 -0.385000 -0.307962
v -0.511887 -0.385000 -0.248548
v -0.553962 -0.385000 -0.324666
v -0.449141 -0.385000 -0.382108
v -0.351360 -0.385000 -0.437461
v -0.249196 -0.385000 -0.515506
v -0.131418 -0.385000 -0.617947
v -0.010754 -0.385000 -0.738387
v -0.538977 -0.390000 -0.297507
v -0.433160 -0.390000 -0.355675
v -0.334354 -0.390000 -0.412125
v -0.230784 -0.390000 -0.491381
v 0.048832 -0.360000 -0.676402
v -0.074767 -0.360000 -0.552577
v -0.196960 -0.360000 -0.446924
v -0.303363 -0.360000 -0.365920
vt 0.482418 0.571192
vt 0.460707 0.577273
vt 0.485644 0.610630
vt 0.504265 0.700955
vt 0.522694 0.700955
vt 0.522694 0.583142
vt 0.504265 0.583142
vt 0.450270 0.519043
vt 0.430967 0.519043
vt 0.430967 0.701539
vt 0.450270 0.701539
vt 0.522694 0.465056
vt 0.504265 0.465056
vt 0.450270 0.378712
vt 0.430967 0.378712
vt 0.522694 0.386131
vt 0.504264 0.386131
vt 0.450270 0.301572
vt 0.430967 0.301572
vt 0.522694 0.306141
vt 0.504264 0.306141
vt 0.503328 0.583691
vt 0.517468 0.583525
vt 0.518273 0.631283
vt 0.504175 0.631561
vt 0.449067 0.625783
vt 0.430833 0.625876
vt 0.430312 0.515383
vt 0.448508 0.515334
vt 0.502527 0.523262
vt 0.516669 0.523251
vt 0.430450 0.386782
vt 0.448480 0.386814
vt 0.502950 0.451283
vt 0.517072 0.451304
vt 0.431090 0.257842
vt 0.449067 0.257932
vt 0.502527 0.320593
vt 0.516595 0.320547
vt 0.504239 0.708815
vt 0.522662 0.708815
vt 0.504239 0.700986
vt 0.456700 0.423210
vt 0.485312 0.475252
vt 0.494224 0.410424
vt 0.450766 0.509378
vt 0.481628 0.531096
vt 0.454246 0.540921
vt 0.474561 0.339251
vt 0.505729 0.345558
vt 0.449933 0.469699
vt 0.535494 0.630412
vt 0.535033 0.583372
vt 0.534951 0.523218
vt 0.534699 0.451282
vt 0.534042 0.320299
vt 0.577930 0.708815
vt 0.577930 0.700986
vt 0.407606 0.515377
vt 0.407814 0.626926
vt 0.407981 0.386727
vt 0.408358 0.257191
vt 0.563106 0.450951
vt 0.564175 0.522899
vt 0.371607 0.515168
vt 0.371843 0.386621
vt 0.561875 0.320091
vt 0.563639 0.583286
vt 0.563036 0.630448
vt 0.372007 0.257094
vt 0.370951 0.626869
vt 0.591012 0.522621
vt 0.583332 0.583397
vt 0.583519 0.631332
vt 0.331936 0.386585
vt 0.324975 0.257042
vt 0.494476 0.669170
vt 0.475239 0.642852
vt 0.344864 0.515325
vt 0.344072 0.625717
vt 0.597967 0.319607
vt 0.597013 0.450235
vt 0.000000 0.000000
vt 0.000000 0.000000
vt 0.000000 0.000000
vt 0.000000 0.000000
vt 0.501973 0.726012
vt 0.505729 0.727155
vt 0.373056 0.378712
vt 0.373056 0.519043
vt 0.577982 0.583142
vt 0.577982 0.465056
vt 0.373056 0.301572
vt 0.577982 0.386131
vt 0.577982 0.306141
vt 0.373056 0.701539
vt 0.577982 0.700955
vt 0.000000 0.000000
vt 0.000000 0.000000
vt 0.000000 0.000000
vt 0.000000 0.000000
vt 0.455350 0.541065
vt 0.478089 0.517407
vt 0.478424 0.558258
vt 0.392758 0.527786
vt 0.392758 0.227171
vt 0.432861 0.227171
vt 0.432861 0.527786
vt 0.517270 0.638621
vt 0.519684 0.575611
vt 0.505196 0.575611
vt 0.505196 0.638621
vt 0.432861 0.608656
vt 0.435726 0.658154
vt 0.450048 0.658154
vt 0.450048 0.608656
vt 0.553489 0.575611
vt 0.553489 0.638548
vt 0.504807 0.718713
vt 0.505017 0.639719
vt 0.518525 0.639739
vt 0.518344 0.718749
vt 0.450263 0.626920
vt 0.449812 0.721254
vt 0.435942 0.721174
vt 0.436575 0.626932
vt 0.505085 0.503242
vt 0.518483 0.503236
vt 0.449983 0.573557
vt 0.436339 0.573603
vt 0.504807 0.353524
vt 0.518167 0.353495
vt 0.449937 0.493158
vt 0.436356 0.493149
vt 0.505179 0.490306
vt 0.505179 0.492161
vt 0.519714 0.492161
vt 0.519714 0.490306
vt 0.450263 0.350764
vt 0.436692 0.350733
vt 0.000000 0.000000
vt 0.000000 0.000000
vt 0.000000 0.000000
vt 0.000000 0.000000
vt 0.418599 0.720149
vt 0.419289 0.626889
vt 0.419243 0.573645
vt 0.419366 0.493121
vt 0.419784 0.350370
vt 0.535434 0.639737
vt 0.535154 0.719266
vt 0.535218 0.503219
vt 0.534886 0.353416
vt 0.000000 0.000000
vt 0.000000 0.000000
vt 0.519684 0.286194
vt 0.519684 0.490257
vt 0.553489 0.490257
vt 0.553489 0.286194
vt 0.450048 0.527786
vt 0.450048 0.227171
vt 0.505196 0.286194
vt 0.505196 0.490257
vt 0.392758 0.658627
vt 0.392758 0.608656
vt 0.000000 0.000000
vt 0.000000 0.000000
vt 0.391476 0.626688
vt 0.391818 0.573526
vt 0.562107 0.503168
vt 0.562259 0.639646
vt 0.392111 0.492985
vt 0.561874 0.353353
vt 0.392778 0.350261
vt 0.391544 0.720022
vt 0.562478 0.719300
vt 0.366770 0.573335
vt 0.361111 0.492742
vt 0.000000 0.000000
vt 0.000000 0.000000
vt 0.357577 0.350055
vt 0.371487 0.720483
vt 0.369572 0.626671
vt 0.000000 0.000000
vt 0.596794 0.353293
vt 0.591779 0.503166
vt 0.582141 0.639777
vt 0.582416 0.718853
vt 0.000000 0.000000
vt 0.498284 0.745044
vt 0.482905 0.613415
vt 0.500525 0.744331
vt 0.000000 0.000000
vt 0.000000 0.000000
vt 0.000000 0.000000
vt 0.000000 0.000000
vt 0.000000 0.000000
vt 0.000000 0.000000
vt 0.000000 0.000000
vt 0.000000 0.000000
vt 0.462732 0.584643
vt 0.452413 0.514173
vt 0.452111 0.460256
vt 0.480214 0.471779
vt 0.454726 0.429723
vt 0.460652 0.383783
vt 0.488452 0.392936
vt 0.473718 0.302698
vt 0.500525 0.306499
vt 0.553628 0.492161
vt 0.553628 0.490306
vt 0.569094 0.818607
vt 0.537803 0.818607
vt 0.537803 0.922911
vt 0.569094 0.922911
vt 0.341316 0.818607
vt 0.341316 0.922911
vt 0.381947 0.922911
vt 0.381947 0.818607
vt 0.429134 0.985493
vt 0.521905 0.985494
vt 0.483250 0.972977
vt 0.467789 0.972977
vt 0.609725 0.401390
vt 0.609725 0.297086
vt 0.569095 0.297086
vt 0.569094 0.401390
vt 0.413238 0.922911
vt 0.413238 0.818607
vt 0.483250 0.941686
vt 0.467789 0.941686
vt 0.518224 0.818607
vt 0.518224 0.922911
vt 0.413238 0.401390
vt 0.432817 0.401390
vt 0.432817 0.297086
vt 0.413238 0.297086
vt 0.502578 0.818607
vt 0.502578 0.922911
vt 0.448463 0.401390
vt 0.448463 0.297086
vt 0.502580 0.401390
vt 0.502580 0.297086
vt 0.502578 0.938557
vt 0.448461 0.922911
vt 0.448461 0.938557
vt 0.448461 0.818607
vt 0.502579 0.714303
vt 0.448462 0.714303
vt 0.502579 0.609999
vt 0.448462 0.609998
vt 0.502579 0.505694
vt 0.448462 0.505694
vt 0.432816 0.922911
vt 0.432816 0.818607
vt 0.432817 0.714303
vt 0.432817 0.609998
vt 0.432817 0.505694
vt 0.518225 0.297086
vt 0.518225 0.401390
vt 0.518224 0.505694
vt 0.518224 0.609999
vt 0.518224 0.714303
vt 0.413238 0.714303
vt 0.413238 0.609998
vt 0.413238 0.505694
vt 0.537804 0.297086
vt 0.537803 0.401390
vt 0.537803 0.505694
vt 0.537803 0.609999
vt 0.537803 0.714303
vt 0.381947 0.297086
vt 0.381947 0.401390
vt 0.381947 0.505694
vt 0.381947 0.609998
vt 0.381947 0.714303
vt 0.609725 0.922911
vt 0.609725 0.818607
vt 0.609725 0.714303
vt 0.569094 0.714303
vt 0.609725 0.609999
vt 0.569094 0.609999
vt 0.609725 0.505694
vt 0.569094 0.505694
vt 0.341316 0.297086
vt 0.341316 0.401390
vt 0.341316 0.505694
vt 0.341316 0.609998
vt 0.341316 0.714302
vt 0.518225 0.475893
vt 0.502579 0.475893
vt 0.502579 0.565297
vt 0.518224 0.565297
vt 0.518225 0.297086
vt 0.502580 0.297086
vt 0.502580 0.386490
vt 0.518225 0.386490
vt 0.502579 0.654700
vt 0.518224 0.654700
vt 0.569094 0.833508
vt 0.537803 0.833508
vt 0.537803 0.922911
vt 0.569094 0.922911
vt 0.341316 0.833507
vt 0.341316 0.922911
vt 0.381947 0.922911
vt 0.381947 0.833507
vt 0.429134 0.985493
vt 0.521905 0.985494
vt 0.483250 0.972977
vt 0.467789 0.972977
vt 0.609725 0.386490
vt 0.609725 0.297086
vt 0.569095 0.297086
vt 0.569094 0.386490
vt 0.467791 0.247020
vt 0.483253 0.247020
vt 0.521907 0.234503
vt 0.429136 0.234503
vt 0.483252 0.278311
vt 0.467790 0.278311
vt 0.413238 0.922911
vt 0.413238 0.833507
vt 0.483250 0.941686
vt 0.467789 0.941686
vt 0.518224 0.833507
vt 0.518224 0.922911
vt 0.413238 0.386490
vt 0.432817 0.386490
vt 0.432817 0.297086
vt 0.413238 0.297086
vt 0.502578 0.833507
vt 0.502578 0.922911
vt 0.448463 0.386490
vt 0.448463 0.297086
vt 0.448463 0.281440
vt 0.502580 0.281440
vt 0.502578 0.938557
vt 0.448461 0.922911
vt 0.448461 0.938557
vt 0.432817 0.565297
vt 0.448462 0.565297
vt 0.448462 0.475893
vt 0.432817 0.475893
vt 0.432816 0.744104
vt 0.448462 0.744104
vt 0.448462 0.654700
vt 0.432817 0.654700
vt 0.432816 0.922911
vt 0.448461 0.833507
vt 0.432816 0.833507
vt 0.537803 0.475893
vt 0.537803 0.565297
vt 0.381947 0.297086
vt 0.381947 0.386490
vt 0.537803 0.654700
vt 0.518224 0.744104
vt 0.537803 0.744104
vt 0.569095 0.297086
vt 0.537804 0.297086
vt 0.537803 0.922911
vt 0.569094 0.922911
vt 0.341316 0.297086
vt 0.341316 0.922911
vt 0.381947 0.922911
vt 0.381947 0.297086
vt 0.429134 0.985493
vt 0.521905 0.985494
vt 0.483250 0.972977
vt 0.467789 0.972977
vt 0.609725 0.922911
vt 0.609725 0.297086
vt 0.467791 0.247020
vt 0.483253 0.247020
vt 0.521907 0.234503
vt 0.429136 0.234503
vt 0.483252 0.278311
vt 0.467790 0.278311
vt 0.413238 0.922911
vt 0.413238 0.297086
vt 0.483250 0.941686
vt 0.467789 0.941686
vt 0.518225 0.297086
vt 0.518224 0.922911
vt 0.432816 0.922911
vt 0.432817 0.297086
vt 0.502580 0.297086
vt 0.502578 0.922911
vt 0.448461 0.922911
vt 0.448463 0.297086
vt 0.448463 0.281440
vt 0.502580 0.281440
vt 0.502578 0.938557
vt 0.448461 0.938557
vt 0.502578 0.744104
vt 0.413238 0.475893
vt 0.537804 0.297086
vt 0.537803 0.386490
vt 0.413238 0.565297
vt 0.413238 0.654700
vt 0.413238 0.744104
vt 0.569094 0.744104
vt 0.569094 0.475893
vt 0.569094 0.654700
vt 0.341316 0.744104
vt 0.381947 0.744104
vt 0.341316 0.654700
vt 0.381947 0.654700
vt 0.569094 0.565297
vt 0.609725 0.744104
vt 0.609725 0.654700
vt 0.341316 0.565297
vt 0.381947 0.565297
vt 0.341316 0.386489
vt 0.341316 0.475893
vt 0.381947 0.475893
vt 0.341316 0.297086
vt 0.609725 0.565297
vt 0.609725 0.475893
vt 0.609725 0.833508
vt 0.609725 0.922911
vt 0.958794 0.962518
vt 0.958793 0.034812
vt 0.883694 0.034812
vt 0.883696 0.962519
vt 0.990085 0.962519
vt 0.990085 0.034812
vt 0.958793 0.003520
vt 0.883694 0.003521
vt 0.852403 0.034812
vt 0.852404 0.962519
vt 0.883696 0.993810
vt 0.958794 0.993809
vt 0.958794 0.962518
vt 0.958793 0.034812
vt 0.883694 0.034812
vt 0.883696 0.962519
vt 0.990085 0.962519
vt 0.990085 0.034812
vt 0.958793 0.003520
vt 0.883694 0.003521
vt 0.852403 0.034812
vt 0.852404 0.962519
vt 0.883696 0.993810
vt 0.958794 0.993809
vt 0.958794 0.962518
vt 0.958793 0.034812
vt 0.883694 0.034812
vt 0.883696 0.962519
vt 0.990085 0.962519
vt 0.990085 0.034812
vt 0.958793 0.003520
vt 0.883694 0.003521
vt 0.852403 0.034812
vt 0.852404 0.962519
vt 0.883696 0.993810
vt 0.958794 0.993809
vt 0.958794 0.962518
vt 0.958793 0.034812
vt 0.883694 0.034812
vt 0.883696 0.962519
vt 0.990085 0.962519
vt 0.990085 0.034812
vt 0.958793 0.003520
vt 0.883694 0.003521
vt 0.852403 0.034812
vt 0.852404 0.962519
vt 0.883696 0.993810
vt 0.958794 0.993809
vt 0.958794 0.962518
vt 0.958793 0.034812
vt 0.883694 0.034812
vt 0.883696 0.962519
vt 0.990085 0.962519
vt 0.990085 0.034812
vt 0.958793 0.003520
vt 0.883694 0.003521
vt 0.852403 0.034812
vt 0.852404 0.962519
vt 0.883696 0.993810
vt 0.958794 0.993809
vt 0.958794 0.962518
vt 0.958793 0.034812
vt 0.883694 0.034812
vt 0.883696 0.962519
vt 0.990085 0.962519
vt 0.990085 0.034812
vt 0.958793 0.003520
vt 0.883694 0.003521
vt 0.852403 0.034812
vt 0.852404 0.962519
vt 0.883696 0.993810
vt 0.958794 0.993809
vt 0.958794 0.962518
vt 0.958793 0.034812
vt 0.883694 0.034812
vt 0.883696 0.962519
vt 0.990085 0.962519
vt 0.990085 0.034812
vt 0.958793 0.003520
vt 0.883694 0.003521
vt 0.852403 0.034812
vt 0.852404 0.962519
vt 0.883696 0.993810
vt 0.958794 0.993809
vn 0.0011 1.0000 -0.0004
vn 0.3659 0.0000 0.9306
vn -0.5120 0.0000 -0.8590
vn 0.3887 0.0000 0.9214
vn -0.4627 0.0000 -0.8865
vn 0.3431 0.0000 0.9393
vn -0.4389 0.0000 -0.8985
vn 0.2939 0.0000 0.9558
vn -0.3838 0.0000 -0.9234
vn 0.2161 0.0000 0.9764
vn -0.3016 0.0000 -0.9534
vn 0.1444 0.0000 0.9895
vn -0.1337 0.0000 -0.9910
vn 0.0942 0.0000 0.9956
vn -0.0570 0.0000 -0.9984
vn -0.9698 0.0000 -0.2439
vn 0.0014 1.0000 -0.0004
vn 0.0014 1.0000 -0.0005
vn 0.0013 1.0000 -0.0005
vn 0.0013 1.0000 -0.0003
vn 0.0012 1.0000 -0.0003
vn -0.0623 -0.9873 -0.1463
vn -0.0491 -0.9874 -0.1502
vn -0.0224 -0.9877 -0.1547
vn -0.0103 -0.9876 -0.1564
vn 0.0327 -0.9874 0.1548
vn 0.0213 -0.9874 0.1565
vn 0.0136 -0.9874 0.1577
vn -0.1349 0.0004 -0.9909
vn 0.1436 -0.0004 0.9896
vn -0.0584 0.0003 -0.9983
vn -0.3841 0.0006 -0.9233
vn 0.0931 -0.0003 0.9957
vn -0.3021 0.0005 -0.9533
vn 0.2154 -0.0005 0.9765
vn -0.1762 0.8717 -0.4572
vn -0.2056 0.8324 -0.5146
vn 0.0012 1.0000 -0.0005
vn 0.0223 0.9442 0.3287
vn 0.0009 1.0000 -0.0001
vn 0.0376 0.9021 0.4298
vn 0.1176 0.8422 0.5262
vn 0.0009 1.0000 -0.0006
vn -0.0209 0.9486 -0.3158
vn 0.9417 -0.0000 -0.3365
vn 0.0000 1.0000 -0.0008
vn -0.0694 0.9283 -0.3652
vn 0.0004 1.0000 0.0001
vn 0.9839 -0.0001 -0.1790
vn 0.0000 1.0000 0.0000
vn -0.4136 0.0000 -0.9104
vn -0.5943 0.0000 -0.8043
vn 0.5105 0.0000 0.8599
vn 0.5941 0.0004 0.8044
vn -0.6374 0.0000 -0.7706
vn 0.5964 0.0000 0.8027
vn -0.6807 0.0000 -0.7326
vn 0.6669 0.0000 0.7452
vn -0.7057 0.0000 -0.7086
vn 0.6982 0.0000 0.7159
vn -0.9439 0.0000 0.3304
vn 0.7204 0.0000 0.6936
vn 0.7071 0.0000 -0.7071
vn 0.0953 -0.9871 0.1283
vn 0.1066 -0.9871 0.1191
vn 0.1116 -0.9871 0.1144
vn 0.1151 -0.9871 0.1109
vn -0.1019 -0.9871 -0.1232
vn -0.1088 -0.9871 -0.1171
vn -0.1128 -0.9871 -0.1133
vn -0.4963 0.0000 -0.8681
vn 0.4136 0.0000 0.9104
vn 0.4589 0.0000 0.8885
vn -0.5341 0.0000 -0.8454
vn 0.5341 0.0000 0.8454
vn -0.5093 -0.0015 -0.8606
vn 0.2606 0.9209 0.2900
vn 0.7086 0.0000 -0.7057
vn 0.2328 0.9446 0.2315
vn 0.3061 0.8541 0.4205
vn -0.2394 0.9429 -0.2317
vn -0.3103 0.8993 -0.3080
vn -0.3468 0.8390 -0.4192
vn 0.6936 0.0000 -0.7204
vn 0.2992 0.8843 0.3586
vn 0.7864 -0.0012 -0.6178
vn 0.8260 0.0065 -0.5637
vn -0.4589 0.0000 -0.8885
vn -0.9438 0.0000 0.3304
vn 0.4087 0.0071 0.9126
vn -0.1321 0.9512 -0.2789
vn -0.8949 -0.0000 0.4462
vn 0.0105 0.9519 0.3062
vn -0.4288 0.0000 -0.9034
vn 0.0673 -0.9866 0.1487
vn -0.0045 -0.9872 -0.1592
vn 0.4162 0.0000 0.9093
vn -0.0284 0.0009 -0.9996
vn -0.0001 1.0000 0.0001
vn 0.0001 1.0000 -0.0000
vn 0.0009 1.0000 -0.0004
vn 0.0007 1.0000 -0.0002
vn -0.0007 1.0000 0.0002
vn -0.0009 1.0000 0.0002
vn -0.4170 0.0012 -0.9089
vn -0.4369 0.0628 -0.8973
vn -0.4191 0.0973 -0.9027
vn -0.3908 0.0248 -0.9201
vn -0.2329 -0.0054 -0.9725
vn 0.0341 0.0015 0.9994
vn 0.2410 0.0047 0.9705
vn 0.3914 0.0031 0.9202
vn 0.4236 0.0000 0.9058
vn 0.4377 0.0000 0.8991
vn -0.0705 -0.9860 -0.1508
vn -0.0773 -0.9850 -0.1543
vn -0.0711 -0.9857 -0.1529
vn -0.0630 -0.9863 -0.1522
vn -0.0367 -0.9871 -0.1561
vn 0.0054 -0.9873 0.1589
vn 0.0393 -0.9871 0.1549
vn 0.0652 -0.9863 0.1513
vn 0.0706 -0.9858 0.1523
vn 0.0724 -0.9858 0.1514
vn -0.0294 0.0006 -0.9996
vn -0.2344 0.0020 -0.9721
vn -0.3861 0.0013 -0.9225
vn -0.4167 0.0000 -0.9091
vn -0.4419 0.0000 -0.8971
vn 0.1262 0.9510 0.2821
vn 0.1364 0.9497 0.2819
vn 0.1360 0.9487 0.2855
vn 0.1232 0.9499 0.2871
vn 0.0734 0.9518 0.2978
vn -0.0086 0.9518 -0.3065
vn -0.0719 0.9518 -0.2982
vn -0.1215 0.9501 -0.2872
vn -0.1306 0.9491 -0.2865
vn -0.1363 0.9500 -0.2811
vn 0.0327 0.0001 0.9995
vn 0.2396 0.0006 0.9709
vn 0.3952 0.0113 0.9185
vn 0.4262 0.0351 0.9040
vn 0.4328 0.0301 0.9010
vn -0.4938 -0.0097 -0.8695
vn -0.4842 -0.0001 -0.8750
vn -0.6078 -0.0215 -0.7938
vn -0.4809 -0.0018 -0.8768
vn -0.7047 -0.0001 -0.7095
vn 0.2171 0.9514 0.2185
vn -0.1485 0.9518 -0.2683
vn -0.8865 0.0005 0.4626
vn -0.8863 -0.0003 0.4631
vn 0.7060 -0.0059 0.7082
vn -0.1139 -0.9869 -0.1143
vn 0.0770 -0.9872 0.1395
vn -0.7061 -0.0078 -0.7081
vn 0.4826 -0.0024 0.8758
vn -0.8866 0.0004 0.4625
vn 0.4980 0.0000 0.8672
vn 0.6543 -0.0027 0.7562
vn 0.4837 -0.0014 0.8752
vn 0.6057 -0.0001 0.7957
vn 0.7049 -0.0003 0.7093
vn 0.7075 -0.0029 0.7067
vn -0.0796 -0.9870 -0.1399
vn 0.4832 0.0000 0.8755
vn -0.1069 -0.9866 -0.1229
vn -0.0986 -0.9867 -0.1289
vn -0.1152 -0.9866 -0.1155
vn -0.4462 0.0000 -0.8949
vn 0.1375 0.9514 0.2757
vn 0.8949 -0.0000 -0.4462
vn -0.1375 0.9514 -0.2757
vn 0.4462 0.0000 0.8949
vn -0.0713 -0.9871 -0.1430
vn 0.0713 -0.9871 0.1430
vn 0.0770 -0.9872 0.1397
vn -0.0771 -0.9872 -0.1394
vn 0.0799 -0.9870 0.1397
vn 0.0982 -0.9867 0.1291
vn -0.0768 -0.9872 -0.1399
vn 0.1139 -0.9869 0.1143
vn 0.1154 -0.9866 0.1153
vn -0.7060 -0.0190 -0.7080
vn -0.6558 -0.0248 -0.7545
vn 0.1066 -0.9866 0.1232
vn -0.7063 -0.0015 -0.7079
vn -0.4820 -0.0007 -0.8762
vn -0.6560 -0.0014 -0.7547
vn -0.4837 -0.0012 -0.8753
vn 0.2174 0.9517 0.2170
vn 0.2004 0.9519 0.2318
vn -0.6077 -0.0000 -0.7942
vn -0.4961 0.0000 -0.8683
vn -0.2012 0.9519 -0.2310
vn 0.1863 0.9515 0.2447
vn 0.1485 0.9518 0.2685
vn 0.1480 0.9518 0.2687
vn 0.1533 0.9514 0.2670
vn -0.1524 0.9514 -0.2676
vn -0.1476 0.9518 -0.2690
vn -0.1873 0.9515 -0.2440
vn 0.6547 -0.0144 0.7558
vn -0.2166 0.9517 -0.2174
vn 0.6059 -0.0107 0.7955
vn 0.4957 -0.0049 0.8685
vn 0.4827 -0.0009 0.8758
vn -0.2169 0.9514 -0.2185
vn 0.7073 -0.0134 0.7068
vn -0.0055 1.0000 -0.0015
vn -0.8230 -0.0037 0.5680
vn 0.5679 0.0044 0.8231
vn 0.8230 0.0037 -0.5680
vn -0.5679 -0.0044 -0.8231
vn -0.7071 -0.0000 -0.7071
vn -0.7071 0.0000 0.7071
vn 0.7071 0.0000 0.7071
usemtl Rails.003
s off
f 12/1/1 3/2/1 11/3/1
f 9/4/2 19/5/2 20/6/2 10/7/2
f 2/8/3 34/9/3 33/10/3 1/11/3
f 10/7/4 20/6/4 21/12/4 11/13/4
f 3/14/5 17/15/5 34/9/5 2/8/5
f 11/13/6 21/12/6 22/16/6 12/17/6
f 4/18/7 35/19/7 17/15/7 3/14/7
f 12/17/8 22/16/8 39/20/8 13/21/8
f 5/22/9 18/23/9 35/24/9 4/25/9
f 13/26/10 39/27/10 40/28/10 14/29/10
f 6/30/11 36/31/11 18/23/11 5/22/11
f 14/29/12 40/28/12 41/32/12 15/33/12
f 7/34/13 37/35/13 36/31/13 6/30/13
f 15/33/14 41/32/14 23/36/14 16/37/14
f 8/38/15 38/39/15 37/35/15 7/34/15
f 1/40/16 33/41/16 19/5/16 9/42/16
f 7/43/17 14/44/17 15/45/17
f 5/46/18 13/47/18 14/44/18
f 4/48/19 12/1/19 13/47/19
f 8/49/20 15/45/20 16/50/20
f 7/43/21 15/45/21 8/49/21
f 6/51/18 14/44/18 7/43/18
f 5/46/18 14/44/18 6/51/18
f 24/52/22 35/24/22 18/23/22 25/53/22
f 25/53/23 18/23/23 36/31/23 26/54/23
f 26/54/24 36/31/24 37/35/24 27/55/24
f 27/55/25 37/35/25 38/39/25 28/56/25
f 33/41/16 62/57/16 65/58/16 19/5/16
f 30/59/26 40/28/26 39/27/26 29/60/26
f 31/61/27 41/32/27 40/28/27 30/59/27
f 32/62/28 23/36/28 41/32/28 31/61/28
f 27/55/29 45/63/29 44/64/29 26/54/29
f 30/59/30 48/65/30 53/66/30 31/61/30
f 28/56/31 46/67/31 45/63/31 27/55/31
f 25/53/32 43/68/32 42/69/32 24/52/32
f 31/61/33 53/66/33 49/70/33 32/62/33
f 26/54/34 44/64/34 43/68/34 25/53/34
f 29/60/35 47/71/35 48/65/35 30/59/35
f 44/64/36 61/72/36 60/73/36 43/68/36
f 4/48/19 13/47/19 5/46/19
f 43/68/37 60/73/37 59/74/37 42/69/37
f 3/2/38 12/1/38 4/48/38
f 53/66/39 52/75/39 51/76/39 49/70/39
f 10/77/40 11/3/40 2/78/40
f 48/65/41 55/79/41 52/75/41 53/66/41
f 47/71/42 56/80/42 55/79/42 48/65/42
f 2/78/43 11/3/43 3/2/43
f 46/67/44 57/81/44 58/82/44 45/63/44
f 35/83/45 24/84/45 42/85/45 59/86/45
f 1/87/46 10/77/46 2/78/46
f 45/63/47 58/82/47 61/72/47 44/64/47
f 10/77/48 1/87/48 9/88/48
f 17/15/5 64/89/5 63/90/5 34/9/5
f 20/6/4 66/91/4 67/92/4 21/12/4
f 35/19/7 59/93/7 64/89/7 17/15/7
f 21/12/6 67/92/6 68/94/6 22/16/6
f 22/16/8 68/94/8 56/95/8 39/20/8
f 34/9/3 63/90/3 62/96/3 33/10/3
f 19/5/2 65/97/2 66/91/2 20/6/2
f 39/98/49 56/99/49 47/100/49 29/101/49
f 71/102/50 80/103/50 79/104/50
f 111/105/51 110/106/51 97/107/51 98/108/51
f 105/109/52 104/110/52 79/111/52 80/112/52
f 84/113/53 85/114/53 72/115/53 71/116/53
f 113/117/54 109/118/54 105/109/54 104/110/54
f 80/119/55 81/120/55 106/121/55 105/122/55
f 73/123/56 72/124/56 85/125/56 99/126/56
f 81/120/57 82/127/57 87/128/57 106/121/57
f 74/129/58 73/123/58 99/126/58 100/130/58
f 82/127/59 83/131/59 107/132/59 87/128/59
f 75/133/60 74/129/60 100/130/60 101/134/60
f 69/135/61 77/136/61 103/137/61 97/138/61
f 76/139/62 75/133/62 101/134/62 102/140/62
f 83/141/63 76/142/63 102/143/63 107/144/63
f 88/145/64 89/146/64 99/126/64 85/125/64
f 89/146/65 90/147/65 100/130/65 99/126/65
f 90/147/66 91/148/66 101/134/66 100/130/66
f 91/148/67 92/149/67 102/140/67 101/134/67
f 94/150/68 93/151/68 105/122/68 106/121/68
f 95/152/69 94/150/69 106/121/69 87/128/69
f 96/153/70 95/152/70 87/128/70 107/132/70
f 92/154/63 96/155/63 107/144/63 102/143/63
f 103/156/71 86/157/71 108/158/71 112/159/71
f 97/107/72 98/108/72 70/160/72 69/161/72
f 86/157/71 103/156/71 77/162/71 78/163/71
f 98/108/73 84/113/73 71/116/73 70/160/73
f 104/110/74 86/157/74 78/163/74 79/111/74
f 108/158/75 113/117/75 104/110/75 86/157/75
f 84/113/76 85/114/76 132/164/76 114/165/76
f 96/155/63 92/154/63 119/166/63 123/167/63
f 90/147/58 89/146/58 116/168/58 117/169/58
f 94/150/57 95/152/57 122/170/57 121/171/57
f 91/148/60 90/147/60 117/169/60 118/172/60
f 95/152/59 96/153/59 123/173/59 122/170/59
f 92/149/62 91/148/62 118/172/62 119/174/62
f 89/146/56 88/145/56 115/175/56 116/168/56
f 93/151/55 94/150/55 121/171/55 120/176/55
f 118/172/77 117/169/77 131/177/77 129/178/77
f 123/167/78 125/179/78 126/180/78
f 119/174/79 118/172/79 129/178/79 130/181/79
f 116/168/80 115/175/80 132/182/80 133/183/80
f 123/167/63 119/166/63 124/184/63 125/179/63
f 122/170/81 123/173/81 126/185/81 127/186/81
f 121/171/82 122/170/82 127/186/82 128/187/82
f 120/176/83 121/171/83 128/187/83 109/188/83
f 124/184/84 119/166/84 130/189/84
f 69/190/50 78/191/50 77/192/50
f 117/169/85 116/168/85 133/183/85 131/177/85
f 109/193/86 105/194/86 93/195/86 120/196/86
f 115/197/87 88/198/87 85/199/87 132/200/87
f 69/190/50 70/201/50 78/191/50
f 70/201/50 71/102/50 79/104/50
f 78/191/50 70/201/50 79/104/50
f 71/102/50 72/202/50 80/103/50
f 72/202/50 73/203/50 81/204/50
f 73/203/50 74/205/50 81/204/50
f 74/205/50 75/206/50 82/207/50
f 75/206/50 76/208/50 83/209/50
f 75/206/50 83/209/50 82/207/50
f 72/202/50 81/204/50 80/103/50
f 74/205/50 82/207/50 81/204/50
f 84/113/88 114/165/88 111/105/88 98/108/88
f 97/138/89 103/137/89 112/210/89 110/211/89
f 225/212/90 235/213/90 200/214/90 196/215/90
f 214/216/91 191/217/91 195/218/91 224/219/91
f 191/220/92 192/221/92 196/222/92 195/223/92
f 219/224/93 193/225/93 197/226/93 229/227/93
f 224/219/94 195/218/94 199/228/94 234/229/94
f 196/222/92 200/230/92 199/231/92 195/223/92
f 235/213/95 240/232/95 202/233/95 200/214/95
f 230/234/96 245/235/96 204/236/96 198/237/96
f 240/232/97 250/238/97 206/239/97 202/233/97
f 245/235/98 255/240/98 208/241/98 204/236/98
f 254/242/99 207/243/99 208/241/99 255/240/99
f 199/231/92 200/230/92 202/244/92 206/239/92 209/245/92 205/246/92
f 206/239/100 250/238/100 259/247/100 209/245/100
f 250/238/101 251/248/101 258/249/101 259/247/101
f 251/248/102 252/250/102 257/251/102 258/249/102
f 252/250/103 253/252/103 256/253/103 257/251/103
f 253/252/104 254/242/104 255/240/104 256/253/104
f 205/254/105 209/245/105 259/247/105 249/255/105
f 249/255/106 259/247/106 258/249/106 248/256/106
f 248/256/107 258/249/107 257/251/107 247/257/107
f 247/257/108 257/251/108 256/253/108 246/258/108
f 246/258/109 256/253/109 255/240/109 245/235/109
f 203/259/110 207/243/110 254/242/110 244/260/110
f 244/260/111 254/242/111 253/252/111 243/261/111
f 243/261/112 253/252/112 252/250/112 242/262/112
f 242/262/113 252/250/113 251/248/113 241/263/113
f 241/263/114 251/248/114 250/238/114 240/232/114
f 199/228/115 205/254/115 249/255/115 234/229/115
f 234/229/116 249/255/116 248/256/116 233/264/116
f 233/264/117 248/256/117 247/257/117 232/265/117
f 232/265/118 247/257/118 246/258/118 231/266/118
f 231/266/119 246/258/119 245/235/119 230/234/119
f 201/267/120 203/259/120 244/260/120 239/268/120
f 239/268/121 244/260/121 243/261/121 238/269/121
f 238/269/122 243/261/122 242/262/122 237/270/122
f 237/270/123 242/262/123 241/263/123 236/271/123
f 236/271/124 241/263/124 240/232/124 235/213/124
f 194/272/125 220/273/125 230/234/125 198/237/125
f 220/273/126 221/274/126 231/266/126 230/234/126
f 221/274/127 222/275/127 232/265/127 231/266/127
f 222/275/128 223/276/128 233/264/128 232/265/128
f 223/276/129 224/219/129 234/229/129 233/264/129
f 192/277/130 215/278/130 225/212/130 196/215/130
f 215/278/131 216/279/131 226/280/131 225/212/131
f 216/279/132 217/281/132 227/282/132 226/280/132
f 217/281/133 218/283/133 228/284/133 227/282/133
f 218/283/134 219/224/134 229/227/134 228/284/134
f 190/285/135 210/286/135 220/273/135 194/272/135
f 210/286/136 211/287/136 221/274/136 220/273/136
f 211/287/137 212/288/137 222/275/137 221/274/137
f 212/288/138 213/289/138 223/276/138 222/275/138
f 213/289/139 214/216/139 224/219/139 223/276/139
f 197/226/140 201/267/140 239/268/140 229/227/140
f 229/227/141 239/268/141 238/269/141 228/284/141
f 228/284/142 238/269/142 237/270/142 227/282/142
f 227/282/143 237/270/143 236/271/143 226/280/143
f 226/280/144 236/271/144 235/213/144 225/212/144
f 348/290/145 308/291/145 309/292/145 349/293/145
f 281/294/146 285/295/146 307/296/146 347/297/146
f 349/293/147 309/292/147 310/298/147 350/299/147
f 347/297/148 307/296/148 308/291/148 348/290/148
f 294/300/149 261/301/149 278/302/149 274/303/149
f 335/304/150 269/305/150 273/306/150 295/307/150
f 269/308/63 270/309/63 274/310/63 273/311/63
f 301/312/151 271/313/151 275/314/151 289/315/151
f 272/316/152 275/317/152 271/318/152 268/319/152
f 279/320/153 275/317/153 272/316/153 276/321/153
f 295/307/154 273/306/154 277/322/154 262/323/154
f 274/310/63 278/324/63 277/325/63 273/311/63
f 261/301/155 352/326/155 280/327/155 278/302/155
f 267/328/156 346/329/156 282/330/156 276/331/156
f 352/326/157 312/332/157 284/333/157 280/327/157
f 346/329/158 306/334/158 286/335/158 282/330/158
f 307/296/50 285/295/50 286/335/50 306/334/50
f 276/321/159 282/336/159 286/335/159 285/295/159 281/337/159 279/320/159
f 277/325/63 278/324/63 280/338/63 284/333/63 287/339/63 283/340/63
f 344/341/160 360/342/160 305/343/160 345/344/160
f 342/345/161 358/346/161 359/347/161 343/348/161
f 345/344/162 305/343/162 306/334/162 346/329/162
f 343/348/163 359/347/163 360/342/163 344/341/163
f 283/349/164 287/339/164 357/350/164 341/351/164
f 309/292/50 308/291/50 305/343/50 360/342/50
f 341/351/165 357/350/165 358/346/165 342/345/165
f 308/291/50 307/296/50 306/334/50 305/343/50
f 354/352/166 348/290/166 349/293/166 355/353/166
f 272/354/167 300/355/167 267/328/167 276/331/167
f 356/356/168 350/299/168 351/357/168 260/358/168
f 355/353/169 349/293/169 350/299/169 356/356/169
f 260/358/170 351/357/170 352/326/170 261/301/170
f 320/359/171 324/360/171 323/361/171 319/362/171
f 313/363/172 314/364/172 318/365/172 317/366/172
f 314/367/173 315/368/173 319/369/173 318/370/173
f 315/371/174 316/372/174 320/359/174 319/362/174
f 317/373/92 320/374/92 316/375/92 313/376/92
f 324/377/92 320/374/92 317/373/92 321/378/92
f 317/366/175 318/365/175 322/379/175 321/380/175
f 319/369/173 323/381/173 322/382/173 318/370/173
f 324/360/176 326/383/176 325/384/176 323/361/176
f 322/379/177 328/385/177 327/386/177 321/380/177
f 326/383/171 330/387/171 329/388/171 325/384/171
f 328/385/175 332/389/175 331/390/175 327/386/175
f 329/388/50 330/387/50 331/390/50 332/389/50
f 321/378/92 327/391/92 331/390/92 330/387/92 326/392/92 324/377/92
f 322/382/173 323/381/173 325/393/173 329/388/173 332/389/173 328/394/173
f 311/395/50 310/298/50 359/347/50 358/346/50
f 284/333/50 312/332/50 357/350/50 287/339/50
f 310/298/50 309/292/50 360/342/50 359/347/50
f 312/332/50 311/395/50 358/346/50 357/350/50
f 266/396/178 345/344/178 346/329/178 267/328/178
f 279/397/179 281/294/179 347/297/179 353/398/179
f 265/399/180 344/341/180 345/344/180 266/396/180
f 264/400/181 343/348/181 344/341/181 265/399/181
f 353/398/182 347/297/182 348/290/182 354/352/182
f 277/322/183 283/349/183 341/351/183 262/323/183
f 262/323/184 341/351/184 342/345/184 263/401/184
f 351/357/185 311/395/185 312/332/185 352/326/185
f 350/299/186 310/298/186 311/395/186 351/357/186
f 263/401/187 342/345/187 343/348/187 264/400/187
f 293/402/188 260/358/188 261/301/188 294/300/188
f 289/315/189 353/398/189 354/352/189 290/403/189
f 292/404/190 356/356/190 260/358/190 293/402/190
f 275/314/191 279/397/191 353/398/191 289/315/191
f 336/405/192 335/304/192 295/307/192 296/406/192
f 337/407/193 336/405/193 296/406/193 297/408/193
f 291/409/194 355/353/194 356/356/194 292/404/194
f 290/403/195 354/352/195 355/353/195 291/409/195
f 333/410/196 304/411/196 292/404/196 293/402/196
f 338/412/197 337/407/197 297/408/197 298/413/197
f 340/414/198 339/415/198 299/416/198 300/355/198
f 268/417/199 340/414/199 300/355/199 272/354/199
f 339/415/200 338/412/200 298/413/200 299/416/200
f 303/418/201 302/419/201 290/403/201 291/409/201
f 302/419/202 301/312/202 289/315/202 290/403/202
f 304/411/203 303/418/203 291/409/203 292/404/203
f 297/408/204 296/406/204 263/401/204 264/400/204
f 334/420/205 333/410/205 293/402/205 294/300/205
f 298/413/206 297/408/206 264/400/206 265/399/206
f 299/416/207 298/413/207 265/399/207 266/396/207
f 300/355/208 299/416/208 266/396/208 267/328/208
f 270/421/209 334/420/209 294/300/209 274/303/209
f 296/406/210 295/307/210 262/323/210 263/401/210
usemtl Sleepers.003
f 138/422/50 139/423/50 140/424/50 141/425/50
f 134/426/92 135/427/92 139/423/92 138/422/92
f 135/428/175 136/429/175 140/424/175 139/423/175
f 136/430/173 137/431/173 141/425/173 140/424/173
f 138/422/171 141/425/171 137/432/171 134/433/171
f 146/434/50 147/435/50 148/436/50 149/437/50
f 142/438/92 143/439/92 147/435/92 146/434/92
f 143/440/175 144/441/175 148/436/175 147/435/175
f 144/442/173 145/443/173 149/437/173 148/436/173
f 146/434/171 149/437/171 145/444/171 142/445/171
f 154/446/50 155/447/50 156/448/50 157/449/50
f 150/450/92 151/451/92 155/447/92 154/446/92
f 151/452/175 152/453/175 156/448/175 155/447/175
f 152/454/173 153/455/173 157/449/173 156/448/173
f 154/446/171 157/449/171 153/456/171 150/457/171
f 162/458/50 163/459/50 164/460/50 165/461/50
f 158/462/92 159/463/92 163/459/92 162/458/92
f 159/464/175 160/465/175 164/460/175 163/459/175
f 160/466/173 161/467/173 165/461/173 164/460/173
f 162/458/171 165/461/171 161/468/171 158/469/171
f 170/470/211 171/471/211 172/472/211 173/473/211
f 166/474/212 167/475/212 171/471/212 170/470/212
f 167/476/213 168/477/213 172/472/213 171/471/213
f 168/478/214 169/479/214 173/473/214 172/472/214
f 170/470/215 173/473/215 169/480/215 166/481/215
f 178/482/50 179/483/50 180/484/50 181/485/50
f 174/486/63 175/487/63 179/483/63 178/482/63
f 175/488/216 176/489/216 180/484/216 179/483/216
f 176/490/217 177/491/217 181/485/217 180/484/217
f 178/482/218 181/485/218 177/492/218 174/493/218
f 186/494/50 187/495/50 188/496/50 189/497/50
f 182/498/63 183/499/63 187/495/63 186/494/63
f 183/500/216 184/501/216 188/496/216 187/495/216
f 184/502/217 185/503/217 189/497/217 188/496/217
f 186/494/218 189/497/218 185/504/218 182/505/218
l 38 23
