# Blender v2.93.5 OBJ File: ''
# www.blender.org
mtllib advtrains_signals_ks_zs_bottom_smr0.mtl
o HsVsAnzUnten_Cube.008
v -0.028581 -0.495697 -0.439611
v -0.028581 -0.291434 -0.439611
v -0.028581 -0.291434 -0.496774
v -0.028581 -0.164538 -0.439611
v -0.028581 -0.164538 -0.496774
v 0.028581 -0.495697 -0.496774
v 0.028581 -0.291434 -0.496774
v 0.028581 -0.291434 -0.439611
v 0.028581 -0.164538 -0.496774
v 0.028581 -0.164538 -0.439611
v -0.028581 -0.495697 -0.496774
v 0.028581 -0.495697 -0.439611
v 0.028581 -0.495697 -0.268412
v 0.028581 -0.291434 -0.268412
v -0.028581 -0.291434 -0.268412
v 0.028581 -0.164538 -0.268412
v -0.028581 -0.164538 -0.268412
v -0.028581 -0.495697 -0.325575
v -0.028581 -0.291434 -0.325575
v 0.028581 -0.291434 -0.325575
v -0.028581 -0.495697 -0.268412
v -0.028581 -0.164538 -0.325575
v 0.028581 -0.495697 -0.325575
v 0.028581 -0.164538 -0.325575
v -0.028581 -0.164538 -0.439611
v -0.028581 0.039726 -0.439611
v -0.028581 0.039726 -0.496774
v -0.028581 0.166622 -0.439611
v -0.028581 0.166622 -0.496774
v 0.028581 -0.164538 -0.496774
v 0.028581 0.039726 -0.496774
v 0.028581 0.039726 -0.439611
v 0.028581 0.166622 -0.496774
v 0.028581 0.166622 -0.439611
v -0.028581 -0.164538 -0.496774
v 0.028581 -0.164538 -0.439611
v 0.028581 -0.164538 -0.268412
v 0.028581 0.039726 -0.268412
v -0.028581 0.039726 -0.268412
v 0.028581 0.166622 -0.268412
v -0.028581 0.166622 -0.268412
v -0.028581 -0.164538 -0.325575
v -0.028581 0.039726 -0.325575
v 0.028581 0.039726 -0.325575
v -0.028581 -0.164538 -0.268412
v -0.028581 0.166622 -0.325575
v 0.028581 -0.164538 -0.325575
v 0.028581 0.166622 -0.325575
v -0.028581 0.166622 -0.439611
v -0.028581 0.370885 -0.439611
v -0.028581 0.370885 -0.496774
v -0.028581 0.497782 -0.439611
v -0.028581 0.497782 -0.496774
v 0.028581 0.166622 -0.496774
v 0.028581 0.370885 -0.496774
v 0.028581 0.370885 -0.439611
v 0.028581 0.497782 -0.496774
v 0.028581 0.497782 -0.439611
v -0.028581 0.166622 -0.496774
v 0.028581 0.166622 -0.439611
v 0.028581 0.166622 -0.268412
v 0.028581 0.370885 -0.268412
v -0.028581 0.370885 -0.268412
v 0.028581 0.497782 -0.268412
v -0.028581 0.497782 -0.268412
v -0.028581 0.166622 -0.325575
v -0.028581 0.370885 -0.325575
v 0.028581 0.370885 -0.325575
v -0.028581 0.166622 -0.268412
v -0.028581 0.497782 -0.325575
v 0.028581 0.166622 -0.325575
v 0.028581 0.497782 -0.325575
v 0.000000 0.459446 -0.597615
v 0.000000 0.465184 -0.597615
v 0.000000 0.465184 -0.541156
v 0.107395 0.319382 -0.541156
v 0.107395 0.319382 -0.566450
v 0.114848 0.319382 -0.566450
v 0.000000 0.173581 -0.541156
v 0.000000 0.173581 -0.566450
v 0.000000 0.179319 -0.566450
v -0.114848 0.319382 -0.566450
v -0.107395 0.319382 -0.566450
v -0.107395 0.319382 -0.541156
v 0.000000 0.459446 -0.541156
v 0.114848 0.319382 -0.541156
v 0.000000 0.179319 -0.541156
v -0.114848 0.319382 -0.541156
v 0.138251 0.483868 -0.444371
v 0.138251 0.459446 -0.541156
v 0.138251 0.465184 -0.541156
v 0.000000 0.483868 -0.444371
v 0.000000 0.319382 -0.444371
v 0.138251 0.319382 -0.444371
v 0.138251 0.431511 -0.541156
v 0.138251 0.319382 -0.541156
v 0.114848 0.483868 -0.541156
v 0.107395 0.483868 -0.541156
v 0.107395 0.465184 -0.541156
v 0.107395 0.465184 -0.597615
v 0.114848 0.465184 -0.541156
v 0.114848 0.465184 -0.597615
v 0.138251 0.483868 -0.541156
v 0.114848 0.459446 -0.541156
v 0.114848 0.431511 -0.566450
v 0.107395 0.459446 -0.597615
v 0.114848 0.459446 -0.597615
v 0.107395 0.459446 -0.541156
v 0.107395 0.449042 -0.597615
v 0.114848 0.449042 -0.541156
v 0.114848 0.449042 -0.597615
v 0.107395 0.449042 -0.541156
v 0.107395 0.431511 -0.566450
v 0.000000 0.449042 -0.541156
v 0.138251 0.449042 -0.541156
v 0.107395 0.431511 -0.541156
v 0.114848 0.431511 -0.541156
v 0.000000 0.431511 -0.541156
v -0.138251 0.431511 -0.541156
v -0.138251 0.319382 -0.444371
v -0.138251 0.483868 -0.444371
v -0.138251 0.319382 -0.541156
v -0.107395 0.483868 -0.541156
v -0.107395 0.465184 -0.597615
v -0.107395 0.465184 -0.541156
v -0.114848 0.465184 -0.597615
v -0.114848 0.465184 -0.541156
v -0.114848 0.483868 -0.541156
v -0.138251 0.465184 -0.541156
v -0.138251 0.483868 -0.541156
v -0.114848 0.459446 -0.541156
v -0.138251 0.459446 -0.541156
v -0.114848 0.431511 -0.566450
v -0.107395 0.459446 -0.597615
v -0.114848 0.459446 -0.597615
v -0.107395 0.449042 -0.597615
v -0.107395 0.459446 -0.541156
v -0.114848 0.449042 -0.597615
v -0.114848 0.449042 -0.541156
v -0.107395 0.431511 -0.566450
v -0.107395 0.449042 -0.541156
v -0.138251 0.449042 -0.541156
v -0.107395 0.431511 -0.541156
v -0.114848 0.431511 -0.541156
v 0.138251 0.207254 -0.541156
v 0.138251 0.154897 -0.444371
v 0.000000 0.154897 -0.444371
v 0.107395 0.154897 -0.541156
v 0.107395 0.173581 -0.566450
v 0.107395 0.173581 -0.541156
v 0.114848 0.173581 -0.566450
v 0.114848 0.173581 -0.541156
v 0.114848 0.154897 -0.541156
v 0.138251 0.173581 -0.541156
v 0.138251 0.154897 -0.541156
v 0.114848 0.179319 -0.541156
v 0.138251 0.179319 -0.541156
v 0.114848 0.207254 -0.566450
v 0.107395 0.179319 -0.566450
v 0.114848 0.179319 -0.566450
v 0.107395 0.189722 -0.566450
v 0.107395 0.179319 -0.541156
v 0.114848 0.189722 -0.566450
v 0.114848 0.189722 -0.541156
v 0.107395 0.207254 -0.566450
v 0.107395 0.189722 -0.541156
v 0.000000 0.189722 -0.541156
v 0.138251 0.189722 -0.541156
v 0.107395 0.207254 -0.541156
v 0.114848 0.207254 -0.541156
v 0.000000 0.207254 -0.541156
v -0.138251 0.154897 -0.444371
v -0.138251 0.179319 -0.541156
v -0.138251 0.173581 -0.541156
v -0.138251 0.207254 -0.541156
v -0.114848 0.154897 -0.541156
v -0.107395 0.154897 -0.541156
v -0.107395 0.173581 -0.541156
v -0.107395 0.173581 -0.566450
v -0.114848 0.173581 -0.541156
v -0.114848 0.173581 -0.566450
v -0.138251 0.154897 -0.541156
v -0.114848 0.179319 -0.541156
v -0.114848 0.207254 -0.566450
v -0.107395 0.179319 -0.566450
v -0.114848 0.179319 -0.566450
v -0.107395 0.179319 -0.541156
v -0.107395 0.189722 -0.566450
v -0.114848 0.189722 -0.541156
v -0.114848 0.189722 -0.566450
v -0.107395 0.189722 -0.541156
v -0.107395 0.207254 -0.566450
v -0.138251 0.189722 -0.541156
v -0.107395 0.207254 -0.541156
v -0.114848 0.207254 -0.541156
v 0.000000 0.483868 -0.541156
v 0.000000 0.154897 -0.541156
v 0.000000 0.319382 -0.541156
vt 0.646743 0.371805
vt 0.646743 0.142471
vt 0.705619 0.142471
vt 0.646743 0.000000
vt 0.705619 0.000000
vt 0.470413 0.743610
vt 0.470413 0.514276
vt 0.529289 0.514276
vt 0.470413 0.371805
vt 0.529289 0.371805
vt 0.705619 0.371805
vt 0.764495 0.142471
vt 0.764495 0.000000
vt 0.941124 0.371805
vt 0.941124 0.142471
vt 1.000000 0.142471
vt 0.941124 0.000000
vt 1.000000 0.000000
vt 0.882248 0.743610
vt 0.882248 0.514276
vt 0.941124 0.514276
vt 0.882248 0.371805
vt 0.941124 0.371805
vt 0.117752 0.972944
vt 0.117752 0.743610
vt 0.176628 0.743610
vt 0.470413 0.371805
vt 0.470413 0.142471
vt 0.529289 0.142471
vt 0.470413 0.000000
vt 0.529289 0.000000
vt 0.646743 0.743610
vt 0.646743 0.514276
vt 0.705619 0.514276
vt 0.646743 0.371805
vt 0.705619 0.371805
vt 0.470413 0.743610
vt 0.529289 0.743610
vt 0.529289 0.871642
vt 0.529289 0.871642
vt 0.529289 0.743610
vt 0.588165 0.743610
vt 0.411537 0.743610
vt 0.411537 0.514276
vt 0.470413 0.514276
vt 0.411537 0.371805
vt 0.470413 0.371805
vt 0.235206 0.371805
vt 0.235206 0.142471
vt 0.294083 0.142471
vt 0.235206 0.000000
vt 0.294083 0.000000
vt 0.823372 0.371805
vt 0.823372 0.142471
vt 0.882248 0.142471
vt 0.823372 0.000000
vt 0.882248 0.000000
vt 0.764495 0.743610
vt 0.764495 0.514276
vt 0.823372 0.514276
vt 0.764495 0.371805
vt 0.823372 0.371805
vt 0.764495 0.371805
vt 0.764495 0.142471
vt 0.823372 0.142471
vt 0.764495 0.000000
vt 0.823372 0.000000
vt 0.176628 0.972944
vt 0.176628 0.743610
vt 0.235504 0.743610
vt 0.235206 0.743610
vt 0.235206 0.514276
vt 0.294083 0.514276
vt 0.235206 0.371805
vt 0.294083 0.371805
vt 0.411537 0.371805
vt 0.411537 0.142471
vt 0.470413 0.142471
vt 0.411537 0.000000
vt 0.470413 0.000000
vt 0.294381 0.743610
vt 0.353257 0.743610
vt 0.353257 0.871643
vt 0.411537 0.871642
vt 0.411537 0.743610
vt 0.470413 0.743610
vt 0.058876 0.371805
vt 0.058876 0.601139
vt 0.000000 0.601139
vt 0.058876 0.743610
vt 0.000000 0.743610
vt 0.000000 0.371805
vt 0.000000 0.142471
vt 0.058876 0.142471
vt 0.000000 0.000000
vt 0.058876 0.000000
vt 0.705619 0.743610
vt 0.705619 0.514276
vt 0.764495 0.514276
vt 0.705619 0.371805
vt 0.764495 0.371805
vt 0.882248 0.371805
vt 0.882248 0.142471
vt 0.941124 0.142471
vt 0.882248 0.000000
vt 0.941124 0.000000
vt 0.823372 0.743610
vt 0.823372 0.514276
vt 0.882248 0.514276
vt 0.823372 0.371805
vt 0.882248 0.371805
vt 0.058876 0.972944
vt 0.058876 0.743610
vt 0.117752 0.743610
vt 0.235206 0.371805
vt 0.235206 0.601139
vt 0.176330 0.601139
vt 0.235206 0.743610
vt 0.176330 0.743610
vt 0.176330 0.371805
vt 0.176330 0.142471
vt 0.235206 0.142471
vt 0.176330 0.000000
vt 0.235206 0.000000
vt 0.235504 0.743610
vt 0.294381 0.743610
vt 0.294381 0.871643
vt 0.000000 0.935821
vt 0.000000 0.807789
vt 0.058876 0.807789
vt 0.058876 0.935821
vt 0.058876 1.000000
vt 0.000000 0.743610
vt 0.058876 0.743610
vt 1.000000 0.000000
vt 1.000000 1.000000
vt 0.000000 1.000000
vt 1.000000 0.000000
vt 1.000000 1.000000
vt 0.000000 1.000000
vt 1.000000 0.000000
vt 1.000000 1.000000
vt 0.000000 1.000000
vt 1.000000 0.000000
vt 1.000000 1.000000
vt 0.000000 1.000000
vt 0.529289 0.743610
vt 0.764495 0.371805
vt 1.000000 0.371805
vt 0.941124 0.743610
vt 0.176628 0.972944
vt 0.529289 0.371805
vt 0.705619 0.743610
vt 0.470413 0.871642
vt 0.588165 0.871642
vt 0.470413 0.743610
vt 0.294083 0.371805
vt 0.882248 0.371805
vt 0.823372 0.743610
vt 0.823372 0.371805
vt 0.235505 0.972944
vt 0.294083 0.743610
vt 0.470413 0.371805
vt 0.294381 0.871643
vt 0.470413 0.871642
vt 0.000000 0.371805
vt 0.058876 0.371805
vt 0.764495 0.743610
vt 0.941124 0.371805
vt 0.882248 0.743610
vt 0.117752 0.972944
vt 0.176330 0.371805
vt 0.235206 0.371805
vt 0.235505 0.871643
vt 0.000000 1.000000
vt 0.000000 0.000000
vt 0.000000 0.000000
vt 0.000000 0.000000
vt 0.000000 0.000000
vt 0.665377 0.373761
vt 0.772053 0.346842
vt 0.772053 0.353167
vt 0.490653 0.373761
vt 0.490653 0.192467
vt 0.643030 0.192467
vt 0.011173 0.316053
vt 0.011173 0.192467
vt 0.036968 0.192467
vt 0.551766 0.888289
vt 0.585764 0.781041
vt 0.585769 0.781634
vt 0.019388 0.948870
vt 0.019388 0.886643
vt 0.137756 0.886643
vt 0.045182 0.373761
vt 0.045182 0.353168
vt 0.163551 0.353167
vt 0.011173 0.948870
vt 0.011173 0.886643
vt 0.036968 0.373761
vt 0.036968 0.353168
vt 0.011173 0.373761
vt 0.011173 0.353168
vt 0.011173 0.346842
vt 0.036968 0.346842
vt 0.011173 0.678014
vt 0.011583 0.555988
vt 0.019722 0.556019
vt 0.020806 0.733322
vt 0.020483 0.727150
vt 0.139957 0.720157
vt 0.012751 0.733737
vt 0.012436 0.727539
vt 0.856627 0.319924
vt 0.794399 0.319924
vt 0.794399 0.308458
vt 0.405055 0.886643
vt 0.405055 0.948870
vt 0.286686 0.948870
vt 0.765364 0.711183
vt 0.827591 0.711183
vt 0.827592 0.717508
vt 0.765364 0.556808
vt 0.793243 0.556808
vt 0.793243 0.680394
vt 0.765364 0.699717
vt 0.827591 0.699717
vt 0.856627 0.308458
vt 0.828748 0.289135
vt 0.011935 0.716293
vt 0.019940 0.716025
vt 0.292576 0.704858
vt 0.292580 0.693392
vt 0.410948 0.693433
vt 0.011173 0.335376
vt 0.036968 0.335376
vt 0.856627 0.289135
vt 0.828749 0.165549
vt 0.765364 0.680394
vt 0.019200 0.677955
vt 0.292586 0.674069
vt 0.410955 0.674110
vt 0.036968 0.316053
vt 0.551768 0.700990
vt 0.658443 0.577402
vt 0.658442 0.758694
vt 0.338275 0.192467
vt 0.290134 0.192467
vt 0.315929 0.192467
vt 0.315929 0.316053
vt 0.822460 0.781634
vt 0.856462 0.888289
vt 0.704114 0.888289
vt 0.256125 0.886643
vt 0.256125 0.948870
vt 0.281920 0.353167
vt 0.281920 0.373761
vt 0.264339 0.886643
vt 0.264339 0.948870
vt 0.290134 0.353167
vt 0.290134 0.373761
vt 0.315929 0.353167
vt 0.315929 0.373761
vt 0.290134 0.346842
vt 0.315929 0.346842
vt 0.257912 0.557015
vt 0.266077 0.556832
vt 0.270229 0.678520
vt 0.260857 0.727988
vt 0.260493 0.734236
vt 0.269006 0.728421
vt 0.912166 0.693392
vt 0.912166 0.704858
vt 0.849938 0.704858
vt 0.523424 0.948870
vt 0.680790 0.717508
vt 0.680790 0.711183
vt 0.743017 0.711183
vt 0.715139 0.680394
vt 0.715139 0.556808
vt 0.743017 0.556808
vt 0.680790 0.699717
vt 0.743017 0.699717
vt 0.877817 0.674069
vt 0.849938 0.693392
vt 0.261459 0.716736
vt 0.269558 0.717023
vt 0.529317 0.693474
vt 0.529313 0.704940
vt 0.290134 0.335376
vt 0.315929 0.335376
vt 0.877817 0.550483
vt 0.849938 0.674069
vt 0.262231 0.678588
vt 0.529324 0.674151
vt 0.290134 0.316053
vt 0.772053 0.068880
vt 0.665377 0.192466
vt 0.665378 0.011173
vt 0.490653 0.011173
vt 0.011173 0.068881
vt 0.045176 0.863703
vt 0.011173 0.757048
vt 0.163521 0.757048
vt 0.678349 0.938558
vt 0.559981 0.938517
vt 0.559990 0.910638
vt 0.163551 0.031767
vt 0.045182 0.031767
vt 0.045182 0.011173
vt 0.551766 0.938514
vt 0.551776 0.910636
vt 0.036968 0.031767
vt 0.036968 0.011173
vt 0.011173 0.031767
vt 0.011173 0.011173
vt 0.036968 0.038092
vt 0.011173 0.038092
vt 0.012099 0.433087
vt 0.138415 0.402789
vt 0.020379 0.402437
vt 0.020398 0.396131
vt 0.012192 0.402412
vt 0.828749 0.022639
vt 0.828749 0.011173
vt 0.856627 0.011173
vt 0.551766 0.960948
vt 0.670135 0.960948
vt 0.670135 0.988827
vt 0.793243 0.396107
vt 0.793243 0.402432
vt 0.765364 0.402432
vt 0.793243 0.433221
vt 0.793243 0.413898
vt 0.765364 0.413898
vt 0.828749 0.041962
vt 0.856627 0.022639
vt 0.020343 0.413865
vt 0.012159 0.413840
vt 0.411047 0.407614
vt 0.292678 0.407573
vt 0.292682 0.396107
vt 0.036968 0.049558
vt 0.011173 0.049558
vt 0.856627 0.041962
vt 0.765364 0.433221
vt 0.020276 0.433118
vt 0.411040 0.426937
vt 0.292671 0.426896
vt 0.036968 0.068881
vt 0.658442 0.396107
vt 0.551767 0.423026
vt 0.551767 0.416701
vt 0.315929 0.068880
vt 0.315869 0.757048
vt 0.281872 0.864296
vt 0.281867 0.863702
vt 0.796728 0.910720
vt 0.796718 0.938599
vt 0.281920 0.011173
vt 0.281920 0.031767
vt 0.804942 0.910723
vt 0.804932 0.938601
vt 0.290134 0.011173
vt 0.290134 0.031767
vt 0.315929 0.011173
vt 0.315929 0.031767
vt 0.315929 0.038092
vt 0.290134 0.038092
vt 0.264798 0.433076
vt 0.256461 0.396133
vt 0.256482 0.402439
vt 0.264648 0.396107
vt 0.264668 0.402411
vt 0.849939 0.396107
vt 0.877817 0.396107
vt 0.877817 0.407573
vt 0.788504 0.960948
vt 0.743017 0.402432
vt 0.715139 0.402432
vt 0.715139 0.396107
vt 0.715139 0.433221
vt 0.743017 0.413898
vt 0.715139 0.413898
vt 0.849939 0.407573
vt 0.877817 0.426896
vt 0.264708 0.413837
vt 0.256523 0.413870
vt 0.529420 0.396189
vt 0.529416 0.407655
vt 0.315929 0.049558
vt 0.290134 0.049558
vt 0.849939 0.426896
vt 0.743017 0.433221
vt 0.256621 0.433134
vt 0.529409 0.426978
vt 0.290134 0.068880
vt 0.772053 0.373761
vt 0.772053 0.316053
vt 0.772053 0.335376
vt 0.772053 0.192466
vt 0.643030 0.373761
vt 0.704114 0.781634
vt 0.551766 0.781634
vt 0.137756 0.948870
vt 0.163551 0.373761
vt 0.139936 0.726612
vt 0.286686 0.886643
vt 0.765364 0.717508
vt 0.410944 0.704899
vt 0.856627 0.165548
vt 0.551768 0.758694
vt 0.551768 0.738101
vt 0.551768 0.731777
vt 0.551768 0.720312
vt 0.551767 0.577402
vt 0.338275 0.373761
vt 0.839461 0.781486
vt 0.856462 0.781634
vt 0.268654 0.734701
vt 0.523424 0.886643
vt 0.743017 0.717508
vt 0.743017 0.680394
vt 0.849938 0.550483
vt 0.772053 0.011174
vt 0.772053 0.031767
vt 0.772053 0.038091
vt 0.772053 0.049557
vt 0.643030 0.011173
vt 0.163521 0.863702
vt 0.028174 0.863851
vt 0.011173 0.863703
vt 0.678359 0.910679
vt 0.163551 0.011173
vt 0.138415 0.396480
vt 0.012211 0.396107
vt 0.551766 0.988827
vt 0.765364 0.396107
vt 0.411051 0.396148
vt 0.551766 0.396108
vt 0.551767 0.453815
vt 0.551767 0.434492
vt 0.338275 0.011173
vt 0.315869 0.863702
vt 0.788504 0.988827
vt 0.743017 0.396107
vt 0.003906 1.015625
vt 0.003906 0.496094
vt 0.500000 0.496094
vt 1.000000 0.500000
vt 1.000000 1.015625
vt 0.003906 -0.019531
vt 1.000000 -0.019531
vt 0.500000 1.015625
vt 0.500000 -0.019531
vn -1.0000 0.0000 0.0000
vn 1.0000 0.0000 0.0000
vn 0.0000 0.0000 -1.0000
vn 0.0000 -0.0000 1.0000
vn 0.0000 -1.0000 -0.0000
vn 0.0000 1.0000 0.0000
vn 0.0000 -0.8716 -0.4903
g HsVsAnzUnten_Cube.008_HsVsAnzUnten_Cube.008_Mast.009
usemtl Mast.009
s 1
f 1/1/1 2/2/1 3/3/1
f 2/2/1 4/4/1 5/5/1
f 6/6/2 7/7/2 8/8/2
f 7/7/2 9/9/2 10/10/2
f 11/11/3 3/3/3 7/12/3
f 3/3/3 5/5/3 9/13/3
f 12/14/4 8/15/4 2/16/4
f 8/15/4 10/17/4 4/18/4
f 13/19/4 14/20/4 15/21/4
f 14/20/4 16/22/4 17/23/4
f 18/24/3 19/25/3 20/26/3
f 21/27/1 15/28/1 19/29/1
f 15/28/1 17/30/1 22/31/1
f 23/32/2 20/33/2 14/34/2
f 20/33/2 24/35/2 16/36/2
f 22/31/1 4/4/1 2/2/1
f 20/37/5 19/38/5 2/39/5
f 20/33/2 8/8/2 10/10/2
f 24/40/6 10/41/6 4/42/6
f 25/43/1 26/44/1 27/45/1
f 26/44/1 28/46/1 29/47/1
f 30/48/2 31/49/2 32/50/2
f 31/49/2 33/51/2 34/52/2
f 35/53/3 27/54/3 31/55/3
f 27/54/3 29/56/3 33/57/3
f 36/58/4 32/59/4 26/60/4
f 32/59/4 34/61/4 28/62/4
f 37/63/4 38/64/4 39/65/4
f 38/64/4 40/66/4 41/67/4
f 42/68/3 43/69/3 44/70/3
f 45/71/1 39/72/1 43/73/1
f 39/72/1 41/74/1 46/75/1
f 47/76/2 44/77/2 38/78/2
f 44/77/2 48/79/2 40/80/2
f 46/75/1 28/46/1 26/44/1
f 44/81/5 43/82/5 26/83/5
f 44/77/2 32/50/2 34/52/2
f 48/84/6 34/85/6 28/86/6
f 49/87/1 50/88/1 51/89/1
f 50/88/1 52/90/1 53/91/1
f 54/92/2 55/93/2 56/94/2
f 55/93/2 57/95/2 58/96/2
f 59/97/3 51/98/3 55/99/3
f 51/98/3 53/100/3 57/101/3
f 60/102/4 56/103/4 50/104/4
f 56/103/4 58/105/4 52/106/4
f 61/107/4 62/108/4 63/109/4
f 62/108/4 64/110/4 65/111/4
f 66/112/3 67/113/3 68/114/3
f 69/115/1 63/116/1 67/117/1
f 63/116/1 65/118/1 70/119/1
f 71/120/2 68/121/2 62/122/2
f 68/121/2 72/123/2 64/124/2
f 70/119/1 52/90/1 50/88/1
f 68/125/5 67/126/5 50/127/5
f 68/121/2 56/94/2 58/96/2
f 72/128/6 58/129/6 52/130/6
f 72/128/6 70/131/6 65/132/6
f 58/129/6 57/133/6 53/134/6
f 73/135/2 74/136/2 75/137/2
f 76/138/5 77/139/5 78/140/5
f 79/141/2 80/142/2 81/143/2
f 82/144/5 83/145/5 84/146/5
f 11/11/1 1/1/1 3/3/1
f 3/3/1 2/2/1 5/5/1
f 12/147/2 6/6/2 8/8/2
f 8/8/2 7/7/2 10/10/2
f 6/148/3 11/11/3 7/12/3
f 7/12/3 3/3/3 9/13/3
f 1/149/4 12/14/4 2/16/4
f 2/16/4 8/15/4 4/18/4
f 21/150/4 13/19/4 15/21/4
f 15/21/4 14/20/4 17/23/4
f 23/151/3 18/24/3 20/26/3
f 18/152/1 21/27/1 19/29/1
f 19/29/1 15/28/1 22/31/1
f 13/153/2 23/32/2 14/34/2
f 14/34/2 20/33/2 16/36/2
f 19/29/1 22/31/1 2/2/1
f 8/154/5 20/37/5 2/39/5
f 24/35/2 20/33/2 10/10/2
f 22/155/6 24/40/6 4/42/6
f 35/156/1 25/43/1 27/45/1
f 27/45/1 26/44/1 29/47/1
f 36/157/2 30/48/2 32/50/2
f 32/50/2 31/49/2 34/52/2
f 30/158/3 35/53/3 31/55/3
f 31/55/3 27/54/3 33/57/3
f 25/159/4 36/58/4 26/60/4
f 26/60/4 32/59/4 28/62/4
f 45/160/4 37/63/4 39/65/4
f 39/65/4 38/64/4 41/67/4
f 47/161/3 42/68/3 44/70/3
f 42/162/1 45/71/1 43/73/1
f 43/73/1 39/72/1 46/75/1
f 37/163/2 47/76/2 38/78/2
f 38/78/2 44/77/2 40/80/2
f 43/73/1 46/75/1 26/44/1
f 32/164/5 44/81/5 26/83/5
f 48/79/2 44/77/2 34/52/2
f 46/165/6 48/84/6 28/86/6
f 59/166/1 49/87/1 51/89/1
f 51/89/1 50/88/1 53/91/1
f 60/167/2 54/92/2 56/94/2
f 56/94/2 55/93/2 58/96/2
f 54/168/3 59/97/3 55/99/3
f 55/99/3 51/98/3 57/101/3
f 49/169/4 60/102/4 50/104/4
f 50/104/4 56/103/4 52/106/4
f 69/170/4 61/107/4 63/109/4
f 63/109/4 62/108/4 65/111/4
f 71/171/3 66/112/3 68/114/3
f 66/172/1 69/115/1 67/117/1
f 67/117/1 63/116/1 70/119/1
f 61/173/2 71/120/2 62/122/2
f 62/122/2 68/121/2 64/124/2
f 67/117/1 70/119/1 50/88/1
f 56/174/5 68/125/5 50/127/5
f 72/123/2 68/121/2 58/96/2
f 70/131/6 72/128/6 52/130/6
f 64/175/6 72/128/6 65/132/6
f 52/130/6 58/129/6 53/134/6
f 85/176/2 73/135/2 75/137/2
f 86/177/5 76/138/5 78/140/5
f 87/178/2 79/141/2 81/143/2
f 88/179/5 82/144/5 84/146/5
g HsVsAnzUnten_Cube.008_HsVsAnzUnten_Cube.008_Schirm.009
usemtl Schirm.009
f 89/180/2 90/181/2 91/182/2
f 92/183/4 93/184/4 94/185/4
f 95/186/3 96/187/3 86/188/3
f 89/189/6 97/190/6 98/191/6
f 99/192/6 100/193/6 74/194/6
f 98/195/3 99/196/3 75/197/3
f 101/198/6 102/199/6 100/193/6
f 97/200/3 101/201/3 99/196/3
f 103/202/3 91/203/3 101/201/3
f 91/203/3 90/204/3 104/205/3
f 105/206/3 78/207/3 77/208/3
f 100/209/3 106/210/3 73/211/3
f 100/209/3 102/212/3 107/213/3
f 108/214/1 106/215/1 109/216/1
f 85/217/5 73/218/5 106/219/5
f 104/220/2 107/221/2 102/222/2
f 86/223/2 78/224/2 105/225/2
f 110/226/2 111/227/2 107/221/2
f 112/228/1 109/216/1 113/229/1
f 107/213/3 111/230/3 109/231/3
f 108/232/3 112/233/3 114/234/3
f 90/204/3 115/235/3 110/236/3
f 116/237/1 113/229/1 77/238/1
f 110/226/2 117/239/2 105/225/2
f 111/230/7 105/206/7 113/240/7
f 112/233/3 116/241/3 118/242/3
f 115/235/3 95/186/3 117/243/3
f 119/244/1 120/245/1 121/246/1
f 120/247/4 93/184/4 92/183/4
f 88/248/3 122/249/3 119/250/3
f 123/251/6 121/252/6 92/253/6
f 74/194/6 124/254/6 125/255/6
f 75/197/3 125/256/3 123/257/3
f 124/254/6 126/258/6 127/259/6
f 125/256/3 127/260/3 128/261/3
f 127/260/3 129/262/3 130/263/3
f 131/264/3 132/265/3 129/262/3
f 83/266/3 82/267/3 133/268/3
f 73/211/3 134/269/3 124/270/3
f 124/270/3 134/269/3 135/271/3
f 136/272/2 134/273/2 137/274/2
f 134/275/5 73/218/5 85/217/5
f 126/276/1 135/277/1 131/278/1
f 133/279/1 82/280/1 88/281/1
f 135/277/1 138/282/1 139/283/1
f 140/284/2 136/272/2 141/285/2
f 136/286/3 138/287/3 135/271/3
f 114/234/3 141/288/3 137/289/3
f 139/290/3 142/291/3 132/265/3
f 83/292/2 140/284/2 143/293/2
f 139/283/1 138/282/1 133/279/1
f 140/294/7 133/268/7 138/287/7
f 118/242/3 143/295/3 141/288/3
f 144/296/3 119/250/3 142/291/3
f 145/297/2 94/298/2 146/299/2
f 94/185/4 93/184/4 147/300/4
f 86/188/3 96/187/3 145/301/3
f 148/302/5 146/303/5 147/304/5
f 80/305/5 149/306/5 150/307/5
f 79/308/3 150/309/3 148/310/3
f 149/306/5 151/311/5 152/312/5
f 150/309/3 152/313/3 153/314/3
f 152/313/3 154/315/3 155/316/3
f 156/317/3 157/318/3 154/315/3
f 77/208/3 78/207/3 158/319/3
f 81/320/3 159/321/3 149/322/3
f 149/322/3 159/321/3 160/323/3
f 161/324/1 159/325/1 162/326/1
f 159/327/6 81/328/6 87/329/6
f 151/330/2 160/331/2 156/332/2
f 158/333/2 78/224/2 86/223/2
f 160/331/2 163/334/2 164/335/2
f 165/336/1 161/324/1 166/337/1
f 161/338/3 163/339/3 160/323/3
f 167/340/3 166/341/3 162/342/3
f 164/343/3 168/344/3 157/318/3
f 77/238/1 165/336/1 169/345/1
f 163/334/2 158/333/2 170/346/2
f 165/347/3 158/319/3 163/339/3
f 171/348/3 169/349/3 166/341/3
f 170/350/3 145/301/3 168/344/3
f 172/351/1 173/352/1 174/353/1
f 147/300/4 93/184/4 120/247/4
f 175/354/3 122/249/3 88/248/3
f 172/355/5 176/356/5 177/357/5
f 178/358/5 179/359/5 80/305/5
f 177/360/3 178/361/3 79/308/3
f 180/362/5 181/363/5 179/359/5
f 176/364/3 180/365/3 178/361/3
f 182/366/3 174/367/3 180/365/3
f 174/367/3 173/368/3 183/369/3
f 184/370/3 82/267/3 83/266/3
f 179/371/3 185/372/3 81/320/3
f 179/371/3 181/373/3 186/374/3
f 187/375/2 185/376/2 188/377/2
f 87/329/6 81/328/6 185/378/6
f 183/379/1 186/380/1 181/381/1
f 88/281/1 82/280/1 184/382/1
f 189/383/1 190/384/1 186/380/1
f 191/385/2 188/377/2 192/386/2
f 186/374/3 190/387/3 188/388/3
f 187/389/3 191/390/3 167/340/3
f 173/368/3 193/391/3 189/392/3
f 194/393/2 192/386/2 83/292/2
f 195/394/1 184/382/1 190/384/1
f 190/387/3 184/370/3 192/395/3
f 191/390/3 194/396/3 171/348/3
f 193/391/3 175/354/3 195/397/3
f 91/182/2 103/398/2 89/180/2
f 89/180/2 95/399/2 115/400/2
f 96/401/2 95/399/2 94/298/2
f 115/400/2 90/181/2 89/180/2
f 94/298/2 95/399/2 89/180/2
f 89/402/4 92/183/4 94/185/4
f 117/243/3 95/186/3 86/188/3
f 98/191/6 196/403/6 92/253/6
f 92/253/6 89/189/6 98/191/6
f 103/404/6 97/190/6 89/189/6
f 75/405/6 99/192/6 74/194/6
f 196/406/3 98/195/3 75/197/3
f 99/192/6 101/198/6 100/193/6
f 98/195/3 97/200/3 99/196/3
f 97/200/3 103/202/3 101/201/3
f 101/201/3 91/203/3 104/205/3
f 113/240/3 105/206/3 77/208/3
f 74/407/3 100/209/3 73/211/3
f 106/210/3 100/209/3 107/213/3
f 112/228/1 108/214/1 109/216/1
f 108/408/5 85/217/5 106/219/5
f 101/409/2 104/220/2 102/222/2
f 117/239/2 86/223/2 105/225/2
f 104/220/2 110/226/2 107/221/2
f 116/237/1 112/228/1 113/229/1
f 106/210/3 107/213/3 109/231/3
f 85/410/3 108/232/3 114/234/3
f 104/205/3 90/204/3 110/236/3
f 76/411/1 116/237/1 77/238/1
f 111/227/2 110/226/2 105/225/2
f 109/231/7 111/230/7 113/240/7
f 114/234/3 112/233/3 118/242/3
f 110/236/3 115/235/3 117/243/3
f 121/246/1 130/412/1 129/413/1
f 129/413/1 132/414/1 121/246/1
f 142/415/1 119/244/1 121/246/1
f 122/416/1 120/245/1 119/244/1
f 121/246/1 132/414/1 142/415/1
f 121/417/4 120/247/4 92/183/4
f 144/296/3 88/248/3 119/250/3
f 92/253/6 196/403/6 123/251/6
f 123/251/6 128/418/6 121/252/6
f 130/419/6 121/252/6 128/418/6
f 75/405/6 74/194/6 125/255/6
f 196/406/3 75/197/3 123/257/3
f 125/255/6 124/254/6 127/259/6
f 123/257/3 125/256/3 128/261/3
f 128/261/3 127/260/3 130/263/3
f 127/260/3 131/264/3 129/262/3
f 140/294/3 83/266/3 133/268/3
f 74/407/3 73/211/3 124/270/3
f 126/420/3 124/270/3 135/271/3
f 141/285/2 136/272/2 137/274/2
f 137/421/5 134/275/5 85/217/5
f 127/422/1 126/276/1 131/278/1
f 144/423/1 133/279/1 88/281/1
f 131/278/1 135/277/1 139/283/1
f 143/293/2 140/284/2 141/285/2
f 134/269/3 136/286/3 135/271/3
f 85/410/3 114/234/3 137/289/3
f 131/264/3 139/290/3 132/265/3
f 84/424/2 83/292/2 143/293/2
f 144/423/1 139/283/1 133/279/1
f 136/286/7 140/294/7 138/287/7
f 114/234/3 118/242/3 141/288/3
f 139/290/3 144/296/3 142/291/3
f 146/299/2 155/425/2 154/426/2
f 154/426/2 157/427/2 146/299/2
f 168/428/2 145/297/2 146/299/2
f 96/401/2 94/298/2 145/297/2
f 146/299/2 157/427/2 168/428/2
f 146/429/4 94/185/4 147/300/4
f 170/350/3 86/188/3 145/301/3
f 147/304/5 197/430/5 148/302/5
f 148/302/5 153/431/5 146/303/5
f 155/432/5 146/303/5 153/431/5
f 79/433/5 80/305/5 150/307/5
f 197/434/3 79/308/3 148/310/3
f 150/307/5 149/306/5 152/312/5
f 148/310/3 150/309/3 153/314/3
f 153/314/3 152/313/3 155/316/3
f 152/313/3 156/317/3 154/315/3
f 165/347/3 77/208/3 158/319/3
f 80/435/3 81/320/3 149/322/3
f 151/436/3 149/322/3 160/323/3
f 166/337/1 161/324/1 162/326/1
f 162/437/6 159/327/6 87/329/6
f 152/438/2 151/330/2 156/332/2
f 170/346/2 158/333/2 86/223/2
f 156/332/2 160/331/2 164/335/2
f 169/345/1 165/336/1 166/337/1
f 159/321/3 161/338/3 160/323/3
f 87/439/3 167/340/3 162/342/3
f 156/317/3 164/343/3 157/318/3
f 76/411/1 77/238/1 169/345/1
f 164/335/2 163/334/2 170/346/2
f 161/338/3 165/347/3 163/339/3
f 167/340/3 171/348/3 166/341/3
f 164/343/3 170/350/3 168/344/3
f 174/353/1 182/440/1 172/351/1
f 172/351/1 175/441/1 193/442/1
f 122/416/1 175/441/1 120/245/1
f 193/442/1 173/352/1 172/351/1
f 120/245/1 175/441/1 172/351/1
f 172/443/4 147/300/4 120/247/4
f 195/397/3 175/354/3 88/248/3
f 177/357/5 197/430/5 147/304/5
f 147/304/5 172/355/5 177/357/5
f 182/444/5 176/356/5 172/355/5
f 79/433/5 178/358/5 80/305/5
f 197/434/3 177/360/3 79/308/3
f 178/358/5 180/362/5 179/359/5
f 177/360/3 176/364/3 178/361/3
f 176/364/3 182/366/3 180/365/3
f 180/365/3 174/367/3 183/369/3
f 192/395/3 184/370/3 83/266/3
f 80/435/3 179/371/3 81/320/3
f 185/372/3 179/371/3 186/374/3
f 191/385/2 187/375/2 188/377/2
f 187/445/6 87/329/6 185/378/6
f 180/446/1 183/379/1 181/381/1
f 195/394/1 88/281/1 184/382/1
f 183/379/1 189/383/1 186/380/1
f 194/393/2 191/385/2 192/386/2
f 185/372/3 186/374/3 188/388/3
f 87/439/3 187/389/3 167/340/3
f 183/369/3 173/368/3 189/392/3
f 84/424/2 194/393/2 83/292/2
f 189/383/1 195/394/1 190/384/1
f 188/388/3 190/387/3 192/395/3
f 167/340/3 191/390/3 171/348/3
f 189/392/3 193/391/3 195/397/3
g HsVsAnzUnten_Cube.008_HsVsAnzUnten_Cube.008_Anzeige.009
usemtl Anzeige.009
f 116/447/3 76/448/3 198/449/3
f 198/449/3 84/450/3 143/451/3
f 198/449/3 76/448/3 169/452/3
f 194/453/3 84/450/3 198/449/3
f 118/454/3 116/447/3 198/449/3
f 118/454/3 198/449/3 143/451/3
f 171/455/3 198/449/3 169/452/3
f 171/455/3 194/453/3 198/449/3
