# Blender v2.79 (sub 0) OBJ File: 'signal_ks_singlemesh_shuntsig.blend'
# www.blender.org
o Ksrangiersignal_Plane.006
v 0.336283 -0.503378 -0.284585
v 0.296603 -0.503378 -0.325732
v 0.337750 -0.503378 -0.365412
v 0.377430 -0.503378 -0.324265
v 0.254197 -0.503378 -0.205426
v 0.213050 -0.503378 -0.165746
v 0.173370 -0.503378 -0.206893
v 0.214517 -0.503378 -0.246573
v 0.336283 -0.299114 -0.284585
v 0.336283 -0.172218 -0.284585
v 0.296603 -0.172218 -0.325732
v 0.296603 -0.299114 -0.325732
v 0.337750 -0.299114 -0.365412
v 0.337750 -0.172218 -0.365412
v 0.377430 -0.172218 -0.324265
v 0.377430 -0.299114 -0.324265
v 0.254197 -0.299114 -0.205426
v 0.254197 -0.172218 -0.205426
v 0.213050 -0.172218 -0.165746
v 0.213050 -0.299114 -0.165746
v 0.173370 -0.299114 -0.206893
v 0.173370 -0.172218 -0.206893
v 0.214517 -0.172218 -0.246573
v 0.214517 -0.299114 -0.246573
v 0.402939 -0.036350 -0.167347
v 0.208771 -0.036350 -0.368581
v 0.208771 -0.407670 -0.368581
v 0.402939 -0.407670 -0.167347
v 0.505350 -0.036350 -0.266167
v 0.311182 -0.036350 -0.467401
v 0.311183 -0.407670 -0.467401
v 0.505350 -0.407670 -0.266167
v 0.464727 -0.287874 -0.301977
v 0.480850 -0.287711 -0.317750
v 0.467578 -0.290291 -0.299052
v 0.483649 -0.290128 -0.314775
v 0.470701 -0.291865 -0.295843
v 0.486773 -0.291703 -0.311567
v 0.473977 -0.292536 -0.292475
v 0.490048 -0.292373 -0.308198
v 0.477279 -0.292276 -0.289075
v 0.493351 -0.292114 -0.304799
v 0.480481 -0.291097 -0.285776
v 0.496552 -0.290935 -0.301499
v 0.483459 -0.289044 -0.282703
v 0.499531 -0.288881 -0.298427
v 0.486099 -0.286196 -0.279975
v 0.502171 -0.286033 -0.295699
v 0.488301 -0.282661 -0.277697
v 0.504372 -0.282498 -0.293421
v 0.489978 -0.278577 -0.275956
v 0.506049 -0.278414 -0.291679
v 0.491066 -0.274099 -0.274819
v 0.507138 -0.273936 -0.290542
v 0.491524 -0.269400 -0.274330
v 0.507596 -0.269238 -0.290053
v 0.491335 -0.264661 -0.274507
v 0.507407 -0.264498 -0.290231
v 0.490505 -0.260064 -0.275344
v 0.506577 -0.259901 -0.291068
v 0.489066 -0.255784 -0.276809
v 0.505138 -0.255622 -0.292532
v 0.487074 -0.251988 -0.278845
v 0.503146 -0.251825 -0.294569
v 0.484605 -0.248820 -0.281374
v 0.500728 -0.248657 -0.297148
v 0.481754 -0.246403 -0.284299
v 0.497891 -0.246240 -0.300086
v 0.478630 -0.244829 -0.287508
v 0.508224 -0.244636 -0.316258
v 0.475355 -0.244159 -0.290876
v 0.504948 -0.243966 -0.319627
v 0.472053 -0.244418 -0.294276
v 0.501646 -0.244225 -0.323026
v 0.468851 -0.245597 -0.297575
v 0.498444 -0.245404 -0.326325
v 0.465872 -0.247650 -0.300648
v 0.495465 -0.247458 -0.329398
v 0.463232 -0.250499 -0.303376
v 0.492825 -0.250306 -0.332126
v 0.461031 -0.254033 -0.305654
v 0.490624 -0.253841 -0.334404
v 0.459354 -0.258118 -0.307395
v 0.488947 -0.257925 -0.336146
v 0.458265 -0.262595 -0.308532
v 0.487858 -0.262403 -0.337283
v 0.457807 -0.267294 -0.309021
v 0.487400 -0.267101 -0.337772
v 0.457996 -0.272033 -0.308844
v 0.487590 -0.271841 -0.337594
v 0.458827 -0.276631 -0.308007
v 0.488420 -0.276438 -0.336757
v 0.460265 -0.280910 -0.306542
v 0.489859 -0.280717 -0.335293
v 0.462258 -0.284706 -0.304506
v 0.478395 -0.284543 -0.320293
v 0.474507 -0.287012 -0.310546
v 0.481379 -0.286987 -0.317203
v 0.477233 -0.289326 -0.307746
v 0.483992 -0.289209 -0.314416
v 0.480221 -0.290833 -0.304672
v 0.486932 -0.290683 -0.311391
v 0.483354 -0.291475 -0.301447
v 0.490065 -0.291324 -0.308165
v 0.486512 -0.291227 -0.298192
v 0.493224 -0.291076 -0.304911
v 0.489575 -0.290098 -0.295033
v 0.496286 -0.289948 -0.301752
v 0.492425 -0.288134 -0.292092
v 0.499136 -0.287983 -0.298811
v 0.494951 -0.285408 -0.289480
v 0.501662 -0.285257 -0.296200
v 0.497057 -0.282025 -0.287300
v 0.503768 -0.281875 -0.294019
v 0.498662 -0.278116 -0.285634
v 0.505373 -0.277966 -0.292353
v 0.499705 -0.273831 -0.284546
v 0.506415 -0.273681 -0.291266
v 0.500144 -0.269334 -0.284079
v 0.506855 -0.269185 -0.290799
v 0.499964 -0.264799 -0.284250
v 0.506675 -0.264650 -0.290969
v 0.499171 -0.260399 -0.285053
v 0.505882 -0.260250 -0.291772
v 0.497796 -0.256304 -0.286456
v 0.504507 -0.256155 -0.293175
v 0.495891 -0.252669 -0.288408
v 0.502639 -0.252576 -0.295090
v 0.493530 -0.249639 -0.290830
v 0.500409 -0.249601 -0.297480
v 0.490803 -0.247327 -0.293629
v 0.497580 -0.247176 -0.300412
v 0.487815 -0.245820 -0.296700
v 0.508047 -0.245640 -0.316446
v 0.484681 -0.245179 -0.299924
v 0.504913 -0.244999 -0.319671
v 0.481521 -0.245427 -0.303178
v 0.501753 -0.245247 -0.322924
v 0.478457 -0.246555 -0.306336
v 0.498690 -0.246375 -0.326082
v 0.475608 -0.248520 -0.309276
v 0.495839 -0.248340 -0.329023
v 0.473081 -0.251246 -0.311887
v 0.493313 -0.251066 -0.331634
v 0.470975 -0.254628 -0.314068
v 0.491207 -0.254449 -0.333814
v 0.469370 -0.258537 -0.315734
v 0.489602 -0.258357 -0.335480
v 0.468328 -0.262822 -0.316822
v 0.488560 -0.262642 -0.336568
v 0.467889 -0.267319 -0.317289
v 0.488121 -0.267139 -0.337036
v 0.468070 -0.271854 -0.317119
v 0.488302 -0.271674 -0.336866
v 0.468864 -0.276254 -0.316318
v 0.489096 -0.276074 -0.336064
v 0.470240 -0.280349 -0.314915
v 0.490472 -0.280169 -0.334662
v 0.472146 -0.283982 -0.312966
v 0.478922 -0.283832 -0.319749
v 0.479233 -0.185060 -0.319539
v 0.472467 -0.185208 -0.312745
v 0.490682 -0.181238 -0.334555
v 0.470469 -0.181399 -0.314789
v 0.489239 -0.176944 -0.336025
v 0.469026 -0.177105 -0.316259
v 0.488406 -0.172331 -0.336866
v 0.468194 -0.172492 -0.317099
v 0.488216 -0.167575 -0.337044
v 0.468003 -0.167736 -0.317277
v 0.488676 -0.162861 -0.336552
v 0.468463 -0.163022 -0.316786
v 0.489768 -0.158368 -0.335411
v 0.469554 -0.158529 -0.315645
v 0.491449 -0.154269 -0.333663
v 0.471236 -0.154430 -0.313897
v 0.493657 -0.150723 -0.331375
v 0.473444 -0.150884 -0.311609
v 0.496304 -0.147864 -0.328637
v 0.476092 -0.148025 -0.308871
v 0.499291 -0.145804 -0.325552
v 0.479078 -0.145965 -0.305786
v 0.502502 -0.144621 -0.322240
v 0.482289 -0.144782 -0.302474
v 0.505814 -0.144361 -0.318828
v 0.485601 -0.144522 -0.299061
v 0.509099 -0.145034 -0.315446
v 0.488886 -0.145195 -0.295679
v 0.498785 -0.146626 -0.299252
v 0.492019 -0.146774 -0.292458
v 0.501751 -0.149168 -0.296178
v 0.494877 -0.149199 -0.289523
v 0.504091 -0.152287 -0.293674
v 0.497352 -0.152376 -0.286984
v 0.506050 -0.156040 -0.291667
v 0.499350 -0.156187 -0.284937
v 0.507492 -0.160334 -0.290195
v 0.500792 -0.160481 -0.283465
v 0.508323 -0.164947 -0.289354
v 0.501623 -0.165094 -0.282624
v 0.508513 -0.169702 -0.289175
v 0.501813 -0.169850 -0.282445
v 0.508052 -0.174417 -0.289666
v 0.501352 -0.174565 -0.282936
v 0.506960 -0.178910 -0.290807
v 0.500260 -0.179058 -0.284077
v 0.505278 -0.183008 -0.292555
v 0.498578 -0.183156 -0.285825
v 0.503071 -0.186555 -0.294842
v 0.496371 -0.186703 -0.288112
v 0.500424 -0.189413 -0.297581
v 0.493723 -0.189561 -0.290851
v 0.497438 -0.191473 -0.300666
v 0.490737 -0.191621 -0.293937
v 0.494228 -0.192656 -0.303979
v 0.487527 -0.192804 -0.297250
v 0.490917 -0.192916 -0.307393
v 0.484216 -0.193064 -0.300664
v 0.487633 -0.192244 -0.310776
v 0.480932 -0.192392 -0.304047
v 0.484551 -0.190698 -0.313949
v 0.477800 -0.190811 -0.307270
v 0.481810 -0.188369 -0.316869
v 0.474942 -0.188385 -0.310207
v 0.478681 -0.185806 -0.320109
v 0.462560 -0.185955 -0.304305
v 0.490039 -0.181812 -0.335217
v 0.460471 -0.181974 -0.306441
v 0.488531 -0.177326 -0.336753
v 0.458962 -0.177487 -0.307976
v 0.487660 -0.172505 -0.337630
v 0.458092 -0.172667 -0.308854
v 0.487461 -0.167536 -0.337816
v 0.457893 -0.167698 -0.309039
v 0.487941 -0.162609 -0.337302
v 0.458373 -0.162771 -0.308526
v 0.489081 -0.157914 -0.336109
v 0.459513 -0.158076 -0.307333
v 0.490839 -0.153632 -0.334282
v 0.461270 -0.153793 -0.305506
v 0.493145 -0.149926 -0.331892
v 0.463577 -0.150087 -0.303116
v 0.495912 -0.146939 -0.329031
v 0.466344 -0.147101 -0.300255
v 0.499034 -0.144786 -0.325808
v 0.469466 -0.144948 -0.297031
v 0.502390 -0.143550 -0.322347
v 0.472821 -0.143712 -0.293571
v 0.505851 -0.143278 -0.318781
v 0.476283 -0.143440 -0.290005
v 0.509284 -0.143981 -0.315248
v 0.479716 -0.144143 -0.286472
v 0.499111 -0.145644 -0.298911
v 0.482990 -0.145793 -0.283107
v 0.502086 -0.148179 -0.295830
v 0.485979 -0.148328 -0.280039
v 0.504622 -0.151500 -0.293127
v 0.488567 -0.151649 -0.277387
v 0.506711 -0.155481 -0.290992
v 0.490655 -0.155630 -0.275252
v 0.508219 -0.159968 -0.289456
v 0.492164 -0.160117 -0.273716
v 0.509090 -0.164789 -0.288579
v 0.493034 -0.164937 -0.272838
v 0.509289 -0.169758 -0.288393
v 0.493234 -0.169907 -0.272653
v 0.508809 -0.174684 -0.288907
v 0.492754 -0.174833 -0.273167
v 0.507669 -0.179379 -0.290100
v 0.491613 -0.179528 -0.274360
v 0.505911 -0.183662 -0.291927
v 0.489856 -0.183811 -0.276186
v 0.503605 -0.187368 -0.294317
v 0.487549 -0.187517 -0.278576
v 0.500838 -0.190355 -0.297178
v 0.484782 -0.190504 -0.281438
v 0.497716 -0.192507 -0.300401
v 0.481661 -0.192656 -0.284661
v 0.494360 -0.193743 -0.303862
v 0.478305 -0.193892 -0.288122
v 0.490899 -0.194015 -0.307427
v 0.474844 -0.194164 -0.291687
v 0.487466 -0.193312 -0.310961
v 0.471410 -0.193461 -0.295220
v 0.484192 -0.191662 -0.314326
v 0.468136 -0.191811 -0.298585
v 0.481255 -0.189127 -0.317443
v 0.465148 -0.189276 -0.301653
v 0.395311 -0.187874 -0.373959
v 0.411435 -0.187711 -0.389733
v 0.398162 -0.190292 -0.371034
v 0.414234 -0.190129 -0.386758
v 0.401285 -0.191866 -0.367826
v 0.417357 -0.191703 -0.383549
v 0.404561 -0.192536 -0.364457
v 0.420633 -0.192373 -0.380181
v 0.407863 -0.192277 -0.361058
v 0.423935 -0.192114 -0.376781
v 0.411065 -0.191098 -0.357758
v 0.427137 -0.190935 -0.373482
v 0.414043 -0.189045 -0.354686
v 0.430115 -0.188882 -0.370409
v 0.416684 -0.186196 -0.351958
v 0.432756 -0.186033 -0.367681
v 0.418885 -0.182662 -0.349679
v 0.434956 -0.182499 -0.365403
v 0.420562 -0.178577 -0.347938
v 0.436634 -0.178414 -0.363662
v 0.421650 -0.174099 -0.346801
v 0.437722 -0.173937 -0.362525
v 0.422109 -0.169401 -0.346312
v 0.438180 -0.169238 -0.362036
v 0.421919 -0.164662 -0.346490
v 0.437991 -0.164499 -0.362213
v 0.421089 -0.160064 -0.347327
v 0.437161 -0.159901 -0.363050
v 0.419650 -0.155785 -0.348791
v 0.435722 -0.155622 -0.364515
v 0.417658 -0.151988 -0.350827
v 0.433730 -0.151825 -0.366551
v 0.415189 -0.148821 -0.353357
v 0.431313 -0.148658 -0.369130
v 0.412338 -0.146403 -0.356282
v 0.428476 -0.146240 -0.372068
v 0.409215 -0.144829 -0.359490
v 0.438808 -0.144637 -0.388241
v 0.405939 -0.144159 -0.362859
v 0.435532 -0.143966 -0.391609
v 0.402637 -0.144418 -0.366258
v 0.432230 -0.144226 -0.395009
v 0.399435 -0.145597 -0.369557
v 0.429028 -0.145405 -0.398308
v 0.396457 -0.147650 -0.372630
v 0.426050 -0.147458 -0.401381
v 0.393816 -0.150499 -0.375358
v 0.423409 -0.150306 -0.404109
v 0.391615 -0.154033 -0.377636
v 0.421208 -0.153841 -0.406387
v 0.389938 -0.158118 -0.379378
v 0.419531 -0.157925 -0.408128
v 0.388850 -0.162596 -0.380514
v 0.418443 -0.162403 -0.409265
v 0.388391 -0.167294 -0.381004
v 0.417984 -0.167102 -0.409754
v 0.388581 -0.172033 -0.380826
v 0.418174 -0.171841 -0.409577
v 0.389411 -0.176631 -0.379989
v 0.419004 -0.176438 -0.408740
v 0.390850 -0.180910 -0.378524
v 0.420443 -0.180718 -0.407275
v 0.392842 -0.184707 -0.376488
v 0.408979 -0.184544 -0.392275
v 0.405091 -0.187013 -0.382529
v 0.411964 -0.186988 -0.389185
v 0.407817 -0.189326 -0.379729
v 0.414576 -0.189209 -0.386399
v 0.410805 -0.190833 -0.376655
v 0.417517 -0.190683 -0.383373
v 0.413938 -0.191475 -0.373429
v 0.420650 -0.191325 -0.380148
v 0.417097 -0.191227 -0.370174
v 0.423808 -0.191077 -0.376893
v 0.420160 -0.190099 -0.367016
v 0.426871 -0.189948 -0.373735
v 0.423009 -0.188134 -0.364074
v 0.429720 -0.187983 -0.370793
v 0.425535 -0.185408 -0.361463
v 0.432246 -0.185258 -0.368182
v 0.427641 -0.182025 -0.359282
v 0.434352 -0.181875 -0.366002
v 0.429247 -0.178116 -0.357616
v 0.435957 -0.177966 -0.364336
v 0.430289 -0.173831 -0.356529
v 0.437000 -0.173682 -0.363248
v 0.430729 -0.169335 -0.356062
v 0.437439 -0.169185 -0.362781
v 0.430548 -0.164799 -0.356233
v 0.437259 -0.164650 -0.362952
v 0.429756 -0.160399 -0.357035
v 0.436466 -0.160250 -0.363755
v 0.428380 -0.156304 -0.358439
v 0.435092 -0.156155 -0.365158
v 0.426475 -0.152670 -0.360391
v 0.433223 -0.152576 -0.367072
v 0.424114 -0.149639 -0.362812
v 0.430993 -0.149601 -0.369462
v 0.421388 -0.147327 -0.365611
v 0.428164 -0.147177 -0.372394
v 0.418399 -0.145820 -0.368682
v 0.438631 -0.145641 -0.388429
v 0.415265 -0.145179 -0.371906
v 0.435497 -0.144999 -0.391653
v 0.412105 -0.145427 -0.375160
v 0.432337 -0.145247 -0.394907
v 0.409042 -0.146555 -0.378318
v 0.429274 -0.146376 -0.398064
v 0.406192 -0.148520 -0.381259
v 0.426424 -0.148340 -0.401005
v 0.403665 -0.151246 -0.383869
v 0.423897 -0.151066 -0.403616
v 0.401559 -0.154629 -0.386050
v 0.421791 -0.154449 -0.405796
v 0.399954 -0.158537 -0.387716
v 0.420186 -0.158358 -0.407463
v 0.398912 -0.162822 -0.388804
v 0.419144 -0.162643 -0.408550
v 0.398473 -0.167319 -0.389272
v 0.418705 -0.167139 -0.409018
v 0.398654 -0.171854 -0.389102
v 0.418886 -0.171674 -0.408848
v 0.399448 -0.176254 -0.388300
v 0.419680 -0.176074 -0.408047
v 0.400824 -0.180349 -0.386898
v 0.421056 -0.180169 -0.406644
v 0.402730 -0.183982 -0.384949
v 0.409506 -0.183832 -0.391732
v 0.358799 -0.183156 -0.430571
v 0.365499 -0.183008 -0.437301
v 0.360481 -0.179058 -0.428823
v 0.367181 -0.178910 -0.435553
v 0.361573 -0.174564 -0.427682
v 0.368273 -0.174417 -0.434412
v 0.362033 -0.169850 -0.427191
v 0.368733 -0.169702 -0.433921
v 0.361844 -0.165094 -0.427370
v 0.368544 -0.164947 -0.434100
v 0.361012 -0.160481 -0.428211
v 0.367712 -0.160334 -0.434942
v 0.359570 -0.156187 -0.429683
v 0.366271 -0.156040 -0.436413
v 0.357572 -0.152376 -0.431730
v 0.364312 -0.152287 -0.438420
v 0.355097 -0.149199 -0.434269
v 0.361972 -0.149168 -0.440924
v 0.352239 -0.146774 -0.437204
v 0.359005 -0.146626 -0.443998
v 0.349107 -0.145195 -0.440425
v 0.369320 -0.145034 -0.460192
v 0.345822 -0.144522 -0.443807
v 0.366034 -0.144361 -0.463574
v 0.342510 -0.144782 -0.447220
v 0.362723 -0.144621 -0.466986
v 0.339299 -0.145965 -0.450532
v 0.359512 -0.145804 -0.470298
v 0.336312 -0.148025 -0.453617
v 0.356525 -0.147864 -0.473383
v 0.333664 -0.150884 -0.456355
v 0.353877 -0.150722 -0.476122
v 0.331457 -0.154430 -0.458643
v 0.351670 -0.154269 -0.478409
v 0.329775 -0.158529 -0.460391
v 0.349988 -0.158368 -0.480157
v 0.328683 -0.163022 -0.461532
v 0.348896 -0.162860 -0.481298
v 0.328224 -0.167736 -0.462023
v 0.348437 -0.167575 -0.481790
v 0.328414 -0.172492 -0.461845
v 0.348627 -0.172330 -0.481612
v 0.329247 -0.177105 -0.461005
v 0.349460 -0.176944 -0.480771
v 0.330690 -0.181399 -0.459535
v 0.350903 -0.181238 -0.479301
v 0.332688 -0.185208 -0.457491
v 0.339453 -0.185060 -0.464285
v 0.581798 -0.407670 -0.186836
v 0.234720 -0.407670 -0.546748
v 0.581797 -0.143253 -0.186836
v 0.234719 -0.143253 -0.546748
v 0.479402 -0.143253 -0.088000
v 0.479402 -0.407670 -0.088000
v 0.132324 -0.407670 -0.447912
v 0.132324 -0.143253 -0.447912
v 0.363292 -0.186554 -0.439588
v 0.356591 -0.186703 -0.432858
v 0.360644 -0.189413 -0.442327
v 0.353944 -0.189561 -0.435597
v 0.357658 -0.191473 -0.445412
v 0.350957 -0.191621 -0.438683
v 0.354448 -0.192656 -0.448726
v 0.347747 -0.192804 -0.441996
v 0.351138 -0.192916 -0.452139
v 0.344437 -0.193064 -0.445410
v 0.347854 -0.192244 -0.455522
v 0.341152 -0.192391 -0.448793
v 0.344771 -0.190698 -0.458695
v 0.338020 -0.190811 -0.452017
v 0.342030 -0.188369 -0.461615
v 0.335163 -0.188385 -0.454953
v 0.338901 -0.185806 -0.464855
v 0.322780 -0.185955 -0.449051
v 0.350260 -0.181812 -0.479963
v 0.320691 -0.181974 -0.451187
v 0.348751 -0.177326 -0.481499
v 0.319183 -0.177487 -0.452722
v 0.347881 -0.172505 -0.482376
v 0.318312 -0.172667 -0.453600
v 0.347681 -0.167536 -0.482562
v 0.318113 -0.167698 -0.453785
v 0.348161 -0.162609 -0.482048
v 0.318593 -0.162771 -0.453272
v 0.349302 -0.157914 -0.480855
v 0.319734 -0.158076 -0.452079
v 0.351059 -0.153632 -0.479028
v 0.321491 -0.153793 -0.450252
v 0.353366 -0.149925 -0.476638
v 0.323797 -0.150087 -0.447862
v 0.356133 -0.146939 -0.473777
v 0.326565 -0.147101 -0.445001
v 0.359254 -0.144786 -0.470554
v 0.329686 -0.144948 -0.441778
v 0.362610 -0.143550 -0.467093
v 0.333042 -0.143712 -0.438317
v 0.366071 -0.143278 -0.463528
v 0.336503 -0.143440 -0.434751
v 0.369505 -0.143981 -0.459994
v 0.339937 -0.144143 -0.431218
v 0.359332 -0.145644 -0.443657
v 0.343210 -0.145793 -0.427853
v 0.362307 -0.148179 -0.440576
v 0.346199 -0.148328 -0.424785
v 0.364843 -0.151500 -0.437873
v 0.348787 -0.151649 -0.422133
v 0.366931 -0.155481 -0.435738
v 0.350876 -0.155630 -0.419998
v 0.368440 -0.159968 -0.434202
v 0.352384 -0.160117 -0.418462
v 0.369311 -0.164788 -0.433325
v 0.353255 -0.164937 -0.417585
v 0.369510 -0.169758 -0.433139
v 0.353454 -0.169906 -0.417399
v 0.369030 -0.174684 -0.433653
v 0.352974 -0.174833 -0.417913
v 0.367889 -0.179379 -0.434846
v 0.351834 -0.179528 -0.419106
v 0.366132 -0.183662 -0.436673
v 0.350076 -0.183811 -0.420932
v 0.363825 -0.187368 -0.439063
v 0.347770 -0.187517 -0.423322
v 0.361058 -0.190355 -0.441924
v 0.345003 -0.190503 -0.426184
v 0.357937 -0.192507 -0.445147
v 0.341881 -0.192656 -0.429407
v 0.354581 -0.193743 -0.448608
v 0.338525 -0.193892 -0.432868
v 0.351120 -0.194015 -0.452173
v 0.335064 -0.194164 -0.436433
v 0.347686 -0.193312 -0.455707
v 0.331631 -0.193461 -0.439966
v 0.344412 -0.191662 -0.459072
v 0.328357 -0.191811 -0.443331
v 0.341476 -0.189127 -0.462189
v 0.325368 -0.189276 -0.446399
vt 0.285559 0.095797
vt 0.214079 0.095797
vt 0.214079 0.000000
vt 0.285559 0.000000
vt 0.357039 0.095797
vt 0.285559 0.095797
vt 0.285559 0.000000
vt 0.357039 0.000000
vt 0.642599 0.095797
vt 0.571118 0.095797
vt 0.571118 0.000000
vt 0.642598 0.000000
vt 0.714079 0.904203
vt 0.785559 0.904203
vt 0.785559 1.000000
vt 0.714079 1.000000
vt 0.642599 0.904203
vt 0.714079 0.904203
vt 0.714079 1.000000
vt 0.642599 1.000000
vt 0.071480 0.095797
vt 0.000000 0.095797
vt 0.000000 0.000000
vt 0.071480 0.000000
vt 0.571118 0.095797
vt 0.499638 0.095797
vt 0.499638 0.000000
vt 0.571118 0.000000
vt 0.857040 0.394495
vt 0.928520 0.394495
vt 0.928520 0.480583
vt 0.857040 0.480583
vt 0.857040 0.129242
vt 0.785559 0.129242
vt 0.785559 0.043154
vt 0.857040 0.043154
vt 0.785559 0.172396
vt 0.857040 0.172396
vt 0.785559 0.000000
vt 0.857040 0.000000
vt 0.285559 0.250000
vt 0.214079 0.250000
vt 0.357039 0.250000
vt 0.285559 0.250000
vt 0.642599 0.250000
vt 0.571118 0.250000
vt 0.714079 0.750000
vt 0.785559 0.750000
vt 0.642599 0.750000
vt 0.714079 0.750000
vt 0.928520 0.154203
vt 0.857040 0.154203
vt 0.857040 0.000000
vt 0.928520 0.000000
vt 0.071480 0.250000
vt 0.000000 0.250000
vt 0.571118 0.250000
vt 0.499638 0.250000
vt 1.000000 1.000000
vt 0.958487 1.000000
vt 0.958487 0.833333
vt 1.000000 0.833333
vt 0.875462 0.748915
vt 0.729551 0.748915
vt 0.729551 0.000000
vt 0.875462 0.000000
vt 0.958487 0.000000
vt 1.000000 0.000000
vt 1.000000 0.166667
vt 0.958487 0.166667
vt 0.437731 0.000000
vt 0.437731 0.748915
vt 0.291821 0.748915
vt 0.291821 0.000000
vt 0.958487 0.666667
vt 1.000000 0.666667
vt 0.583641 0.748915
vt 0.583641 0.000000
vt 1.000000 0.333333
vt 0.958487 0.333333
vt 0.145910 0.748915
vt 0.145910 0.000000
vt 0.437731 0.748915
vt 0.437731 0.000000
vt 0.000000 0.748915
vt 0.000000 0.000000
vt 0.958487 0.748915
vt 0.916975 0.748915
vt 0.916975 0.000000
vt 0.958487 0.000000
vt 1.000000 0.500000
vt 0.958487 0.500000
vt 0.958487 0.500000
vt 1.000000 0.500000
vt 0.875462 0.000000
vt 0.916974 0.000000
vt 0.916975 0.748915
vt 0.875462 0.748915
vt 0.006929 0.253167
vt 0.007025 0.222313
vt 0.177644 0.253134
vt 0.442678 0.488295
vt 0.228889 0.488295
vt 0.228910 0.458769
vt 0.442670 0.517822
vt 0.006631 0.345729
vt 0.176656 0.345691
vt 0.176568 0.376545
vt 0.689480 0.483245
vt 0.718747 0.488548
vt 0.687628 0.489885
vt 0.371352 0.783117
vt 0.370709 0.754396
vt 0.443060 0.754024
vt 0.442971 0.724510
vt 0.370472 0.723575
vt 0.228883 0.517823
vt 0.176852 0.746796
vt 0.177512 0.777645
vt 0.006941 0.777687
vt 0.892437 0.317355
vt 0.885704 0.319257
vt 0.879631 0.287703
vt 0.586362 0.385333
vt 0.579817 0.387126
vt 0.579568 0.357437
vt 0.370694 0.989321
vt 0.371029 0.959797
vt 0.442838 0.960722
vt 0.748545 0.488099
vt 0.749318 0.494983
vt 0.718195 0.495436
vt 0.836176 0.125250
vt 0.850517 0.149568
vt 0.844628 0.151667
vt 0.319423 0.099941
vt 0.319322 0.130795
vt 0.007319 0.129750
vt 0.371269 0.930272
vt 0.371421 0.900745
vt 0.443231 0.901668
vt 0.007419 0.098896
vt 0.763884 0.080481
vt 0.765981 0.074365
vt 0.789700 0.092175
vt 0.443302 0.872141
vt 0.442833 0.370188
vt 0.442778 0.399714
vt 0.229046 0.370189
vt 0.319626 0.038233
vt 0.319524 0.069087
vt 0.007520 0.068042
vt 0.808610 0.476251
vt 0.779839 0.488518
vt 0.777761 0.481894
vt 0.176640 0.685087
vt 0.176742 0.715941
vt 0.006716 0.715979
vt 0.371495 0.841694
vt 0.371443 0.812167
vt 0.443254 0.813086
vt 0.006614 0.685125
vt 0.006467 0.407437
vt 0.006543 0.376583
vt 0.176492 0.407399
vt 0.892437 0.349226
vt 0.886228 0.380492
vt 0.885423 0.348954
vt 0.599888 0.122511
vt 0.605204 0.126737
vt 0.589057 0.151745
vt 0.443305 0.193031
vt 0.443252 0.222558
vt 0.371495 0.193949
vt 0.636826 0.456466
vt 0.632640 0.461897
vt 0.610260 0.440534
vt 0.735929 0.074111
vt 0.736753 0.067631
vt 0.442837 0.665456
vt 0.229049 0.665457
vt 0.442780 0.635930
vt 0.006361 0.469146
vt 0.006405 0.438291
vt 0.176387 0.469108
vt 0.007613 0.962812
vt 0.319616 0.961631
vt 0.319730 0.992485
vt 0.598317 0.411848
vt 0.592437 0.415287
vt 0.442678 0.547349
vt 0.228890 0.547350
vt 0.443160 0.252098
vt 0.371348 0.252525
vt 0.371442 0.223476
vt 0.442504 0.990249
vt 0.319126 0.192504
vt 0.319029 0.223358
vt 0.621946 0.100560
vt 0.647824 0.083609
vt 0.626230 0.105756
vt 0.371492 0.871219
vt 0.615392 0.436018
vt 0.442732 0.429241
vt 0.442698 0.458768
vt 0.228944 0.429242
vt 0.007499 0.931958
vt 0.879533 0.378395
vt 0.867982 0.406513
vt 0.572791 0.357181
vt 0.443237 0.133976
vt 0.371427 0.134897
vt 0.371280 0.105372
vt 0.442853 0.074922
vt 0.443090 0.104449
vt 0.371043 0.075847
vt 0.007727 0.006334
vt 0.319730 0.007378
vt 0.578089 0.326242
vt 0.443305 0.163503
vt 0.371495 0.164423
vt 0.006727 0.314875
vt 0.176753 0.314837
vt 0.319502 0.930776
vt 0.006337 0.500000
vt 0.176362 0.499962
vt 0.792953 0.086670
vt 0.816609 0.103895
vt 0.812355 0.108585
vt 0.176549 0.654233
vt 0.650942 0.089526
vt 0.006828 0.284020
vt 0.177399 0.283987
vt 0.661830 0.472412
vt 0.658752 0.478560
vt 0.571207 0.326153
vt 0.006524 0.654271
vt 0.442901 0.694984
vt 0.229113 0.694984
vt 0.007122 0.191458
vt 0.831035 0.128981
vt 0.006390 0.592562
vt 0.176415 0.592525
vt 0.006448 0.623417
vt 0.805300 0.470133
vt 0.228990 0.399716
vt 0.582798 0.148853
vt 0.176430 0.438254
vt 0.886223 0.285996
vt 0.706979 0.073452
vt 0.706468 0.066881
vt 0.176474 0.623379
vt 0.229109 0.340661
vt 0.834553 0.458608
vt 0.676401 0.072253
vt 0.228992 0.635930
vt 0.228946 0.606403
vt 0.442734 0.606402
vt 0.443079 0.931196
vt 0.442700 0.576876
vt 0.176377 0.561671
vt 0.228912 0.576877
vt 0.442967 0.311134
vt 0.370467 0.312068
vt 0.443056 0.281620
vt 0.370712 0.046322
vt 0.830124 0.453224
vt 0.007220 0.160604
vt 0.370705 0.281246
vt 0.176359 0.530816
vt 0.443305 0.842613
vt 0.874138 0.409852
vt 0.851292 0.431762
vt 0.442897 0.340661
vt 0.007276 0.870250
vt 0.319278 0.869069
vt 0.319390 0.899923
vt 0.678244 0.078632
vt 0.006334 0.530854
vt 0.006351 0.561708
vt 0.856681 0.436209
vt 0.443163 0.783546
vt 0.007728 0.993666
vt 0.007623 0.037188
vt 0.007387 0.901104
vt 0.319224 0.161649
vt 0.442522 0.045396
vt 0.006827 0.746834
vt 0.007165 0.839396
vt 0.007055 0.808541
vt 0.177771 0.808498
vt 0.319168 0.838215
vt 0.573209 0.178195
vt 0.579868 0.178984
vt 0.442670 0.517822
vt 0.228883 0.517823
vt 0.228889 0.488295
vt 0.442971 0.724510
vt 0.443060 0.754024
vt 0.370472 0.723575
vt 0.442967 0.311134
vt 0.370467 0.312068
vt 0.443056 0.281620
vt 0.443160 0.252098
vt 0.371348 0.252525
vt 0.443163 0.783546
vt 0.371352 0.783117
vt 0.006929 0.253167
vt 0.177644 0.253134
vt 0.006828 0.284020
vt 0.007055 0.808541
vt 0.006941 0.777687
vt 0.177771 0.808498
vt 0.006827 0.746834
vt 0.176852 0.746796
vt 0.006727 0.314875
vt 0.176753 0.314837
vt 0.371492 0.871219
vt 0.371495 0.841694
vt 0.443305 0.842613
vt 0.615392 0.436018
vt 0.610260 0.440534
vt 0.592437 0.415287
vt 0.816609 0.103895
vt 0.836176 0.125250
vt 0.831035 0.128981
vt 0.706468 0.066881
vt 0.736753 0.067631
vt 0.735929 0.074111
vt 0.647824 0.083609
vt 0.650942 0.089526
vt 0.626230 0.105756
vt 0.765981 0.074365
vt 0.763884 0.080481
vt 0.579817 0.387126
vt 0.586362 0.385333
vt 0.621946 0.100560
vt 0.605204 0.126737
vt 0.706979 0.073452
vt 0.678244 0.078632
vt 0.792953 0.086670
vt 0.812355 0.108585
vt 0.676401 0.072253
vt 0.789700 0.092175
vt 0.599888 0.122511
vt 0.589057 0.151745
vt 0.582798 0.148853
vt 0.579868 0.178984
vt 0.850517 0.149568
vt 0.844628 0.151667
vt 0.572791 0.357181
vt 0.571207 0.326153
vt 0.578089 0.326242
vt 0.579568 0.357437
vt 0.892437 0.349226
vt 0.885423 0.348954
vt 0.885704 0.319257
vt 0.886223 0.285996
vt 0.879631 0.287703
vt 0.636826 0.456466
vt 0.632640 0.461897
vt 0.874138 0.409852
vt 0.856681 0.436209
vt 0.851292 0.431762
vt 0.661830 0.472412
vt 0.658752 0.478560
vt 0.689480 0.483245
vt 0.687628 0.489885
vt 0.718747 0.488548
vt 0.718195 0.495436
vt 0.779839 0.488518
vt 0.749318 0.494983
vt 0.748545 0.488099
vt 0.808610 0.476251
vt 0.777761 0.481894
vt 0.834553 0.458608
vt 0.805300 0.470133
vt 0.830124 0.453224
vt 0.573209 0.178195
vt 0.886228 0.380492
vt 0.867982 0.406513
vt 0.879533 0.378395
vt 0.370709 0.754396
vt 0.319322 0.130795
vt 0.319224 0.161649
vt 0.007220 0.160604
vt 0.007387 0.901104
vt 0.319390 0.899923
vt 0.319502 0.930776
vt 0.442778 0.399714
vt 0.228990 0.399716
vt 0.229046 0.370189
vt 0.007499 0.931958
vt 0.319616 0.961631
vt 0.006361 0.469146
vt 0.176387 0.469108
vt 0.176362 0.499962
vt 0.442678 0.488295
vt 0.228910 0.458769
vt 0.007727 0.006334
vt 0.319730 0.007378
vt 0.319626 0.038233
vt 0.228890 0.547350
vt 0.007613 0.962812
vt 0.319730 0.992485
vt 0.228946 0.606403
vt 0.228912 0.576877
vt 0.442700 0.576876
vt 0.228992 0.635930
vt 0.442734 0.606402
vt 0.442833 0.370188
vt 0.229109 0.340661
vt 0.229113 0.694984
vt 0.229049 0.665457
vt 0.442837 0.665456
vt 0.442901 0.694984
vt 0.370705 0.281246
vt 0.371443 0.812167
vt 0.443254 0.813086
vt 0.892437 0.317355
vt 0.371421 0.900745
vt 0.443302 0.872141
vt 0.371269 0.930272
vt 0.443231 0.901668
vt 0.007276 0.870250
vt 0.319278 0.869069
vt 0.006405 0.438291
vt 0.176430 0.438254
vt 0.443090 0.104449
vt 0.371280 0.105372
vt 0.371043 0.075847
vt 0.443237 0.133976
vt 0.371427 0.134897
vt 0.443305 0.163503
vt 0.371495 0.164423
vt 0.443305 0.193031
vt 0.371495 0.193949
vt 0.443252 0.222558
vt 0.371442 0.223476
vt 0.177399 0.283987
vt 0.006543 0.376583
vt 0.176568 0.376545
vt 0.176492 0.407399
vt 0.006467 0.407437
vt 0.007165 0.839396
vt 0.319168 0.838215
vt 0.370694 0.989321
vt 0.371029 0.959797
vt 0.442838 0.960722
vt 0.442780 0.635930
vt 0.442698 0.458768
vt 0.228944 0.429242
vt 0.006337 0.500000
vt 0.176359 0.530816
vt 0.319524 0.069087
vt 0.007520 0.068042
vt 0.319423 0.099941
vt 0.007419 0.098896
vt 0.007319 0.129750
vt 0.442897 0.340661
vt 0.319126 0.192504
vt 0.007122 0.191458
vt 0.319029 0.223358
vt 0.007025 0.222313
vt 0.177512 0.777645
vt 0.443079 0.931196
vt 0.176656 0.345691
vt 0.006631 0.345729
vt 0.442853 0.074922
vt 0.370712 0.046322
vt 0.442732 0.429241
vt 0.442678 0.547349
vt 0.176377 0.561671
vt 0.006351 0.561708
vt 0.176415 0.592525
vt 0.006390 0.592562
vt 0.176474 0.623379
vt 0.006448 0.623417
vt 0.176549 0.654233
vt 0.006524 0.654271
vt 0.176640 0.685087
vt 0.006614 0.685125
vt 0.176742 0.715941
vt 0.006716 0.715979
vt 0.598317 0.411848
vt 0.007623 0.037188
vt 0.007728 0.993666
vt 0.442504 0.990249
vt 0.006334 0.530854
vt 0.442522 0.045396
vt 0.006929 0.253167
vt 0.007025 0.222313
vt 0.177644 0.253134
vt 0.442678 0.488295
vt 0.228889 0.488295
vt 0.228910 0.458769
vt 0.442670 0.517822
vt 0.006631 0.345729
vt 0.176656 0.345691
vt 0.176568 0.376545
vt 0.689480 0.483245
vt 0.718747 0.488548
vt 0.687628 0.489885
vt 0.371352 0.783117
vt 0.370709 0.754396
vt 0.443060 0.754024
vt 0.442971 0.724510
vt 0.370472 0.723575
vt 0.228883 0.517823
vt 0.176852 0.746796
vt 0.177512 0.777645
vt 0.006941 0.777687
vt 0.892437 0.317355
vt 0.885704 0.319257
vt 0.879631 0.287703
vt 0.586362 0.385333
vt 0.579817 0.387126
vt 0.579568 0.357437
vt 0.370694 0.989321
vt 0.371029 0.959797
vt 0.442838 0.960722
vt 0.748545 0.488099
vt 0.749318 0.494983
vt 0.718195 0.495436
vt 0.836176 0.125250
vt 0.850517 0.149568
vt 0.844628 0.151667
vt 0.319423 0.099941
vt 0.319322 0.130795
vt 0.007319 0.129750
vt 0.371269 0.930272
vt 0.371421 0.900745
vt 0.443231 0.901668
vt 0.007419 0.098896
vt 0.763884 0.080481
vt 0.765981 0.074365
vt 0.789700 0.092175
vt 0.443302 0.872141
vt 0.442833 0.370188
vt 0.442778 0.399714
vt 0.229046 0.370189
vt 0.319626 0.038233
vt 0.319524 0.069087
vt 0.007520 0.068042
vt 0.808610 0.476251
vt 0.779839 0.488518
vt 0.777761 0.481894
vt 0.176640 0.685087
vt 0.176742 0.715941
vt 0.006716 0.715979
vt 0.371495 0.841694
vt 0.371443 0.812167
vt 0.443254 0.813086
vt 0.006614 0.685125
vt 0.006467 0.407437
vt 0.006543 0.376583
vt 0.176492 0.407399
vt 0.892437 0.349226
vt 0.886228 0.380492
vt 0.885423 0.348954
vt 0.599888 0.122511
vt 0.605204 0.126737
vt 0.589057 0.151745
vt 0.443305 0.193031
vt 0.443252 0.222558
vt 0.371495 0.193949
vt 0.636826 0.456466
vt 0.632640 0.461897
vt 0.610260 0.440534
vt 0.735929 0.074111
vt 0.736753 0.067631
vt 0.442837 0.665456
vt 0.229049 0.665457
vt 0.442780 0.635930
vt 0.006361 0.469146
vt 0.006405 0.438291
vt 0.176387 0.469108
vt 0.007613 0.962812
vt 0.319616 0.961631
vt 0.319730 0.992485
vt 0.598317 0.411848
vt 0.592437 0.415287
vt 0.442678 0.547349
vt 0.228890 0.547350
vt 0.443160 0.252098
vt 0.371348 0.252525
vt 0.371442 0.223476
vt 0.442504 0.990249
vt 0.319126 0.192504
vt 0.319029 0.223358
vt 0.621946 0.100560
vt 0.647824 0.083609
vt 0.626230 0.105756
vt 0.371492 0.871219
vt 0.615392 0.436018
vt 0.442732 0.429241
vt 0.442698 0.458768
vt 0.228944 0.429242
vt 0.007499 0.931958
vt 0.879533 0.378395
vt 0.867982 0.406513
vt 0.572791 0.357181
vt 0.443237 0.133976
vt 0.371427 0.134897
vt 0.371280 0.105372
vt 0.442853 0.074922
vt 0.443090 0.104449
vt 0.371043 0.075847
vt 0.007727 0.006334
vt 0.319730 0.007378
vt 0.578089 0.326242
vt 0.443305 0.163503
vt 0.371495 0.164423
vt 0.006727 0.314875
vt 0.176753 0.314837
vt 0.319502 0.930776
vt 0.006337 0.500000
vt 0.176362 0.499962
vt 0.792953 0.086670
vt 0.816609 0.103895
vt 0.812355 0.108585
vt 0.176549 0.654233
vt 0.650942 0.089526
vt 0.006828 0.284020
vt 0.177399 0.283987
vt 0.661830 0.472412
vt 0.658752 0.478560
vt 0.571207 0.326153
vt 0.006524 0.654271
vt 0.442901 0.694984
vt 0.229113 0.694984
vt 0.007122 0.191458
vt 0.831035 0.128981
vt 0.006390 0.592562
vt 0.176415 0.592525
vt 0.006448 0.623417
vt 0.805300 0.470133
vt 0.228990 0.399716
vt 0.582798 0.148853
vt 0.176430 0.438254
vt 0.886223 0.285996
vt 0.706979 0.073452
vt 0.706468 0.066881
vt 0.176474 0.623379
vt 0.229109 0.340661
vt 0.834553 0.458608
vt 0.676401 0.072253
vt 0.228992 0.635930
vt 0.228946 0.606403
vt 0.442734 0.606402
vt 0.443079 0.931196
vt 0.442700 0.576876
vt 0.176377 0.561671
vt 0.228912 0.576877
vt 0.442967 0.311134
vt 0.370467 0.312068
vt 0.443056 0.281620
vt 0.370712 0.046322
vt 0.830124 0.453224
vt 0.007220 0.160604
vt 0.370705 0.281246
vt 0.176359 0.530816
vt 0.443305 0.842613
vt 0.874138 0.409852
vt 0.851292 0.431762
vt 0.442897 0.340661
vt 0.007276 0.870250
vt 0.319278 0.869069
vt 0.319390 0.899923
vt 0.678244 0.078632
vt 0.006334 0.530854
vt 0.006351 0.561708
vt 0.856681 0.436209
vt 0.443163 0.783546
vt 0.007728 0.993666
vt 0.007623 0.037188
vt 0.007387 0.901104
vt 0.319224 0.161649
vt 0.442522 0.045396
vt 0.006827 0.746834
vt 0.007165 0.839396
vt 0.007055 0.808541
vt 0.177771 0.808498
vt 0.319168 0.838215
vt 0.573209 0.178195
vt 0.579868 0.178984
vt 0.006727 0.314875
vt 0.006828 0.284020
vt 0.176753 0.314837
vt 0.371492 0.871219
vt 0.371495 0.841694
vt 0.443305 0.842613
vt 0.443163 0.783546
vt 0.371352 0.783117
vt 0.443060 0.754024
vt 0.615392 0.436018
vt 0.610260 0.440534
vt 0.592437 0.415287
vt 0.007055 0.808541
vt 0.006941 0.777687
vt 0.177771 0.808498
vt 0.443160 0.252098
vt 0.443056 0.281620
vt 0.371348 0.252525
vt 0.647824 0.083609
vt 0.650942 0.089526
vt 0.626230 0.105756
vt 0.006827 0.746834
vt 0.176852 0.746796
vt 0.706468 0.066881
vt 0.736753 0.067631
vt 0.735929 0.074111
vt 0.816609 0.103895
vt 0.836176 0.125250
vt 0.831035 0.128981
vt 0.442967 0.311134
vt 0.370467 0.312068
vt 0.006929 0.253167
vt 0.177644 0.253134
vt 0.442971 0.724510
vt 0.370472 0.723575
vt 0.442670 0.517822
vt 0.228883 0.517823
vt 0.228889 0.488295
vt 0.765981 0.074365
vt 0.763884 0.080481
vt 0.579817 0.387126
vt 0.586362 0.385333
vt 0.621946 0.100560
vt 0.605204 0.126737
vt 0.706979 0.073452
vt 0.678244 0.078632
vt 0.792953 0.086670
vt 0.812355 0.108585
vt 0.676401 0.072253
vt 0.789700 0.092175
vt 0.599888 0.122511
vt 0.589057 0.151745
vt 0.582798 0.148853
vt 0.579868 0.178984
vt 0.850517 0.149568
vt 0.844628 0.151667
vt 0.572791 0.357181
vt 0.571207 0.326153
vt 0.578089 0.326242
vt 0.579568 0.357437
vt 0.892437 0.349226
vt 0.885423 0.348954
vt 0.885704 0.319257
vt 0.886223 0.285996
vt 0.879631 0.287703
vt 0.636826 0.456466
vt 0.632640 0.461897
vt 0.874138 0.409852
vt 0.856681 0.436209
vt 0.851292 0.431762
vt 0.661830 0.472412
vt 0.658752 0.478560
vt 0.689480 0.483245
vt 0.687628 0.489885
vt 0.718747 0.488548
vt 0.718195 0.495436
vt 0.779839 0.488518
vt 0.749318 0.494983
vt 0.748545 0.488099
vt 0.808610 0.476251
vt 0.777761 0.481894
vt 0.834553 0.458608
vt 0.805300 0.470133
vt 0.830124 0.453224
vt 0.573209 0.178195
vt 0.886228 0.380492
vt 0.867982 0.406513
vt 0.879533 0.378395
vt 0.370709 0.754396
vt 0.319322 0.130795
vt 0.319224 0.161649
vt 0.007220 0.160604
vt 0.007387 0.901104
vt 0.319390 0.899923
vt 0.319502 0.930776
vt 0.442778 0.399714
vt 0.228990 0.399716
vt 0.229046 0.370189
vt 0.007499 0.931958
vt 0.319616 0.961631
vt 0.006361 0.469146
vt 0.176387 0.469108
vt 0.176362 0.499962
vt 0.442678 0.488295
vt 0.228910 0.458769
vt 0.007727 0.006334
vt 0.319730 0.007378
vt 0.319626 0.038233
vt 0.228890 0.547350
vt 0.007613 0.962812
vt 0.319730 0.992485
vt 0.228946 0.606403
vt 0.228912 0.576877
vt 0.442700 0.576876
vt 0.228992 0.635930
vt 0.442734 0.606402
vt 0.442833 0.370188
vt 0.229109 0.340661
vt 0.229113 0.694984
vt 0.229049 0.665457
vt 0.442837 0.665456
vt 0.442901 0.694984
vt 0.370705 0.281246
vt 0.371443 0.812167
vt 0.443254 0.813086
vt 0.892437 0.317355
vt 0.371421 0.900745
vt 0.443302 0.872141
vt 0.371269 0.930272
vt 0.443231 0.901668
vt 0.007276 0.870250
vt 0.319278 0.869069
vt 0.006405 0.438291
vt 0.176430 0.438254
vt 0.443090 0.104449
vt 0.371280 0.105372
vt 0.371043 0.075847
vt 0.443237 0.133976
vt 0.371427 0.134897
vt 0.443305 0.163503
vt 0.371495 0.164423
vt 0.443305 0.193031
vt 0.371495 0.193949
vt 0.443252 0.222558
vt 0.371442 0.223476
vt 0.177399 0.283987
vt 0.006543 0.376583
vt 0.176568 0.376545
vt 0.176492 0.407399
vt 0.006467 0.407437
vt 0.007165 0.839396
vt 0.319168 0.838215
vt 0.370694 0.989321
vt 0.371029 0.959797
vt 0.442838 0.960722
vt 0.442780 0.635930
vt 0.442698 0.458768
vt 0.228944 0.429242
vt 0.006337 0.500000
vt 0.176359 0.530816
vt 0.319524 0.069087
vt 0.007520 0.068042
vt 0.319423 0.099941
vt 0.007419 0.098896
vt 0.007319 0.129750
vt 0.442897 0.340661
vt 0.319126 0.192504
vt 0.007122 0.191458
vt 0.319029 0.223358
vt 0.007025 0.222313
vt 0.177512 0.777645
vt 0.443079 0.931196
vt 0.176656 0.345691
vt 0.006631 0.345729
vt 0.442853 0.074922
vt 0.370712 0.046322
vt 0.442732 0.429241
vt 0.442678 0.547349
vt 0.176377 0.561671
vt 0.006351 0.561708
vt 0.176415 0.592525
vt 0.006390 0.592562
vt 0.176474 0.623379
vt 0.006448 0.623417
vt 0.176549 0.654233
vt 0.006524 0.654271
vt 0.176640 0.685087
vt 0.006614 0.685125
vt 0.176742 0.715941
vt 0.006716 0.715979
vt 0.598317 0.411848
vt 0.007623 0.037188
vt 0.007728 0.993666
vt 0.442504 0.990249
vt 0.006334 0.530854
vt 0.442522 0.045396
vt 0.103870 0.076834
vt 0.115562 0.065142
vt 0.129303 0.055959
vt 0.094683 0.170106
vt 0.129310 0.204732
vt 0.115562 0.195546
vt 0.208826 0.204735
vt 0.177339 0.214285
vt 0.088356 0.154828
vt 0.085130 0.138611
vt 0.085130 0.122076
vt 0.088355 0.105859
vt 0.160804 0.214285
vt 0.144587 0.211060
vt 0.193554 0.049628
vt 0.208831 0.055955
vt 0.222579 0.065141
vt 0.243459 0.090582
vt 0.249787 0.105860
vt 0.253013 0.122077
vt 0.234272 0.183855
vt 0.222573 0.195552
vt 0.144577 0.049631
vt 0.160801 0.046402
vt 0.193556 0.211059
vt 0.249787 0.154830
vt 0.177337 0.046402
vt 0.234272 0.076833
vt 0.243459 0.170107
vt 0.094683 0.090583
vt 0.103870 0.183854
vt 0.253013 0.138613
vt 0.606547 0.945139
vt 0.550320 0.962192
vt 0.402720 0.883300
vt 0.385660 0.827061
vt 0.464542 0.679467
vt 0.579275 0.668161
vt 0.668391 0.741294
vt 0.685451 0.797535
vt 0.491833 0.956433
vt 0.464554 0.945133
vt 0.391420 0.768574
vt 0.419124 0.716744
vt 0.491816 0.668167
vt 0.631106 0.695864
vt 0.651986 0.716743
vt 0.679690 0.856022
vt 0.651985 0.907853
vt 0.579279 0.956432
vt 0.520792 0.962193
vt 0.440003 0.928729
vt 0.419124 0.907851
vt 0.391421 0.856020
vt 0.385660 0.797533
vt 0.402719 0.741295
vt 0.440003 0.695865
vt 0.520788 0.662401
vt 0.550315 0.662401
vt 0.606555 0.679459
vt 0.679692 0.768575
vt 0.685451 0.827063
vt 0.668390 0.883302
vt 0.631095 0.928740
vt 0.443713 0.231131
vt 0.455405 0.219439
vt 0.469147 0.210256
vt 0.434527 0.324402
vt 0.469154 0.359029
vt 0.455406 0.349843
vt 0.548670 0.359032
vt 0.517183 0.368582
vt 0.428200 0.309125
vt 0.424973 0.292908
vt 0.424973 0.276373
vt 0.428199 0.260156
vt 0.500648 0.368582
vt 0.484431 0.365357
vt 0.533398 0.203925
vt 0.548675 0.210252
vt 0.562423 0.219438
vt 0.583303 0.244879
vt 0.589631 0.260156
vt 0.592857 0.276374
vt 0.574115 0.338152
vt 0.562417 0.349849
vt 0.484421 0.203928
vt 0.500645 0.200699
vt 0.533400 0.365356
vt 0.589630 0.309127
vt 0.517180 0.200699
vt 0.574116 0.231130
vt 0.583302 0.324403
vt 0.434527 0.244880
vt 0.443713 0.338151
vt 0.592857 0.292910
vt 0.685451 0.797535
vt 0.685451 0.827063
vt 0.679690 0.856022
vt 0.668391 0.741294
vt 0.679692 0.768575
vt 0.520788 0.662401
vt 0.550315 0.662401
vt 0.579275 0.668161
vt 0.491816 0.668167
vt 0.651986 0.716743
vt 0.668390 0.883302
vt 0.651985 0.907853
vt 0.631095 0.928740
vt 0.606547 0.945139
vt 0.606555 0.679459
vt 0.631106 0.695864
vt 0.402720 0.883300
vt 0.464554 0.945133
vt 0.440003 0.928729
vt 0.550320 0.962192
vt 0.491833 0.956433
vt 0.419124 0.907851
vt 0.391421 0.856020
vt 0.385660 0.827061
vt 0.579279 0.956432
vt 0.419124 0.716744
vt 0.440003 0.695865
vt 0.464542 0.679467
vt 0.520792 0.962193
vt 0.391420 0.768574
vt 0.402719 0.741295
vt 0.385660 0.797533
vn -0.6942 0.0000 -0.7198
vn 0.6942 0.0000 0.7198
vn 0.7198 0.0000 -0.6942
vn -0.7198 0.0000 0.6942
vn 0.0000 -1.0000 -0.0000
vn 0.0000 1.0000 0.0000
vn 0.7201 0.0000 -0.6939
vn -0.4836 0.7177 -0.5011
vn -0.7201 -0.0000 0.6939
vn 0.7196 0.0000 -0.6944
vn -0.7196 -0.0000 0.6944
vn 0.6945 0.0000 0.7195
vn 0.4836 0.7177 0.5011
vn -0.6945 0.0000 -0.7195
vn -0.5562 -0.6002 -0.5748
vn 0.4229 -0.7998 0.4260
vn 0.5232 -0.6674 0.5300
vn -0.0936 -0.9900 -0.1059
vn 0.7118 0.0129 -0.7022
vn 0.3482 0.8644 0.3627
vn 0.4639 0.7446 0.4799
vn 0.5232 -0.6674 0.5299
vn 0.4629 0.7447 0.4808
vn 0.7198 0.0007 -0.6942
vn 0.7281 -0.0036 -0.6855
vn -0.5344 0.6672 -0.5188
vn 0.7098 0.0119 -0.7043
vn 0.7174 0.0044 -0.6967
vn -0.6903 0.1412 -0.7096
vn -0.3163 0.9014 -0.2958
vn 0.7159 0.0065 -0.6981
vn -0.1867 0.9685 -0.1648
vn 0.0427 -0.9985 0.0347
vn -0.6014 0.5093 -0.6156
vn 0.7082 0.0071 -0.7060
vn 0.6283 0.4326 0.6467
vn 0.0887 0.9899 0.1107
vn 0.0434 -0.9985 0.0340
vn 0.7161 0.0014 -0.6980
vn 0.7150 0.0017 -0.6991
vn -0.6331 -0.4326 -0.6419
vn 0.7168 0.0124 -0.6972
vn 0.7153 0.0063 -0.6988
vn 0.6755 0.2484 0.6943
vn 0.3072 -0.9016 0.3047
vn 0.7101 0.0116 -0.7040
vn -0.4209 0.7999 -0.4279
vn -0.6585 0.3316 -0.6756
vn 0.7189 0.0075 -0.6950
vn 0.6034 -0.5093 0.6136
vn -0.5594 -0.5987 -0.5733
vn 0.7154 0.0060 -0.6987
vn -0.6268 -0.4326 -0.6481
vn 0.7145 0.0031 -0.6996
vn 0.7172 0.0104 -0.6968
vn 0.3062 -0.9016 0.3056
vn -0.3044 0.9016 -0.3073
vn 0.7140 -0.0002 -0.7001
vn 0.7248 -0.0088 -0.6889
vn -0.7021 0.1412 -0.6980
vn -0.6712 0.3315 -0.6630
vn -0.5212 0.6674 -0.5320
vn 0.7193 -0.0004 -0.6947
vn -0.7059 -0.0546 -0.7062
vn -0.2270 -0.9434 -0.2418
vn 0.7089 0.0094 -0.7052
vn 0.4238 -0.7999 0.4249
vn 0.7166 0.0057 -0.6975
vn 0.6761 0.2484 0.6937
vn 0.7114 0.0134 -0.7026
vn 0.7142 0.0031 -0.6999
vn -0.3517 -0.8606 -0.3684
vn 0.7151 0.0138 -0.6989
vn 0.7187 -0.0010 -0.6953
vn 0.6278 0.4326 0.6471
vn 0.5592 0.6002 0.5719
vn 0.7176 0.0051 -0.6965
vn 0.6930 -0.1412 0.7069
vn 0.7087 0.0067 -0.7055
vn 0.7155 0.0019 -0.6987
vn 0.1787 -0.9686 0.1727
vn 0.7179 0.0103 -0.6961
vn 0.3062 -0.9016 0.3055
vn 0.7830 -0.4202 0.4586
vn 0.7147 0.0058 -0.6994
vn 0.6980 0.0547 0.7140
vn -0.0941 -0.9900 -0.1054
vn 0.7082 0.0044 -0.7059
vn -0.5579 -0.5954 -0.5782
vn 0.7144 0.0040 -0.6997
vn 0.6972 0.0546 0.7148
vn -0.4337 0.7997 -0.4152
vn 0.6921 -0.1412 0.7078
vn 0.6615 -0.3316 0.6727
vn 0.1779 -0.9686 0.1735
vn 0.6604 -0.3317 0.6737
vn 0.7148 0.0056 -0.6993
vn -0.3507 -0.8606 -0.3694
vn -0.6146 0.5092 -0.6025
vn 0.7087 0.0097 -0.7054
vn 0.7092 0.0039 -0.7050
vn -0.6956 -0.0546 -0.7163
vn -0.4657 -0.7396 -0.4859
vn 0.5242 -0.6674 0.5289
vn 0.6604 -0.3316 0.6737
vn -0.0500 0.9984 -0.0276
vn 0.7121 0.0002 -0.7021
vn 0.7166 0.0065 -0.6975
vn -0.2240 -0.9434 -0.2447
vn -0.6826 -0.2484 -0.6873
vn -0.0414 0.9985 -0.0359
vn 0.7181 0.0078 -0.6959
vn 0.7144 0.0049 -0.6997
vn 0.6045 -0.5093 0.6126
vn -0.4629 -0.7447 -0.4808
vn -0.3163 0.9014 -0.2957
vn -0.3530 -0.8593 -0.3701
vn 0.7104 0.0017 -0.7038
vn 0.2240 0.9433 0.2448
vn -0.5592 -0.6002 -0.5719
vn -0.6742 -0.2484 -0.6956
vn -0.6147 0.5092 -0.6025
vn 0.7157 0.0122 -0.6983
vn 0.5563 0.6001 0.5748
vn 0.7149 0.0024 -0.6992
vn 0.7269 -0.0044 -0.6867
vn 0.2270 0.9434 0.2418
vn 0.3517 0.8606 0.3684
vn 0.6980 0.0546 0.7140
vn 0.4238 -0.7999 0.4250
vn 0.7171 0.0059 -0.6969
vn 0.6044 -0.5093 0.6126
vn 0.7138 0.0132 -0.7002
vn -0.2207 -0.9467 -0.2347
vn -0.5211 0.6674 -0.5319
vn 0.7171 0.0052 -0.6970
vn 0.7200 0.0016 -0.6939
vn -0.4643 -0.7447 -0.4794
vn 0.0951 0.9900 0.1045
vn 0.8231 -0.2412 0.5142
vn 0.2239 0.9454 0.2368
vn 0.5265 -0.8250 0.2052
vn 0.7141 0.0040 -0.7000
vn 0.7246 -0.0105 -0.6891
vn 0.7156 0.0013 -0.6985
vn 0.7145 -0.0013 -0.6997
vn 0.7123 -0.0007 -0.7018
vn 0.5601 0.5923 0.5792
vn 0.7143 0.0050 -0.6998
vn 0.2234 0.9440 0.2429
vn 0.7176 0.0046 -0.6964
vn 0.5562 0.6002 0.5748
vn -0.1763 0.9686 -0.1750
vn -0.6956 -0.0546 -0.7164
vn 0.7145 0.0023 -0.6996
vn 0.7105 0.0002 -0.7037
vn 0.7161 0.0019 -0.6980
vn -0.4337 0.7997 -0.4153
vn 0.7132 0.0142 -0.7008
vn -0.1763 0.9687 -0.1750
vn 0.6375 -0.7067 0.3069
vn -0.7059 -0.0547 -0.7062
vn 0.7092 0.0020 -0.7050
vn 0.6754 0.2484 0.6943
vn 0.3502 0.8605 0.3700
vn 0.4617 0.7463 0.4794
vn 0.7160 0.0061 -0.6981
vn 0.5234 -0.6674 0.5298
vn 0.4647 0.7446 0.4791
vn -0.3514 -0.8606 -0.3687
vn -0.4652 -0.7447 -0.4785
vn 0.3509 0.8605 0.3693
vn -0.4637 -0.7447 -0.4800
vn 0.3525 0.8606 0.3677
vn 0.4637 0.7447 0.4800
vn -0.3525 -0.8606 -0.3677
vn -0.0499 0.9984 -0.0277
vn 0.7181 0.0102 -0.6959
vn 0.7173 0.0052 -0.6967
vn 0.7152 0.0056 -0.6989
vn 0.7146 0.0033 -0.6996
vn 0.7157 0.0061 -0.6984
vn 0.7179 0.0046 -0.6962
vn 0.7147 0.0050 -0.6994
vn 0.7169 0.0058 -0.6972
vn 0.7147 0.0041 -0.6994
vn 0.7163 0.0062 -0.6978
vn 0.7153 0.0018 -0.6988
vn 0.7159 0.0015 -0.6982
vn 0.7176 0.0044 -0.6965
vn 0.7189 -0.0007 -0.6952
vn 0.7246 -0.0080 -0.6891
vn 0.7245 -0.0097 -0.6892
vn 0.7893 -0.4190 0.4488
vn 0.7170 0.0123 -0.6970
vn 0.7111 0.0004 -0.7031
vn 0.7154 0.0135 -0.6985
vn 0.7137 0.0137 -0.7003
vn 0.7119 0.0131 -0.7022
vn 0.7094 0.0095 -0.7047
vn 0.7089 0.0071 -0.7053
vn 0.7090 0.0044 -0.7052
vn 0.7097 0.0022 -0.7045
vn 0.5330 -0.8229 0.1969
vn 0.7128 -0.0004 -0.7014
vn 0.7149 -0.0009 -0.6993
vn 0.4625 0.7463 0.4786
vn -0.6962 -0.0546 -0.7157
vn -0.1760 0.9687 -0.1754
vn 0.0423 -0.9985 0.0351
vn -0.3042 0.9016 -0.3075
vn 0.4239 -0.7998 0.4249
vn 0.4229 -0.7998 0.4259
vn -0.5213 0.6674 -0.5318
vn 0.6038 -0.5093 0.6133
vn -0.4208 0.7999 -0.4279
vn 0.6927 -0.1412 0.7072
vn 0.6979 0.0546 0.7141
vn -0.0947 -0.9900 -0.1049
vn 0.6286 0.4326 0.6463
vn 0.5609 0.5923 0.5784
vn -0.3538 -0.8593 -0.3693
vn -0.4665 -0.7396 -0.4852
vn 0.0890 0.9899 0.1104
vn 0.7104 0.0116 -0.7037
vn 0.2239 0.9440 0.2423
vn 0.7199 0.0009 -0.6941
vn -0.1869 0.9685 -0.1647
vn -0.3167 0.9014 -0.2954
vn -0.0409 0.9985 -0.0364
vn 0.3071 -0.9016 0.3047
vn -0.6723 0.3315 -0.6619
vn -0.7031 0.1412 -0.6969
vn -0.7070 -0.0546 -0.7051
vn -0.6837 -0.2484 -0.6861
vn -0.6342 -0.4325 -0.6409
vn -0.5603 -0.5987 -0.5724
vn 0.3490 0.8644 0.3619
vn 0.0430 -0.9985 0.0344
vn 0.1785 -0.9686 0.1729
vn 0.0957 0.9900 0.1039
vn -0.5352 0.6672 -0.5181
vn 0.6762 0.2484 0.6935
vn 0.3061 -0.9016 0.3057
vn 0.5245 -0.6674 0.5287
vn -0.6016 0.5093 -0.6153
vn -0.6589 0.3316 -0.6752
vn -0.6909 0.1412 -0.7091
vn -0.2214 -0.9467 -0.2341
vn -0.6749 -0.2484 -0.6949
vn -0.6276 -0.4326 -0.6473
vn -0.5587 -0.5954 -0.5774
vn -0.4343 0.7997 -0.4147
vn -0.2277 -0.9434 -0.2412
vn -0.0942 -0.9900 -0.1054
vn 0.2277 0.9434 0.2412
vn -0.6155 0.5092 -0.6016
vn 0.1776 -0.9686 0.1737
vn 0.6609 -0.3316 0.6732
vn 0.6049 -0.5093 0.6122
vn 0.6620 -0.3316 0.6721
vn 0.6937 -0.1412 0.7063
vn 0.6988 0.0546 0.7133
vn 0.6769 0.2484 0.6929
vn 0.6291 0.4326 0.6458
vn 0.5571 0.6002 0.5740
vn -0.3525 -0.8606 -0.3676
vn -0.0499 0.9984 -0.0276
vn 0.7183 0.0077 -0.6957
vn 0.7174 0.0059 -0.6966
vn 0.7151 0.0057 -0.6990
vn 0.7149 0.0033 -0.6992
vn 0.7156 0.0062 -0.6985
vn 0.7191 0.0074 -0.6949
vn 0.7152 0.0026 -0.6989
vn 0.7148 0.0050 -0.6993
vn 0.7169 0.0064 -0.6972
vn 0.7145 0.0041 -0.6996
vn 0.7162 0.0065 -0.6978
vn 0.7158 0.0021 -0.6983
vn 0.7164 0.0020 -0.6977
vn 0.7178 0.0052 -0.6963
vn 0.7194 -0.0001 -0.6946
vn 0.7278 -0.0032 -0.6857
vn 0.7267 -0.0040 -0.6869
vn 0.8293 -0.2403 0.5046
vn 0.7174 0.0102 -0.6966
vn 0.7125 0.0005 -0.7017
vn 0.7160 0.0120 -0.6980
vn 0.7142 0.0128 -0.6998
vn 0.7124 0.0126 -0.7017
vn 0.7096 0.0092 -0.7046
vn 0.7093 0.0066 -0.7049
vn 0.7098 0.0040 -0.7044
vn 0.7109 0.0019 -0.7033
vn 0.6440 -0.7046 0.2979
vn 0.7144 0.0001 -0.6997
vn 0.7164 0.0016 -0.6977
vn -0.6963 -0.0546 -0.7157
vn -0.5212 0.6674 -0.5318
vn 0.5602 0.6002 0.5710
vn 0.7106 0.0114 -0.7035
vn 0.2245 0.9433 0.2443
vn 0.7202 0.0018 -0.6938
vn -0.7032 0.1412 -0.6969
vn -0.7070 -0.0547 -0.7051
vn -0.6837 -0.2484 -0.6862
vn -0.6342 -0.4326 -0.6408
vn -0.5602 -0.6003 -0.5709
vn -0.2245 -0.9434 -0.2442
vn -0.5571 -0.6002 -0.5739
vn -0.4343 0.7996 -0.4147
vn 0.2246 0.9454 0.2361
vn -0.6156 0.5091 -0.6016
vn 0.5571 0.6002 0.5739
vn 0.4228 -0.7999 0.4260
vn 0.7119 0.0129 -0.7022
vn 0.7198 0.0007 -0.6941
vn 0.7281 -0.0037 -0.6854
vn 0.7173 0.0043 -0.6967
vn 0.7159 0.0066 -0.6981
vn 0.7081 0.0071 -0.7060
vn 0.7150 0.0016 -0.6991
vn 0.7101 0.0117 -0.7040
vn 0.7189 0.0075 -0.6951
vn 0.7153 0.0060 -0.6988
vn -0.5344 0.6673 -0.5188
vn 0.7247 -0.0087 -0.6890
vn 0.7192 -0.0004 -0.6948
vn 0.7166 0.0058 -0.6975
vn 0.7114 0.0135 -0.7026
vn -0.6712 0.3316 -0.6630
vn -0.6268 -0.4325 -0.6481
vn 0.7154 0.0020 -0.6987
vn 0.7147 0.0059 -0.6994
vn 0.7083 0.0044 -0.7059
vn -0.4657 -0.7396 -0.4860
vn 0.5242 -0.6674 0.5290
vn 0.7166 0.0064 -0.6975
vn 0.6972 0.0547 0.7148
vn 0.7144 0.0050 -0.6997
vn -0.0941 -0.9900 -0.1055
vn 0.4228 -0.7998 0.4260
vn -0.6147 0.5091 -0.6025
vn -0.6741 -0.2484 -0.6956
vn 0.7172 0.0059 -0.6969
vn 0.5265 -0.8251 0.2051
vn 0.7141 0.0041 -0.7000
vn 0.7124 -0.0007 -0.7018
vn 0.7176 0.0045 -0.6964
vn 0.7106 0.0002 -0.7036
vn -0.6331 -0.4325 -0.6419
vn 0.6375 -0.7067 0.3070
vn 0.7181 0.0101 -0.6959
vn 0.7145 0.0032 -0.6996
vn 0.7173 0.0051 -0.6967
vn 0.4647 0.7447 0.4791
vn 0.7148 0.0024 -0.6993
vn 0.7163 0.0061 -0.6978
vn 0.7160 0.0016 -0.6981
vn 0.7176 0.0045 -0.6965
vn 0.7189 -0.0006 -0.6951
vn 0.7246 -0.0081 -0.6891
vn 0.7154 0.0135 -0.6986
vn 0.7137 0.0138 -0.7003
vn 0.7119 0.0131 -0.7021
vn 0.7094 0.0095 -0.7048
vn 0.7088 0.0071 -0.7054
vn 0.6037 -0.5093 0.6133
vn 0.7105 0.0116 -0.7036
vn -0.6589 0.3317 -0.6752
vn -0.5587 -0.5953 -0.5774
vn -0.6155 0.5091 -0.6016
vn 0.6987 0.0546 0.7133
vn -0.3524 -0.8606 -0.3676
vn 0.7183 0.0076 -0.6957
vn 0.7151 0.0058 -0.6990
vn 0.7190 0.0073 -0.6949
vn 0.7145 0.0042 -0.6996
vn 0.7162 0.0066 -0.6978
vn 0.7163 0.0020 -0.6978
vn 0.7279 -0.0031 -0.6857
vn 0.8292 -0.2404 0.5046
vn 0.7174 0.0101 -0.6966
vn 0.7126 0.0005 -0.7016
vn 0.7123 0.0126 -0.7017
vn 0.7095 0.0093 -0.7047
vn 0.7094 0.0066 -0.7048
vn 0.7110 0.0019 -0.7032
vn 0.4239 -0.7999 0.4249
vn 0.4229 -0.7999 0.4259
vn 0.7107 0.0114 -0.7034
vn 0.7201 0.0018 -0.6938
vn -0.3166 0.9014 -0.2954
vn -0.5602 -0.6002 -0.5709
vn -0.5571 -0.6002 -0.5740
vn 0.7173 0.0025 -0.6967
vn 0.7172 0.0025 -0.6968
vn 0.7171 0.0027 -0.6969
vn 0.7173 0.0025 -0.6968
vn 0.7173 0.0024 -0.6968
vn 0.7175 0.0022 -0.6966
vn 0.7175 0.0024 -0.6966
vn 0.7179 0.0032 -0.6961
vn 0.7175 0.0022 -0.6965
vn 0.7177 0.0024 -0.6963
vn 0.7174 0.0025 -0.6967
vn 0.7174 0.0025 -0.6966
vn 0.7176 0.0022 -0.6965
vn 0.7173 0.0021 -0.6967
vn 0.7174 0.0024 -0.6967
vn 0.7175 0.0024 -0.6965
vn 0.7174 0.0021 -0.6967
vn 0.7173 0.0026 -0.6968
vn 0.7175 0.0020 -0.6965
vn 0.7175 0.0026 -0.6965
vn 0.7178 0.0024 -0.6963
vn 0.7176 0.0022 -0.6964
vn 0.7176 0.0026 -0.6965
vn 0.7175 0.0027 -0.6966
vn 0.7175 0.0027 -0.6965
vn 0.7179 0.0025 -0.6962
vn 0.7177 0.0024 -0.6964
vn 0.7177 0.0025 -0.6964
vn 0.7181 0.0034 -0.6960
vn 0.7176 0.0027 -0.6964
vn 0.7174 0.0027 -0.6967
vn 0.7172 0.0026 -0.6969
vn 0.7174 0.0023 -0.6967
vn 0.7178 0.0031 -0.6962
vn 0.7177 0.0023 -0.6963
vn 0.7175 0.0021 -0.6965
vn 0.7178 0.0022 -0.6963
vn 0.7178 0.0025 -0.6963
vn 0.7179 0.0024 -0.6962
vn 0.7181 0.0033 -0.6960
vn 0.7175 0.0026 -0.6966
vn 0.7175 0.0028 -0.6966
vn 0.7176 0.0027 -0.6965
vn 0.7176 0.0023 -0.6964
g Ksrangiersignal_Plane.006_Mast
s off
f 13/1/1 12/2/1 11/3/1 14/4/1
f 9/5/2 16/6/2 15/7/2 10/8/2
f 16/9/3 13/10/3 14/11/3 15/12/3
f 12/13/4 9/14/4 10/15/4 11/16/4
f 21/17/4 20/18/4 19/19/4 22/20/4
f 24/21/1 21/22/1 22/23/1 23/24/1
f 20/25/2 17/26/2 18/27/2 19/28/2
f 24/21/1 23/24/1 11/3/1 12/2/1
f 17/29/5 24/30/5 12/31/5 9/32/5
f 18/27/2 17/26/2 9/5/2 10/8/2
f 23/33/6 18/34/6 10/35/6 11/36/6
f 19/37/6 18/34/6 23/33/6 22/38/6
f 11/36/6 10/35/6 15/39/6 14/40/6
f 3/41/1 2/42/1 12/2/1 13/1/1
f 1/43/2 4/44/2 16/6/2 9/5/2
f 4/45/3 3/46/3 13/10/3 16/9/3
f 2/47/4 1/48/4 9/14/4 12/13/4
f 7/49/4 6/50/4 20/18/4 21/17/4
f 5/51/3 8/52/3 24/53/3 17/54/3
f 8/55/1 7/56/1 21/22/1 24/21/1
f 6/57/2 5/58/2 17/26/2 20/25/2
g Ksrangiersignal_Plane.006_Schirm
f 465/59/5 470/60/5 28/61/5 32/62/5
f 465/63/7 32/64/7 29/65/7 467/66/7
f 468/67/8 472/68/8 26/69/8 30/70/8
f 470/71/9 469/72/9 25/73/9 28/74/9
f 32/62/5 28/61/5 27/75/5 31/76/5
f 32/64/10 31/77/10 30/78/10 29/65/10
f 30/70/6 26/69/6 25/79/6 29/80/6
f 28/74/11 25/73/11 26/81/11 27/82/11
f 31/77/7 466/83/7 468/84/7 30/78/7
f 27/82/9 26/81/9 472/85/9 471/86/9
f 467/87/12 469/88/12 470/89/12 465/90/12
f 29/80/13 25/79/13 469/91/13 467/92/13
f 31/76/5 27/75/5 471/93/5 466/94/5
f 466/95/14 471/96/14 472/97/14 468/98/14
g Ksrangiersignal_Plane.006_Lampenrahmen
f 95/99/15 93/100/15 96/101/15
f 143/102/16 144/103/16 142/104/16
f 143/102/17 145/105/17 144/103/17
f 37/106/18 38/107/18 40/108/18
f 110/109/19 112/110/19 46/111/19
f 100/112/20 98/113/20 97/114/20
f 159/115/21 97/114/21 160/116/21
f 145/105/22 146/117/22 144/103/22
f 64/118/23 66/119/23 65/120/23
f 66/121/24 130/122/24 132/123/24
f 100/124/25 36/125/25 98/126/25
f 114/127/26 112/128/26 111/129/26
f 114/130/27 50/131/27 48/132/27
f 72/133/28 70/134/28 134/135/28
f 86/136/29 88/137/29 87/138/29
f 110/139/30 108/140/30 107/141/30
f 85/142/29 86/136/29 87/138/29
f 142/143/31 78/144/31 140/145/31
f 107/141/32 108/140/32 105/146/32
f 135/147/33 137/148/33 136/149/33
f 82/150/34 84/151/34 83/152/34
f 54/153/35 52/154/35 116/155/35
f 60/156/36 62/157/36 61/158/36
f 104/159/37 102/160/37 101/161/37
f 59/162/36 60/156/36 61/158/36
f 41/163/38 39/164/38 42/165/38
f 64/166/39 62/167/39 128/168/39
f 90/169/40 154/170/40 156/171/40
f 123/172/41 125/173/41 124/174/41
f 106/175/42 42/176/42 40/177/42
f 144/178/43 80/179/43 142/143/43
f 155/180/44 156/181/44 153/182/44
f 45/183/45 43/184/45 46/185/45
f 112/110/46 114/130/46 48/132/46
f 77/186/47 78/187/47 80/188/47
f 84/151/48 86/136/48 85/142/48
f 102/189/49 38/190/49 100/124/49
f 147/191/50 148/192/50 145/105/50
f 127/193/51 128/194/51 126/195/51
f 80/179/52 78/144/52 142/143/52
f 113/196/26 114/127/26 111/129/26
f 92/197/53 94/198/53 93/100/53
f 88/199/54 86/200/54 152/201/54
f 108/140/32 106/202/32 105/146/32
f 104/203/55 106/175/55 40/177/55
f 139/204/56 141/205/56 140/206/56
f 77/186/57 75/207/57 78/187/57
f 126/208/58 62/167/58 124/209/58
f 36/125/59 34/210/59 98/126/59
f 119/211/60 120/212/60 118/213/60
f 115/214/61 117/215/61 116/216/61
f 79/217/62 80/218/62 82/150/62
f 98/126/63 34/210/63 160/219/63
f 121/220/64 122/221/64 120/212/64
f 35/222/65 36/223/65 38/107/65
f 116/155/66 52/154/66 114/130/66
f 75/207/57 76/224/57 78/187/57
f 47/225/67 45/183/67 48/226/67
f 76/227/68 74/228/68 138/229/68
f 58/230/69 60/156/69 59/162/69
f 112/110/70 48/132/70 46/111/70
f 86/200/71 150/231/71 152/201/71
f 33/232/72 34/233/72 36/223/72
f 108/234/73 44/235/73 42/176/73
f 34/210/74 96/236/74 160/219/74
f 57/237/69 58/230/69 59/162/69
f 117/215/61 118/213/61 116/216/61
f 157/238/75 158/239/75 155/180/75
f 159/115/76 160/116/76 157/238/76
f 91/240/53 92/197/53 93/100/53
f 136/241/77 72/133/77 134/135/77
f 53/242/78 54/243/78 55/244/78
f 118/245/79 54/153/79 116/155/79
f 137/148/33 138/246/33 136/149/33
f 92/247/80 90/169/80 156/171/80
f 43/184/81 41/163/81 44/248/81
f 104/203/82 40/177/82 38/190/82
f 37/106/65 35/222/65 38/107/65
f 141/205/83 142/104/83 140/206/83
f 70/134/84 68/249/84 132/123/84
f 146/250/85 82/251/85 144/178/85
f 56/252/86 58/230/86 57/237/86
f 135/147/87 136/149/87 134/253/87
f 56/254/88 54/153/88 118/245/88
f 93/100/89 94/198/89 96/101/89
f 150/231/90 86/200/90 84/255/90
f 154/256/91 152/257/91 151/258/91
f 111/129/92 112/128/92 109/259/92
f 151/258/93 152/257/93 149/260/93
f 52/261/94 54/243/94 53/242/94
f 137/148/95 139/204/95 138/246/95
f 149/260/96 150/262/96 147/191/96
f 152/257/93 150/262/93 149/260/93
f 35/222/72 33/232/72 36/223/72
f 82/251/97 80/179/97 144/178/97
f 131/263/98 132/264/98 129/265/98
f 115/214/99 116/216/99 114/266/99
f 52/154/100 50/131/100 114/130/100
f 120/267/101 56/254/101 118/245/101
f 87/138/102 88/137/102 89/268/102
f 129/265/103 130/269/103 128/194/103
f 39/164/18 37/106/18 40/108/18
f 47/225/104 48/226/104 50/270/104
f 150/262/105 148/192/105 147/191/105
f 105/146/106 106/202/106 103/271/106
f 124/209/107 60/272/107 122/273/107
f 140/145/108 76/227/108 138/229/108
f 131/263/109 133/274/109 132/264/109
f 121/220/110 123/172/110 122/221/110
f 71/275/111 72/276/111 74/277/111
f 153/182/91 154/256/91 151/258/91
f 102/189/112 104/203/112 38/190/112
f 84/255/113 82/251/113 148/278/113
f 49/279/114 50/270/114 51/280/114
f 96/101/115 34/233/115 33/232/115
f 109/259/116 110/139/116 107/141/116
f 133/274/87 135/147/87 134/253/87
f 132/264/117 130/269/117 129/265/117
f 122/273/118 58/281/118 120/267/118
f 101/161/119 102/160/119 99/282/119
f 125/173/120 127/193/120 126/195/120
f 79/283/47 77/186/47 80/188/47
f 95/99/115 96/101/115 33/232/115
f 81/284/34 82/150/34 83/152/34
f 73/285/111 71/275/111 74/277/111
f 117/215/60 119/211/60 118/213/60
f 141/205/16 143/102/16 142/104/16
f 89/268/121 90/286/121 91/240/121
f 113/287/122 115/214/122 114/266/122
f 106/175/123 108/234/123 42/176/123
f 61/158/124 62/157/124 63/288/124
f 63/288/23 64/118/23 65/120/23
f 90/169/125 88/199/125 154/170/125
f 66/121/126 64/166/126 130/122/126
f 43/184/45 44/248/45 46/185/45
f 39/164/38 40/108/38 42/165/38
f 69/289/127 67/290/127 68/291/127
f 90/286/121 92/197/121 91/240/121
f 67/290/128 65/120/128 68/291/128
f 54/243/78 56/252/78 55/244/78
f 106/202/106 104/159/106 103/271/106
f 55/244/129 56/252/129 57/237/129
f 45/183/130 46/185/130 48/226/130
f 138/229/131 74/228/131 136/241/131
f 103/271/37 104/159/37 101/161/37
f 50/270/132 52/261/132 51/280/132
f 123/172/110 124/174/110 122/221/110
f 108/234/133 110/109/133 44/235/133
f 133/274/134 134/253/134 132/264/134
f 81/284/135 79/217/135 82/150/135
f 74/228/136 72/133/136 136/241/136
f 68/249/137 66/121/137 132/123/137
f 127/193/138 129/265/138 128/194/138
f 71/275/139 69/289/139 72/276/139
f 49/279/104 47/225/104 50/270/104
f 134/135/140 70/134/140 132/123/140
f 70/292/141 69/289/141 68/291/141
f 51/280/94 52/261/94 53/242/94
f 94/293/142 158/294/142 160/219/142
f 148/278/143 150/231/143 84/255/143
f 158/239/75 156/181/75 155/180/75
f 64/166/144 128/168/144 130/122/144
f 41/163/81 42/165/81 44/248/81
f 65/120/128 66/119/128 68/291/128
f 92/247/145 156/171/145 158/294/145
f 62/167/146 126/208/146 128/168/146
f 62/167/147 60/272/147 124/209/147
f 160/116/148 158/239/148 157/238/148
f 82/251/149 146/250/149 148/278/149
f 102/160/150 100/112/150 99/282/150
f 69/289/139 70/292/139 72/276/139
f 38/190/151 36/125/151 100/124/151
f 62/157/152 64/118/152 63/288/152
f 83/152/48 84/151/48 85/142/48
f 75/207/153 73/285/153 76/224/153
f 88/137/154 90/286/154 89/268/154
f 88/199/155 152/201/155 154/170/155
f 139/204/95 140/206/95 138/246/95
f 60/272/156 58/281/156 122/273/156
f 94/293/157 92/247/157 158/294/157
f 112/128/158 110/139/158 109/259/158
f 125/173/41 126/195/41 124/174/41
f 110/109/159 46/111/159 44/235/159
f 73/285/160 74/277/160 76/224/160
f 96/236/161 94/293/161 160/219/161
f 119/211/162 121/220/162 120/212/162
f 58/281/163 56/254/163 120/267/163
f 156/181/164 154/256/164 153/182/164
f 148/192/50 146/117/50 145/105/50
f 99/282/165 100/112/165 97/114/165
f 97/114/166 98/113/166 160/116/166
f 78/144/167 76/227/167 140/145/167
f 176/295/168 175/296/168 177/297/168
f 162/298/169 224/299/169 161/300/169
f 190/301/170 189/302/170 192/303/170
f 194/304/171 192/303/171 193/305/171
f 222/306/172 221/307/172 224/299/172
f 226/308/173 225/309/173 288/310/173
f 254/311/174 256/312/174 253/313/174
f 258/314/175 257/315/175 256/312/175
f 286/316/176 288/310/176 285/317/176
f 215/318/177 217/319/177 218/320/177
f 217/321/178 281/322/178 283/323/178
f 247/324/179 249/325/179 185/326/179
f 239/327/180 241/328/180 177/329/180
f 235/330/181 171/331/181 169/332/181
f 241/328/182 243/333/182 179/334/182
f 283/323/183 285/335/183 221/336/183
f 233/337/125 169/332/125 167/338/125
f 239/327/184 175/339/184 173/340/184
f 245/341/185 247/324/185 183/342/185
f 171/331/186 235/330/186 237/343/186
f 243/333/187 245/341/187 181/344/187
f 231/345/188 167/338/188 165/346/188
f 229/347/189 165/346/189 163/348/189
f 249/325/190 251/349/190 187/350/190
f 287/351/191 225/352/191 161/353/191
f 285/335/192 287/351/192 223/354/192
f 257/355/193 193/356/193 191/357/193
f 251/349/194 253/358/194 189/359/194
f 215/360/195 279/361/195 281/322/195
f 261/362/196 263/363/196 199/364/196
f 213/365/197 277/366/197 279/361/197
f 211/367/198 275/368/198 277/366/198
f 209/369/199 273/370/199 275/368/199
f 269/371/200 271/372/200 207/373/200
f 267/374/201 269/371/201 205/375/201
f 265/376/202 267/374/202 203/377/202
f 263/363/203 265/376/203 201/378/203
f 227/379/204 163/348/204 161/353/204
f 259/380/205 261/362/205 197/381/205
f 259/380/206 195/382/206 193/356/206
f 224/299/207 223/383/207 161/300/207
f 233/384/208 231/385/208 232/386/208
f 248/387/209 247/388/209 245/389/209
f 184/390/210 183/391/210 185/392/210
f 246/393/211 245/389/211 243/394/211
f 276/395/212 275/396/212 273/397/212
f 178/398/213 177/297/213 179/399/213
f 242/400/214 241/401/214 239/402/214
f 173/403/215 175/296/215 176/295/215
f 244/404/216 243/394/216 241/405/216
f 169/406/217 171/407/217 172/408/217
f 167/409/218 169/406/218 170/410/218
f 186/411/219 185/392/219 187/412/219
f 163/413/220 165/414/220 166/415/220
f 161/300/221 163/413/221 164/416/221
f 189/302/222 191/417/222 192/303/222
f 192/303/223 191/417/223 193/305/223
f 217/319/224 219/418/224 220/419/224
f 207/373/225 271/372/225 273/370/225
f 219/418/226 221/307/226 222/306/226
f 255/420/227 191/357/227 189/359/227
f 213/421/228 215/318/228 216/422/228
f 211/423/229 213/421/229 214/424/229
f 250/425/230 249/426/230 247/388/230
f 278/427/231 277/428/231 275/396/231
f 204/429/232 203/430/232 205/431/232
f 202/432/233 201/433/233 203/430/233
f 200/434/234 199/435/234 201/433/234
f 198/436/235 197/437/235 199/435/235
f 196/438/236 195/439/236 197/437/236
f 194/304/237 193/305/237 195/439/237
f 221/307/238 223/383/238 224/299/238
f 225/309/173 287/440/173 288/310/173
f 282/441/239 281/442/239 279/443/239
f 280/444/240 279/443/240 277/428/240
f 252/445/241 251/446/241 249/426/241
f 207/447/242 209/448/242 210/449/242
f 165/414/243 167/409/243 168/450/243
f 180/451/244 179/399/244 181/452/244
f 274/453/245 273/397/245 271/454/245
f 239/402/246 237/455/246 238/456/246
f 237/455/247 235/457/247 236/458/247
f 235/457/248 233/384/248 234/459/248
f 188/460/249 187/412/249 189/302/249
f 231/385/250 229/461/250 230/462/250
f 229/461/251 227/463/251 228/464/251
f 228/464/252 227/463/252 225/309/252
f 256/312/174 255/465/174 253/313/174
f 257/315/175 255/465/175 256/312/175
f 209/448/253 211/423/253 212/466/253
f 286/316/254 285/317/254 283/467/254
f 284/468/255 283/467/255 281/442/255
f 252/445/256 254/311/256 253/313/256
f 206/469/257 205/431/257 207/470/257
f 182/471/258 181/452/258 183/391/258
f 171/407/259 173/403/259 174/472/259
f 271/454/260 269/473/260 270/474/260
f 269/473/261 267/475/261 268/476/261
f 267/475/262 265/477/262 266/478/262
f 265/477/263 263/479/263 264/480/263
f 263/479/264 261/481/264 262/482/264
f 261/481/265 259/483/265 260/484/265
f 259/483/266 257/315/266 258/314/266
f 288/310/267 287/440/267 285/317/267
f 178/398/168 176/295/168 177/297/168
f 216/422/268 215/318/268 218/320/268
f 219/485/269 217/321/269 283/323/269
f 183/342/270 247/324/270 185/326/270
f 175/339/271 239/327/271 177/329/271
f 233/337/272 235/330/272 169/332/272
f 177/329/273 241/328/273 179/334/273
f 219/485/274 283/323/274 221/336/274
f 231/345/275 233/337/275 167/338/275
f 237/343/276 239/327/276 173/340/276
f 181/344/277 245/341/277 183/342/277
f 173/340/278 171/331/278 237/343/278
f 179/334/279 243/333/279 181/344/279
f 229/347/280 231/345/280 165/346/280
f 227/379/281 229/347/281 163/348/281
f 185/326/282 249/325/282 187/350/282
f 223/354/283 287/351/283 161/353/283
f 221/336/284 285/335/284 223/354/284
f 255/420/285 257/355/285 191/357/285
f 187/350/286 251/349/286 189/359/286
f 217/321/287 215/360/287 281/322/287
f 197/381/288 261/362/288 199/364/288
f 215/360/289 213/365/289 279/361/289
f 213/365/290 211/367/290 277/366/290
f 211/367/291 209/369/291 275/368/291
f 205/375/292 269/371/292 207/373/292
f 203/377/293 267/374/293 205/375/293
f 201/378/294 265/376/294 203/377/294
f 199/364/295 263/363/295 201/378/295
f 225/352/296 227/379/296 161/353/296
f 195/382/297 259/380/297 197/381/297
f 257/355/298 259/380/298 193/356/298
f 234/459/299 233/384/299 232/386/299
f 246/393/209 248/387/209 245/389/209
f 186/411/210 184/390/210 185/392/210
f 244/404/211 246/393/211 243/394/211
f 274/453/212 276/395/212 273/397/212
f 180/451/213 178/398/213 179/399/213
f 240/486/300 242/400/300 239/402/300
f 174/472/215 173/403/215 176/295/215
f 242/487/216 244/404/216 241/405/216
f 170/410/217 169/406/217 172/408/217
f 168/450/218 167/409/218 170/410/218
f 188/460/219 186/411/219 187/412/219
f 164/416/220 163/413/220 166/415/220
f 162/298/301 161/300/301 164/416/301
f 218/320/224 217/319/224 220/419/224
f 209/369/302 207/373/302 273/370/302
f 220/419/303 219/418/303 222/306/303
f 253/358/304 255/420/304 189/359/304
f 214/424/228 213/421/228 216/422/228
f 212/466/229 211/423/229 214/424/229
f 248/387/230 250/425/230 247/388/230
f 276/395/231 278/427/231 275/396/231
f 206/469/232 204/429/232 205/431/232
f 204/429/305 202/432/305 203/430/305
f 202/432/306 200/434/306 201/433/306
f 200/434/307 198/436/307 199/435/307
f 198/436/308 196/438/308 197/437/308
f 196/438/309 194/304/309 195/439/309
f 280/444/239 282/441/239 279/443/239
f 278/427/240 280/444/240 277/428/240
f 250/425/241 252/445/241 249/426/241
f 208/488/242 207/447/242 210/449/242
f 166/415/243 165/414/243 168/450/243
f 182/471/244 180/451/244 181/452/244
f 272/489/245 274/453/245 271/454/245
f 240/486/246 239/402/246 238/456/246
f 238/456/247 237/455/247 236/458/247
f 236/458/248 235/457/248 234/459/248
f 190/301/310 188/460/310 189/302/310
f 232/386/250 231/385/250 230/462/250
f 230/462/251 229/461/251 228/464/251
f 226/308/311 228/464/311 225/309/311
f 210/449/312 209/448/312 212/466/312
f 284/468/254 286/316/254 283/467/254
f 282/441/255 284/468/255 281/442/255
f 251/446/313 252/445/313 253/313/313
f 208/490/314 206/469/314 207/470/314
f 184/390/258 182/471/258 183/391/258
f 172/408/259 171/407/259 174/472/259
f 272/489/260 271/454/260 270/474/260
f 270/474/261 269/473/261 268/476/261
f 268/476/262 267/475/262 266/478/262
f 266/478/263 265/477/263 264/480/263
f 264/480/264 263/479/264 262/482/264
f 262/482/265 261/481/265 260/484/265
f 260/484/315 259/483/315 258/314/315
f 351/491/15 349/492/15 352/493/15
f 399/494/316 400/495/316 398/496/316
f 399/494/22 401/497/22 400/495/22
f 293/498/18 294/499/18 296/500/18
f 366/501/317 368/502/317 302/503/317
f 356/504/20 354/505/20 353/506/20
f 415/507/21 353/506/21 416/508/21
f 401/497/17 402/509/17 400/495/17
f 320/510/23 322/511/23 321/512/23
f 322/513/318 386/514/318 388/515/318
f 356/516/319 292/517/319 354/518/319
f 370/519/26 368/520/26 367/521/26
f 370/522/27 306/523/27 304/524/27
f 328/525/320 326/526/320 390/527/320
f 342/528/29 344/529/29 343/530/29
f 366/531/30 364/532/30 363/533/30
f 341/534/29 342/528/29 343/530/29
f 398/535/321 334/536/321 396/537/321
f 363/533/32 364/532/32 361/538/32
f 391/539/33 393/540/33 392/541/33
f 338/542/34 340/543/34 339/544/34
f 310/545/322 308/546/322 372/547/322
f 316/548/36 318/549/36 317/550/36
f 360/551/37 358/552/37 357/553/37
f 315/554/36 316/548/36 317/550/36
f 297/555/38 295/556/38 298/557/38
f 320/558/39 318/559/39 384/560/39
f 346/561/323 410/562/323 412/563/323
f 379/564/41 381/565/41 380/566/41
f 362/567/42 298/568/42 296/569/42
f 400/570/43 336/571/43 398/535/43
f 411/572/164 412/573/164 409/574/164
f 301/575/45 299/576/45 302/577/45
f 368/502/324 370/522/324 304/524/324
f 333/578/47 334/579/47 336/580/47
f 340/543/48 342/528/48 341/534/48
f 358/581/325 294/582/325 356/516/325
f 403/583/50 404/584/50 401/497/50
f 383/585/51 384/586/51 382/587/51
f 336/571/326 334/536/326 398/535/326
f 369/588/327 370/519/327 367/521/327
f 348/589/53 350/590/53 349/492/53
f 344/591/54 342/592/54 408/593/54
f 364/532/32 362/594/32 361/538/32
f 360/595/55 362/567/55 296/569/55
f 395/596/56 397/597/56 396/598/56
f 333/578/57 331/599/57 334/579/57
f 382/600/58 318/559/58 380/601/58
f 292/517/328 290/602/328 354/518/328
f 375/603/60 376/604/60 374/605/60
f 371/606/61 373/607/61 372/608/61
f 335/609/62 336/610/62 338/542/62
f 354/518/329 290/602/329 416/611/329
f 377/612/64 378/613/64 376/604/64
f 291/614/65 292/615/65 294/499/65
f 372/547/66 308/546/66 370/522/66
f 331/599/57 332/616/57 334/579/57
f 303/617/67 301/575/67 304/618/67
f 332/619/330 330/620/330 394/621/330
f 314/622/69 316/548/69 315/554/69
f 368/502/331 304/524/331 302/503/331
f 342/592/71 406/623/71 408/593/71
f 289/624/72 290/625/72 292/615/72
f 364/626/73 300/627/73 298/568/73
f 290/602/74 352/628/74 416/611/74
f 313/629/69 314/622/69 315/554/69
f 373/607/332 374/605/332 372/608/332
f 413/630/75 414/631/75 411/572/75
f 415/507/76 416/508/76 413/630/76
f 347/632/333 348/589/333 349/492/333
f 392/633/77 328/525/77 390/527/77
f 309/634/78 310/635/78 311/636/78
f 374/637/79 310/545/79 372/547/79
f 393/540/33 394/638/33 392/541/33
f 348/639/334 346/561/334 412/563/334
f 299/576/81 297/555/81 300/640/81
f 360/595/82 296/569/82 294/582/82
f 293/498/65 291/614/65 294/499/65
f 397/597/56 398/496/56 396/598/56
f 326/526/84 324/641/84 388/515/84
f 402/642/335 338/643/335 400/570/335
f 312/644/129 314/622/129 313/629/129
f 391/539/87 392/541/87 390/645/87
f 312/646/336 310/545/336 374/637/336
f 349/492/89 350/590/89 352/493/89
f 406/623/90 342/592/90 340/647/90
f 410/648/91 408/649/91 407/650/91
f 367/521/92 368/520/92 365/651/92
f 407/650/93 408/649/93 405/652/93
f 308/653/94 310/635/94 309/634/94
f 393/540/95 395/596/95 394/638/95
f 405/652/105 406/654/105 403/583/105
f 408/649/93 406/654/93 405/652/93
f 291/614/72 289/624/72 292/615/72
f 338/643/97 336/571/97 400/570/97
f 387/655/98 388/656/98 385/657/98
f 371/606/99 372/608/99 370/658/99
f 308/546/100 306/523/100 370/522/100
f 376/659/101 312/646/101 374/637/101
f 343/530/102 344/529/102 345/660/102
f 385/657/337 386/661/337 384/586/337
f 295/556/18 293/498/18 296/500/18
f 303/617/338 304/618/338 306/662/338
f 406/654/105 404/584/105 403/583/105
f 361/538/106 362/594/106 359/663/106
f 380/601/107 316/664/107 378/665/107
f 396/537/339 332/619/339 394/621/339
f 387/655/109 389/666/109 388/656/109
f 377/612/110 379/564/110 378/613/110
f 327/667/111 328/668/111 330/669/111
f 409/574/340 410/648/340 407/650/340
f 358/581/112 360/595/112 294/582/112
f 340/647/341 338/643/341 404/670/341
f 305/671/114 306/662/114 307/672/114
f 352/493/115 290/625/115 289/624/115
f 365/651/116 366/531/116 363/533/116
f 389/666/342 391/539/342 390/645/342
f 388/656/117 386/661/117 385/657/117
f 378/665/118 314/673/118 376/659/118
f 357/553/119 358/552/119 355/674/119
f 381/565/120 383/585/120 382/587/120
f 335/675/47 333/578/47 336/580/47
f 351/491/115 352/493/115 289/624/115
f 337/676/34 338/542/34 339/544/34
f 329/677/111 327/667/111 330/669/111
f 373/607/60 375/603/60 374/605/60
f 397/597/343 399/494/343 398/496/343
f 345/660/121 346/678/121 347/632/121
f 369/679/344 371/606/344 370/658/344
f 362/567/123 364/626/123 298/568/123
f 317/550/124 318/549/124 319/680/124
f 319/680/23 320/510/23 321/512/23
f 346/561/125 344/591/125 410/562/125
f 322/513/126 320/558/126 386/514/126
f 299/576/45 300/640/45 302/577/45
f 295/556/38 296/500/38 298/557/38
f 325/681/127 323/682/127 324/683/127
f 346/678/345 348/589/345 347/632/345
f 323/682/128 321/512/128 324/683/128
f 310/635/78 312/644/78 311/636/78
f 362/594/106 360/551/106 359/663/106
f 311/636/129 312/644/129 313/629/129
f 301/575/67 302/577/67 304/618/67
f 394/621/346 330/620/346 392/633/346
f 359/663/37 360/551/37 357/553/37
f 306/662/132 308/653/132 307/672/132
f 379/564/110 380/566/110 378/613/110
f 364/626/133 366/501/133 300/627/133
f 389/666/134 390/645/134 388/656/134
f 337/676/135 335/609/135 338/542/135
f 330/620/136 328/525/136 392/633/136
f 324/641/137 322/513/137 388/515/137
f 383/585/138 385/657/138 384/586/138
f 327/667/139 325/681/139 328/668/139
f 305/671/104 303/617/104 306/662/104
f 390/527/140 326/526/140 388/515/140
f 326/684/141 325/681/141 324/683/141
f 307/672/94 308/653/94 309/634/94
f 350/685/347 414/686/347 416/611/347
f 404/670/348 406/623/348 340/647/348
f 414/631/75 412/573/75 411/572/75
f 320/558/144 384/560/144 386/514/144
f 297/555/81 298/557/81 300/640/81
f 321/512/128 322/511/128 324/683/128
f 348/639/145 412/563/145 414/686/145
f 318/559/146 382/600/146 384/560/146
f 318/559/349 316/664/349 380/601/349
f 416/508/148 414/631/148 413/630/148
f 338/643/149 402/642/149 404/670/149
f 358/552/150 356/504/150 355/674/150
f 325/681/139 326/684/139 328/668/139
f 294/582/350 292/517/350 356/516/350
f 318/549/152 320/510/152 319/680/152
f 339/544/48 340/543/48 341/534/48
f 331/599/153 329/677/153 332/616/153
f 344/529/154 346/678/154 345/660/154
f 344/591/155 408/593/155 410/562/155
f 395/596/95 396/598/95 394/638/95
f 316/664/351 314/673/351 378/665/351
f 350/685/157 348/639/157 414/686/157
f 368/520/158 366/531/158 365/651/158
f 381/565/352 382/587/352 380/566/352
f 366/501/159 302/503/159 300/627/159
f 329/677/153 330/669/153 332/616/153
f 352/628/353 350/685/353 416/611/353
f 375/603/162 377/612/162 376/604/162
f 314/673/163 312/646/163 376/659/163
f 412/573/164 410/648/164 409/574/164
f 404/584/50 402/509/50 401/497/50
f 355/674/165 356/504/165 353/506/165
f 353/506/166 354/505/166 416/508/166
f 334/536/167 332/619/167 396/537/167
f 550/687/176 552/688/176 549/689/176
f 479/690/177 481/691/177 482/692/177
f 486/693/172 485/694/172 488/695/172
f 481/696/354 545/697/354 547/698/354
f 518/699/174 520/700/174 517/701/174
f 431/702/171 433/703/171 432/704/171
f 499/705/355 454/706/355 456/707/355
f 522/708/175 521/709/175 520/700/175
f 503/710/180 505/711/180 448/712/180
f 511/713/356 513/714/356 440/715/356
f 435/716/170 436/717/170 433/703/170
f 490/718/173 489/719/173 552/688/173
f 463/720/357 488/695/357 464/721/357
f 449/722/168 450/723/168 448/724/168
f 505/711/182 507/725/182 446/726/182
f 547/698/183 549/727/183 485/728/183
f 497/729/358 456/707/358 458/730/358
f 503/710/184 450/731/184 452/732/184
f 509/733/185 511/713/185 442/734/185
f 454/706/186 499/705/186 501/735/186
f 507/725/359 509/733/359 444/736/359
f 495/737/188 458/730/188 460/738/188
f 493/739/360 460/738/360 462/740/360
f 513/714/361 515/741/361 438/742/361
f 551/743/362 489/744/362 464/745/362
f 549/727/363 551/743/363 487/746/363
f 521/747/193 432/748/193 434/749/193
f 515/741/194 517/750/194 436/751/194
f 479/752/195 543/753/195 545/697/195
f 525/754/196 527/755/196 426/756/196
f 477/757/364 541/758/364 543/753/364
f 475/759/365 539/760/365 541/758/365
f 473/761/366 537/762/366 539/760/366
f 533/763/367 535/764/367 418/765/367
f 531/766/368 533/763/368 420/767/368
f 529/768/202 531/766/202 422/769/202
f 527/755/203 529/768/203 424/770/203
f 491/771/204 462/740/204 464/745/204
f 523/772/205 525/754/205 428/773/205
f 523/772/206 430/774/206 432/748/206
f 488/695/207 487/775/207 464/721/207
f 497/776/208 495/777/208 496/778/208
f 512/779/209 511/780/209 509/781/209
f 441/782/210 442/783/210 440/784/210
f 510/785/211 509/781/211 507/786/211
f 540/787/212 539/788/212 537/789/212
f 447/790/213 448/724/213 446/791/213
f 506/792/300 505/793/300 503/794/300
f 452/795/369 450/723/369 449/722/369
f 508/796/216 507/786/216 505/797/216
f 456/798/217 454/799/217 453/800/217
f 458/801/218 456/798/218 455/802/218
f 439/803/219 440/784/219 438/804/219
f 462/805/220 460/806/220 459/807/220
f 464/721/221 462/805/221 461/808/221
f 436/717/222 434/809/222 433/703/222
f 433/703/223 434/809/223 432/704/223
f 481/691/224 483/810/224 484/811/224
f 418/765/370 535/764/370 537/762/370
f 483/810/226 485/694/226 486/693/226
f 519/812/227 434/749/227 436/751/227
f 477/813/228 479/690/228 480/814/228
f 475/815/229 477/813/229 478/816/229
f 514/817/230 513/818/230 511/780/230
f 542/819/231 541/820/231 539/788/231
f 421/821/232 422/822/232 420/823/232
f 423/824/233 424/825/233 422/822/233
f 425/826/234 426/827/234 424/825/234
f 427/828/235 428/829/235 426/827/235
f 429/830/236 430/831/236 428/829/236
f 431/702/237 432/704/237 430/831/237
f 485/694/238 487/775/238 488/695/238
f 489/719/173 551/832/173 552/688/173
f 546/833/239 545/834/239 543/835/239
f 544/836/240 543/835/240 541/820/240
f 516/837/241 515/838/241 513/818/241
f 418/839/242 473/840/242 474/841/242
f 460/806/243 458/801/243 457/842/243
f 445/843/244 446/791/244 444/844/244
f 538/845/245 537/789/245 535/846/245
f 503/794/246 501/847/246 502/848/246
f 501/847/371 499/849/371 500/850/371
f 499/849/248 497/776/248 498/851/248
f 437/852/249 438/804/249 436/717/249
f 495/777/250 493/853/250 494/854/250
f 493/853/251 491/855/251 492/856/251
f 492/856/372 491/855/372 489/719/372
f 520/700/174 519/857/174 517/701/174
f 521/709/175 519/857/175 520/700/175
f 473/840/312 475/815/312 476/858/312
f 550/687/254 549/689/254 547/859/254
f 548/860/255 547/859/255 545/834/255
f 516/837/256 518/699/256 517/701/256
f 419/861/373 420/823/373 418/862/373
f 443/863/258 444/844/258 442/783/258
f 454/799/259 452/795/259 451/864/259
f 535/846/260 533/865/260 534/866/260
f 533/865/261 531/867/261 532/868/261
f 531/867/262 529/869/262 530/870/262
f 529/869/374 527/871/374 528/872/374
f 527/871/264 525/873/264 526/874/264
f 525/873/265 523/875/265 524/876/265
f 523/875/266 521/709/266 522/708/266
f 552/688/375 551/832/375 549/689/375
f 447/790/168 449/722/168 448/724/168
f 480/814/268 479/690/268 482/692/268
f 483/877/376 481/696/376 547/698/376
f 442/734/270 511/713/270 440/715/270
f 450/731/377 503/710/377 448/712/377
f 497/729/272 499/705/272 456/707/272
f 448/712/273 505/711/273 446/726/273
f 483/877/378 547/698/378 485/728/378
f 495/737/275 497/729/275 458/730/275
f 501/735/276 503/710/276 452/732/276
f 444/736/277 509/733/277 442/734/277
f 452/732/379 454/706/379 501/735/379
f 446/726/380 507/725/380 444/736/380
f 493/739/280 495/737/280 460/738/280
f 491/771/381 493/739/381 462/740/381
f 440/715/282 513/714/282 438/742/282
f 487/746/283 551/743/283 464/745/283
f 485/728/382 549/727/382 487/746/382
f 519/812/285 521/747/285 434/749/285
f 438/742/383 515/741/383 436/751/383
f 481/696/384 479/752/384 545/697/384
f 428/773/385 525/754/385 426/756/385
f 479/752/289 477/757/289 543/753/289
f 477/757/290 475/759/290 541/758/290
f 475/759/386 473/761/386 539/760/386
f 420/767/387 533/763/387 418/765/387
f 422/769/388 531/766/388 420/767/388
f 424/770/294 529/768/294 422/769/294
f 426/756/389 527/755/389 424/770/389
f 489/744/296 491/771/296 464/745/296
f 430/774/297 523/772/297 428/773/297
f 521/747/298 523/772/298 432/748/298
f 498/851/299 497/776/299 496/778/299
f 510/785/209 512/779/209 509/781/209
f 439/803/210 441/782/210 440/784/210
f 508/796/211 510/785/211 507/786/211
f 538/845/390 540/787/390 537/789/390
f 445/843/391 447/790/391 446/791/391
f 504/878/300 506/792/300 503/794/300
f 451/864/215 452/795/215 449/722/215
f 506/879/216 508/796/216 505/797/216
f 455/802/217 456/798/217 453/800/217
f 457/842/218 458/801/218 455/802/218
f 437/852/219 439/803/219 438/804/219
f 461/808/220 462/805/220 459/807/220
f 463/720/301 464/721/301 461/808/301
f 482/692/224 481/691/224 484/811/224
f 473/761/392 418/765/392 537/762/392
f 484/811/303 483/810/303 486/693/303
f 517/750/393 519/812/393 436/751/393
f 478/816/228 477/813/228 480/814/228
f 476/858/394 475/815/394 478/816/394
f 512/779/230 514/817/230 511/780/230
f 540/787/231 542/819/231 539/788/231
f 419/861/232 421/821/232 420/823/232
f 421/821/305 423/824/305 422/822/305
f 423/824/306 425/826/306 424/825/306
f 425/826/235 427/828/235 426/827/235
f 427/828/308 429/830/308 428/829/308
f 429/830/395 431/702/395 430/831/395
f 544/836/239 546/833/239 543/835/239
f 542/819/240 544/836/240 541/820/240
f 514/817/241 516/837/241 513/818/241
f 417/880/242 418/839/242 474/841/242
f 459/807/243 460/806/243 457/842/243
f 443/863/244 445/843/244 444/844/244
f 536/881/245 538/845/245 535/846/245
f 504/878/246 503/794/246 502/848/246
f 502/848/247 501/847/247 500/850/247
f 500/850/248 499/849/248 498/851/248
f 435/716/310 437/852/310 436/717/310
f 496/778/250 495/777/250 494/854/250
f 494/854/251 493/853/251 492/856/251
f 490/718/396 492/856/396 489/719/396
f 474/841/312 473/840/312 476/858/312
f 548/860/254 550/687/254 547/859/254
f 546/833/255 548/860/255 545/834/255
f 515/838/313 516/837/313 517/701/313
f 417/882/314 419/861/314 418/862/314
f 441/782/258 443/863/258 442/783/258
f 453/800/259 454/799/259 451/864/259
f 536/881/260 535/846/260 534/866/260
f 534/866/261 533/865/261 532/868/261
f 532/868/262 531/867/262 530/870/262
f 530/870/263 529/869/263 528/872/263
f 528/872/264 527/871/264 526/874/264
f 526/874/265 525/873/265 524/876/265
f 524/876/315 523/875/315 522/708/315
g Ksrangiersignal_Plane.006_Lights
f 133/883/397 131/884/397 129/885/397
f 145/886/398 151/887/398 149/888/398
f 97/889/397 157/890/397 145/886/397
f 145/886/399 143/891/399 141/892/399
f 141/892/400 139/893/400 137/894/400
f 157/890/401 155/895/401 153/896/401
f 121/897/402 119/898/402 117/899/402
f 113/900/403 111/901/403 109/902/403
f 101/903/404 99/904/404 97/889/404
f 97/889/405 121/897/405 113/900/405
f 121/897/406 127/905/406 125/906/406
f 129/885/400 141/892/400 137/894/400
f 97/889/407 159/907/407 157/890/407
f 105/908/405 101/903/405 97/889/405
f 121/897/408 97/889/408 145/886/408
f 125/906/405 123/909/405 121/897/405
f 121/897/409 117/899/409 115/910/409
f 145/886/400 141/892/400 129/885/400
f 129/885/410 121/897/410 145/886/410
f 97/889/405 109/902/405 105/908/405
f 121/897/405 115/910/405 113/900/405
f 153/896/411 151/887/411 145/886/411
f 145/886/400 157/890/400 153/896/400
f 105/908/412 103/911/412 101/903/412
f 129/885/413 127/905/413 121/897/413
f 137/894/414 135/912/414 133/883/414
f 113/900/405 109/902/405 97/889/405
f 137/894/401 133/883/401 129/885/401
f 149/888/397 147/913/397 145/886/397
f 109/902/415 107/914/415 105/908/415
f 224/915/416 164/916/416 176/917/416
f 176/917/416 180/918/416 192/919/416
f 224/915/417 200/920/417 208/921/417
f 208/921/417 212/922/417 224/915/417
f 176/917/416 164/916/416 168/923/416
f 168/923/416 170/924/416 176/917/416
f 192/919/416 180/918/416 184/925/416
f 184/925/416 188/926/416 192/919/416
f 192/919/418 194/927/418 200/920/418
f 200/920/406 204/928/406 206/929/406
f 224/915/406 212/922/406 216/930/406
f 216/930/406 220/931/406 224/915/406
f 224/915/419 162/932/419 164/916/419
f 164/916/419 166/933/419 168/923/419
f 176/917/419 170/924/419 172/934/419
f 172/934/420 174/935/420 176/917/420
f 176/917/420 178/936/420 180/918/420
f 180/918/420 182/937/420 184/925/420
f 184/925/416 186/938/416 188/926/416
f 188/926/421 190/939/421 192/919/421
f 200/920/422 194/927/422 196/940/422
f 196/940/406 198/941/406 200/920/406
f 200/920/423 202/942/423 204/928/423
f 200/920/417 206/929/417 208/921/417
f 208/921/424 210/943/424 212/922/424
f 212/922/417 214/944/417 216/930/417
f 216/930/417 218/945/417 220/931/417
f 220/931/425 222/946/425 224/915/425
f 200/920/426 224/915/426 176/917/426
f 192/919/409 200/920/409 176/917/409
f 389/947/427 387/948/427 385/949/427
f 401/950/398 407/951/398 405/952/398
f 353/953/397 413/954/397 401/950/397
f 401/950/428 399/955/428 397/956/428
f 397/956/400 395/957/400 393/958/400
f 413/954/400 411/959/400 409/960/400
f 377/961/405 375/962/405 373/963/405
f 369/964/429 367/965/429 365/966/429
f 357/967/430 355/968/430 353/953/430
f 353/953/405 377/961/405 369/964/405
f 377/961/431 383/969/431 381/970/431
f 385/949/400 397/956/400 393/958/400
f 353/953/407 415/971/407 413/954/407
f 361/972/405 357/967/405 353/953/405
f 377/961/408 353/953/408 401/950/408
f 381/970/405 379/973/405 377/961/405
f 377/961/409 373/963/409 371/974/409
f 401/950/400 397/956/400 385/949/400
f 385/949/410 377/961/410 401/950/410
f 353/953/405 365/966/405 361/972/405
f 377/961/405 371/974/405 369/964/405
f 409/960/407 407/951/407 401/950/407
f 401/950/400 413/954/400 409/960/400
f 361/972/412 359/975/412 357/967/412
f 385/949/413 383/969/413 377/961/413
f 393/958/400 391/976/400 389/947/400
f 369/964/405 365/966/405 353/953/405
f 393/958/401 389/947/401 385/949/401
f 405/952/400 403/977/400 401/950/400
f 365/966/432 363/978/432 361/972/432
f 476/979/433 478/980/433 480/981/433
f 417/982/434 474/983/434 476/979/434
f 429/984/417 427/985/417 425/986/417
f 425/986/435 431/987/435 429/984/435
f 425/986/406 419/988/406 417/982/406
f 480/981/434 482/989/434 484/990/434
f 484/990/436 486/991/436 488/992/436
f 425/986/406 423/993/406 421/994/406
f 449/995/437 455/996/437 453/997/437
f 449/995/437 461/998/437 457/999/437
f 453/997/419 451/1000/419 449/995/419
f 488/992/406 476/979/406 480/981/406
f 449/995/438 447/1001/438 445/1002/438
f 417/982/417 476/979/417 488/992/417
f 488/992/439 463/1003/439 461/998/439
f 425/986/417 421/994/417 419/988/417
f 437/1004/439 435/1005/439 433/1006/439
f 488/992/419 461/998/419 449/995/419
f 461/998/437 459/1007/437 457/999/437
f 441/1008/421 439/1009/421 437/1004/421
f 445/1002/438 443/1010/438 441/1008/438
f 488/992/417 425/986/417 417/982/417
f 457/999/419 455/996/419 449/995/419
f 433/1006/440 431/987/440 425/986/440
f 480/981/417 484/990/417 488/992/417
f 433/1006/416 445/1002/416 441/1008/416
f 449/995/416 445/1002/416 433/1006/416
f 441/1008/416 437/1004/416 433/1006/416
f 425/986/426 488/992/426 449/995/426
f 433/1006/409 425/986/409 449/995/409
